EESchema Schematic File Version 4
LIBS:PrinterBoard-cache
EELAYER 26 0
EELAYER END
$Descr A3 16535 11693
encoding utf-8
Sheet 2 4
Title ""
Date ""
Rev ""
Comp ""
Comment1 ""
Comment2 ""
Comment3 ""
Comment4 ""
$EndDescr
$Comp
L ic:U_MCU_NXP_LPC1768FBD100 U1
U 1 1 5C46B6D5
P 7250 2100
F 0 "U1" H 8550 2250 50  0000 C CNN
F 1 "U_MCU_NXP_LPC1768FBD100" H 8550 -5350 50  0000 C TNN
F 2 "ic_smt:QFP100P50_1600X1600X160HD" H 8950 1700 50  0001 C CNN
F 3 "" H 8950 1700 50  0001 C CNN
F 4 "https://cz.farnell.com/nxp/lpc1768fbd100-551/mcu-32bit-cortex-m3-100mhz-lqfp/dp/1718549" H 8600 -5500 50  0001 C CNN "SOURCE"
	1    7250 2100
	1    0    0    -1  
$EndComp
$Comp
L sch_power:GND #PWR0101
U 1 1 5C46B6DC
P 7150 9500
F 0 "#PWR0101" H 7150 9400 50  0001 C CNN
F 1 "GND" H 7150 9400 50  0000 C CNN
F 2 "" H 7150 9500 50  0001 C CNN
F 3 "" H 7150 9500 50  0001 C CNN
	1    7150 9500
	1    0    0    -1  
$EndComp
Wire Wire Line
	7250 9400 7150 9400
Wire Wire Line
	7150 9400 7150 9500
Wire Wire Line
	7250 9200 7150 9200
Wire Wire Line
	7150 9200 7150 9400
Connection ~ 7150 9400
Wire Wire Line
	7250 9100 7150 9100
Wire Wire Line
	7150 9100 7150 9200
Connection ~ 7150 9200
Wire Wire Line
	7250 9000 7150 9000
Wire Wire Line
	7150 9000 7150 9100
Connection ~ 7150 9100
Wire Wire Line
	7250 8900 7150 8900
Wire Wire Line
	7150 8900 7150 9000
Connection ~ 7150 9000
Text Notes 7200 7700 2    50   ~ 0
Unused\n
Text Notes 7200 8500 2    50   ~ 0
Unused\n
Text Notes 7200 8100 2    50   ~ 0
Unused\n
$Comp
L passive:XTAL Q1
U 1 1 5C46B6F4
P 6600 6700
F 0 "Q1" H 6660 6720 50  0000 L BNN
F 1 "12M_3.2X2.5" V 6500 6750 50  0000 L TNN
F 2 "" H 6600 6700 50  0001 C CNN
F 3 "" H 6600 6700 50  0001 C CNN
F 4 "https://cz.farnell.com/abracon/abm8g-106-12-000mhz-t/crystal-12mhz-10pf-3-2mm-x-2-5mm/dp/2889293" H 6600 6700 50  0001 C CNN "SOURCE"
	1    6600 6700
	0    -1   -1   0   
$EndComp
$Comp
L sch_power:GND #PWR0102
U 1 1 5C46B6FB
P 6050 7350
F 0 "#PWR0102" H 6050 7250 50  0001 C CNN
F 1 "GND" H 6050 7250 50  0000 C CNN
F 2 "" H 6050 7350 50  0001 C CNN
F 3 "" H 6050 7350 50  0001 C CNN
	1    6050 7350
	1    0    0    -1  
$EndComp
$Comp
L passive:C_NP C2
U 1 1 5C46B701
P 6050 7200
F 0 "C2" H 6110 7220 50  0000 L BNN
F 1 "C_NP" H 6110 7180 50  0000 L TNN
F 2 "" H 6050 7200 50  0001 C CNN
F 3 "" H 6050 7200 50  0001 C CNN
	1    6050 7200
	0    -1   -1   0   
$EndComp
Wire Wire Line
	6050 7300 6050 7350
$Comp
L passive:C_NP C5
U 1 1 5C46B709
P 6300 7200
F 0 "C5" H 6360 7220 50  0000 L BNN
F 1 "C_NP" H 6360 7180 50  0000 L TNN
F 2 "" H 6300 7200 50  0001 C CNN
F 3 "" H 6300 7200 50  0001 C CNN
	1    6300 7200
	0    -1   -1   0   
$EndComp
$Comp
L sch_power:GND #PWR0103
U 1 1 5C46B710
P 6300 7350
F 0 "#PWR0103" H 6300 7250 50  0001 C CNN
F 1 "GND" H 6300 7250 50  0000 C CNN
F 2 "" H 6300 7350 50  0001 C CNN
F 3 "" H 6300 7350 50  0001 C CNN
	1    6300 7350
	1    0    0    -1  
$EndComp
Wire Wire Line
	6300 7300 6300 7350
Wire Wire Line
	6300 6900 6600 6900
Wire Wire Line
	7250 6500 6600 6500
Wire Wire Line
	6600 6500 6600 6600
Wire Wire Line
	6600 6500 6050 6500
Connection ~ 6600 6500
Wire Wire Line
	6600 6800 6600 6900
Connection ~ 6600 6900
Wire Wire Line
	6600 6900 7250 6900
Wire Wire Line
	6050 6500 6050 7100
Wire Wire Line
	6300 6900 6300 7100
$Comp
L sch_power:V_3V3 #PWR0104
U 1 1 5C46B721
P 5900 2850
F 0 "#PWR0104" H 5900 2850 50  0001 C CNN
F 1 "V_3V3" H 5900 3000 50  0000 C CNN
F 2 "" H 5900 2850 50  0001 C CNN
F 3 "" H 5900 2850 50  0001 C CNN
	1    5900 2850
	1    0    0    -1  
$EndComp
Wire Wire Line
	7150 3200 7250 3200
Wire Wire Line
	7150 3500 7250 3500
Connection ~ 7150 3500
Wire Wire Line
	7150 3600 7250 3600
Connection ~ 7150 3600
Wire Wire Line
	7150 3600 7150 3500
Wire Wire Line
	7150 3700 7250 3700
Wire Wire Line
	7150 3700 7150 3600
$Comp
L sch_power:GND #PWR0105
U 1 1 5C46B72F
P 5900 3450
F 0 "#PWR0105" H 5900 3350 50  0001 C CNN
F 1 "GND" H 5900 3350 50  0000 C CNN
F 2 "" H 5900 3450 50  0001 C CNN
F 3 "" H 5900 3450 50  0001 C CNN
	1    5900 3450
	1    0    0    -1  
$EndComp
Wire Wire Line
	6150 3300 6150 3400
$Comp
L passive:C_NP_STK C3
U 1 1 5C46B736
P 6150 3200
F 0 "C3" H 6210 3220 40  0000 L BNN
F 1 "100nF" H 6210 3180 40  0000 L TNN
F 2 "discrete_smt:CAPC1005X55_0402_IPC-B" H 6150 3200 50  0001 C CNN
F 3 "" H 6150 3200 50  0001 C CNN
	1    6150 3200
	0    -1   -1   0   
$EndComp
Wire Wire Line
	6150 3400 6300 3400
Wire Wire Line
	6300 3400 6300 3300
Connection ~ 6150 3400
Wire Wire Line
	6300 3400 6450 3400
Wire Wire Line
	6900 3400 6900 3300
Connection ~ 6300 3400
Wire Wire Line
	6450 3300 6450 3400
Connection ~ 6450 3400
Wire Wire Line
	6450 3400 6600 3400
Wire Wire Line
	6600 3300 6600 3400
Connection ~ 6600 3400
Wire Wire Line
	6600 3400 6750 3400
Wire Wire Line
	6750 3300 6750 3400
Connection ~ 6750 3400
Wire Wire Line
	6750 3400 6900 3400
Wire Wire Line
	6150 2900 6300 2900
Connection ~ 6150 2900
Wire Wire Line
	6150 2900 6150 3100
Wire Wire Line
	6900 3100 6900 2900
Wire Wire Line
	6750 3100 6750 2900
Connection ~ 6750 2900
Wire Wire Line
	6750 2900 6900 2900
Wire Wire Line
	6600 3100 6600 2900
Connection ~ 6600 2900
Wire Wire Line
	6600 2900 6750 2900
Wire Wire Line
	6450 3100 6450 2900
Connection ~ 6450 2900
Wire Wire Line
	6450 2900 6600 2900
Wire Wire Line
	6300 3100 6300 2900
Connection ~ 6300 2900
Wire Wire Line
	6300 2900 6450 2900
$Comp
L passive:C_NP_STK C4
U 1 1 5C46B75C
P 6300 3200
F 0 "C4" H 6360 3220 40  0000 L BNN
F 1 "100nF" H 6360 3180 40  0000 L TNN
F 2 "discrete_smt:CAPC1005X55_0402_IPC-B" H 6300 3200 50  0001 C CNN
F 3 "" H 6300 3200 50  0001 C CNN
	1    6300 3200
	0    -1   -1   0   
$EndComp
$Comp
L passive:C_NP_STK C6
U 1 1 5C46B763
P 6450 3200
F 0 "C6" H 6510 3220 40  0000 L BNN
F 1 "100nF" H 6510 3180 40  0000 L TNN
F 2 "discrete_smt:CAPC1005X55_0402_IPC-B" H 6450 3200 50  0001 C CNN
F 3 "" H 6450 3200 50  0001 C CNN
	1    6450 3200
	0    -1   -1   0   
$EndComp
$Comp
L passive:C_NP_STK C7
U 1 1 5C46B76A
P 6600 3200
F 0 "C7" H 6660 3220 40  0000 L BNN
F 1 "100nF" H 6660 3180 40  0000 L TNN
F 2 "discrete_smt:CAPC1005X55_0402_IPC-B" H 6600 3200 50  0001 C CNN
F 3 "" H 6600 3200 50  0001 C CNN
	1    6600 3200
	0    -1   -1   0   
$EndComp
$Comp
L passive:C_NP_STK C9
U 1 1 5C46B771
P 6750 3200
F 0 "C9" H 6810 3220 40  0000 L BNN
F 1 "100nF" H 6810 3180 40  0000 L TNN
F 2 "discrete_smt:CAPC1005X55_0402_IPC-B" H 6750 3200 50  0001 C CNN
F 3 "" H 6750 3200 50  0001 C CNN
	1    6750 3200
	0    -1   -1   0   
$EndComp
$Comp
L passive:C_NP_STK C10
U 1 1 5C46B778
P 6900 3200
F 0 "C10" H 6960 3220 40  0000 L BNN
F 1 "100nF" H 6960 3180 40  0000 L TNN
F 2 "discrete_smt:CAPC1005X55_0402_IPC-B" H 6900 3200 50  0001 C CNN
F 3 "" H 6900 3200 50  0001 C CNN
	1    6900 3200
	0    -1   -1   0   
$EndComp
Connection ~ 6900 2900
$Comp
L passive:C_NP_STK C1
U 1 1 5C46B780
P 5900 3200
F 0 "C1" H 5960 3220 40  0000 L BNN
F 1 "10uF" H 5960 3180 40  0000 L TNN
F 2 "discrete_smt:CAPC1005X55_0402_IPC-B" H 5900 3200 50  0001 C CNN
F 3 "" H 5900 3200 50  0001 C CNN
	1    5900 3200
	0    -1   -1   0   
$EndComp
Wire Wire Line
	6150 2900 5900 2900
Wire Wire Line
	5900 2900 5900 3100
Wire Wire Line
	5900 3300 5900 3400
Wire Wire Line
	5900 3400 6150 3400
Wire Wire Line
	5900 3400 5900 3450
Connection ~ 5900 3400
Wire Wire Line
	5900 2900 5900 2850
Connection ~ 5900 2900
Wire Wire Line
	7150 3200 7150 3400
Wire Wire Line
	7250 3400 7150 3400
Connection ~ 7150 3400
Wire Wire Line
	7150 3400 7150 3500
Wire Wire Line
	7250 3100 7150 3100
Wire Wire Line
	7150 3100 7150 3200
Connection ~ 7150 3200
Wire Wire Line
	7250 2900 7150 2900
Wire Wire Line
	7150 2900 7150 3100
Connection ~ 7150 3100
Wire Wire Line
	6900 2900 7150 2900
Connection ~ 7150 2900
$Comp
L sch_power:V_3V3 #PWR0106
U 1 1 5C46B79B
P 5900 4100
F 0 "#PWR0106" H 5900 4100 50  0001 C CNN
F 1 "V_3V3" H 5900 4250 50  0000 C CNN
F 2 "" H 5900 4100 50  0001 C CNN
F 3 "" H 5900 4100 50  0001 C CNN
	1    5900 4100
	1    0    0    -1  
$EndComp
$Comp
L sch_power:GND #PWR0107
U 1 1 5C46B7A1
P 6600 4650
F 0 "#PWR0107" H 6600 4550 50  0001 C CNN
F 1 "GND" H 6600 4550 50  0000 C CNN
F 2 "" H 6600 4650 50  0001 C CNN
F 3 "" H 6600 4650 50  0001 C CNN
	1    6600 4650
	1    0    0    -1  
$EndComp
Wire Wire Line
	6600 4350 6600 4150
$Comp
L passive:C_NP_STK C8
U 1 1 5C46B7A8
P 6600 4450
F 0 "C8" H 6660 4470 40  0000 L BNN
F 1 "100nF" H 6660 4430 40  0000 L TNN
F 2 "discrete_smt:CAPC1005X55_0402_IPC-B" H 6600 4450 50  0001 C CNN
F 3 "" H 6600 4450 50  0001 C CNN
	1    6600 4450
	0    -1   -1   0   
$EndComp
Connection ~ 6600 4150
Wire Wire Line
	5900 4150 5900 4100
Wire Wire Line
	5900 4150 6000 4150
$Comp
L passive:FB FB1
U 1 1 5C46B7B2
P 6200 4150
F 0 "FB1" H 6310 4170 40  0000 L BNN
F 1 "600R" H 6310 4130 40  0000 L TNN
F 2 "" H 6200 4150 50  0001 C CNN
F 3 "" H 6200 4150 50  0001 C CNN
	1    6200 4150
	1    0    0    -1  
$EndComp
Wire Wire Line
	6400 4150 6600 4150
Wire Wire Line
	6600 4550 6600 4600
Wire Wire Line
	6600 4600 6800 4600
Wire Wire Line
	6800 4600 6800 4350
Wire Wire Line
	6800 4350 7050 4350
Connection ~ 6600 4600
Wire Wire Line
	6600 4600 6600 4650
Wire Wire Line
	6600 4150 7150 4150
Wire Wire Line
	7150 4150 7150 4900
Wire Wire Line
	7150 4900 7250 4900
Connection ~ 7150 4150
Wire Wire Line
	7150 4150 7250 4150
Wire Wire Line
	7050 4350 7050 5000
Wire Wire Line
	7050 5000 7250 5000
Connection ~ 7050 4350
Wire Wire Line
	7050 4350 7250 4350
$Comp
L sch_power:V_3V3 #PWR0108
U 1 1 5C46B7C9
P 6300 1500
F 0 "#PWR0108" H 6300 1500 50  0001 C CNN
F 1 "V_3V3" H 6300 1650 50  0000 C CNN
F 2 "" H 6300 1500 50  0001 C CNN
F 3 "" H 6300 1500 50  0001 C CNN
	1    6300 1500
	1    0    0    -1  
$EndComp
$Comp
L sch_power:GND #PWR0109
U 1 1 5C46B7CF
P 6300 2300
F 0 "#PWR0109" H 6300 2200 50  0001 C CNN
F 1 "GND" H 6300 2200 50  0000 C CNN
F 2 "" H 6300 2300 50  0001 C CNN
F 3 "" H 6300 2300 50  0001 C CNN
	1    6300 2300
	1    0    0    -1  
$EndComp
$Comp
L passive:R R1
U 1 1 5C46B7D5
P 6300 1800
F 0 "R1" H 6410 1820 50  0000 L BNN
F 1 "10k" H 6410 1780 50  0000 L TNN
F 2 "" H 6300 1800 50  0001 C CNN
F 3 "" H 6300 1800 50  0001 C CNN
	1    6300 1800
	0    -1   -1   0   
$EndComp
Wire Wire Line
	6300 1500 6300 1600
Wire Wire Line
	6300 2000 6300 2100
Wire Wire Line
	6300 2100 7200 2100
Text Label 6750 2100 0    50   ~ 0
MCU_RST#
$Comp
L connector:J_GEN_2PIN-1COLX2ROW J2
U 1 1 5C46B7E0
P 6100 2100
F 0 "J2" H 6350 2250 50  0000 C CNN
F 1 "PINHEAD-02" H 6250 1850 50  0000 L CNN
F 2 "" H 6100 2100 50  0001 C CNN
F 3 "" H 6100 2100 50  0001 C CNN
	1    6100 2100
	-1   0    0    -1  
$EndComp
Wire Wire Line
	6300 2100 6100 2100
Connection ~ 6300 2100
Wire Wire Line
	6100 2200 6300 2200
Wire Wire Line
	6300 2200 6300 2300
$Comp
L misc:TESTPOINT TP1
U 1 1 5C46B7EB
P 6700 2200
F 0 "TP1" H 6950 2200 50  0000 C CNN
F 1 "TESTPOINT" H 7250 2200 50  0001 C CNN
F 2 "" H 6700 2200 50  0001 C CNN
F 3 "" H 6700 2200 50  0001 C CNN
	1    6700 2200
	-1   0    0    -1  
$EndComp
Wire Wire Line
	6700 2200 7250 2200
Text Label 6750 2200 0    50   ~ 0
MCU_RSTO#
Text Label 6700 4150 0    50   ~ 0
V_3V3_A
Text Label 6700 6500 0    50   ~ 0
MCU_XTAL1
Text Label 6700 6900 0    50   ~ 0
MCU_XTAL2
Text Notes 7200 5500 2    50   ~ 0
Unused\n
Text Notes 7200 5600 2    50   ~ 0
Unused\n
Text Notes 7200 6000 2    50   ~ 0
Unused\n
$Comp
L connector:J_GEN_6PIN-2COLX3ROW_Z J1
U 1 1 5C46B7FA
P 6000 5700
F 0 "J1" H 6300 5850 50  0000 C CNN
F 1 "PINHEAD-03X02" H 6200 5350 50  0000 C CNN
F 2 "" H 6000 5700 50  0001 C CNN
F 3 "" H 6000 5700 50  0001 C CNN
	1    6000 5700
	-1   0    0    -1  
$EndComp
Text Label 6100 5700 0    50   ~ 0
MCU_JTAG_SWDIO
Text Label 6100 5800 0    50   ~ 0
MCU_JTAG_TRST#
Text Label 6100 5900 0    50   ~ 0
MCU_JTAG_SWDCLK
$Comp
L sch_power:V_3V3 #PWR0110
U 1 1 5C46B804
P 5300 5600
F 0 "#PWR0110" H 5300 5600 50  0001 C CNN
F 1 "V_3V3" H 5300 5750 50  0000 C CNN
F 2 "" H 5300 5600 50  0001 C CNN
F 3 "" H 5300 5600 50  0001 C CNN
	1    5300 5600
	1    0    0    -1  
$EndComp
Wire Wire Line
	5300 5600 5300 5700
Wire Wire Line
	5300 5700 5400 5700
Text Notes 5400 5800 2    50   ~ 0
Unused\n
$Comp
L sch_power:GND #PWR0111
U 1 1 5C46B80D
P 5300 6000
F 0 "#PWR0111" H 5300 5900 50  0001 C CNN
F 1 "GND" H 5300 5900 50  0000 C CNN
F 2 "" H 5300 6000 50  0001 C CNN
F 3 "" H 5300 6000 50  0001 C CNN
	1    5300 6000
	1    0    0    -1  
$EndComp
Wire Wire Line
	5400 5900 5300 5900
Wire Wire Line
	5300 5900 5300 6000
Text Notes 5100 5350 0    50   ~ 0
DEBUG JTAG (Do Not Assemble)
Wire Notes Line
	6850 5350 6850 6200
Wire Notes Line
	6850 6200 5100 6200
Wire Notes Line
	5100 6200 5100 5350
Wire Notes Line
	5100 5350 6850 5350
Wire Wire Line
	6000 5700 7250 5700
Wire Wire Line
	6000 5800 7250 5800
Wire Wire Line
	6000 5900 7250 5900
Text Notes 5100 1850 0    50   ~ 0
RESET BUTTON CONN.
Wire Notes Line
	5100 1850 6150 1850
Wire Notes Line
	6150 1850 6150 2450
Wire Notes Line
	6150 2450 5100 2450
Wire Notes Line
	5100 2450 5100 1850
NoConn ~ 7250 7700
NoConn ~ 7250 8100
NoConn ~ 7250 8500
NoConn ~ 7250 6000
NoConn ~ 7250 5600
NoConn ~ 7250 5500
Wire Wire Line
	13300 5150 14100 5150
Text Label 14000 5150 2    50   ~ 0
SPI_DRV_CS#_A
Text GLabel 14100 5150 2    50   Input ~ 0
SPI_DRV_CS#_A
Text GLabel 14100 5650 2    50   Input ~ 0
DRV_A_EN#
Text GLabel 14100 5750 2    50   Input ~ 0
DRV_A_DIR
Text GLabel 14100 5850 2    50   Input ~ 0
DRV_A_STEP
Wire Wire Line
	14100 5750 13300 5750
Wire Wire Line
	14100 5850 13300 5850
Text Label 14000 5650 2    50   ~ 0
DRV_A_EN#
Text Label 14000 5750 2    50   ~ 0
DRV_A_DIR
Text Label 14000 5850 2    50   ~ 0
DRV_A_STEP
Wire Wire Line
	13300 5650 14100 5650
Text Label 14000 4950 2    50   ~ 0
SPI_DRV_MOSI
Text Label 14000 5050 2    50   ~ 0
SPI_DRV_CLK
Text Label 14000 5250 2    50   ~ 0
SPI_DRV_CS#_B
Text Label 14000 4850 2    50   ~ 0
SPI_DRV_MISO
Text GLabel 14100 4950 2    50   Input ~ 0
SPI_DRV_MOSI
Text GLabel 14100 5050 2    50   Input ~ 0
SPI_DRV_CLK
Text GLabel 14100 5250 2    50   Input ~ 0
SPI_DRV_CS#_B
Text GLabel 14100 4850 2    50   Input ~ 0
SPI_DRV_MISO
Text GLabel 14100 5950 2    50   Input ~ 0
DRV_B_EN#
Text GLabel 14100 6050 2    50   Input ~ 0
DRV_B_DIR
Text GLabel 14100 6150 2    50   Input ~ 0
DRV_B_STEP
Wire Wire Line
	14100 6050 13300 6050
Wire Wire Line
	14100 6150 13300 6150
Text Label 14000 6050 2    50   ~ 0
DRV_B_DIR
Text Label 14000 6150 2    50   ~ 0
DRV_B_STEP
Text Label 14000 5350 2    50   ~ 0
SPI_DRV_CS#_C
Text GLabel 14100 5350 2    50   Input ~ 0
SPI_DRV_CS#_C
Text GLabel 14100 6250 2    50   Input ~ 0
DRV_C_EN#
Text GLabel 14100 6350 2    50   Input ~ 0
DRV_C_DIR
Text GLabel 14100 6450 2    50   Input ~ 0
DRV_C_STEP
Wire Wire Line
	14100 6350 13300 6350
Wire Wire Line
	14100 6450 13300 6450
Text Label 14000 6250 2    50   ~ 0
DRV_C_EN#
Text Label 14000 6350 2    50   ~ 0
DRV_C_DIR
Text Label 14000 6450 2    50   ~ 0
DRV_C_STEP
Wire Wire Line
	13300 6250 14100 6250
Text Label 14000 5450 2    50   ~ 0
SPI_DRV_CS#_D
Text GLabel 14100 5450 2    50   Input ~ 0
SPI_DRV_CS#_D
Text GLabel 14100 6550 2    50   Input ~ 0
DRV_D_EN#
Text GLabel 14100 6650 2    50   Input ~ 0
DRV_D_DIR
Text GLabel 14100 6750 2    50   Input ~ 0
DRV_D_STEP
Wire Wire Line
	14100 6650 13300 6650
Wire Wire Line
	14100 6750 13300 6750
Text Label 14000 6550 2    50   ~ 0
DRV_D_EN#
Text Label 14000 6650 2    50   ~ 0
DRV_D_DIR
Text Label 14000 6750 2    50   ~ 0
DRV_D_STEP
Wire Wire Line
	13300 6550 14100 6550
Text Label 14000 5550 2    50   ~ 0
SPI_DRV_CS#_E
Text GLabel 14100 5550 2    50   Input ~ 0
SPI_DRV_CS#_E
Text GLabel 14100 6850 2    50   Input ~ 0
DRV_E_EN#
Text GLabel 14100 6950 2    50   Input ~ 0
DRV_E_DIR
Text GLabel 14100 7050 2    50   Input ~ 0
DRV_E_STEP
Wire Wire Line
	14100 6950 13300 6950
Wire Wire Line
	14100 7050 13300 7050
Text Label 14000 6850 2    50   ~ 0
DRV_E_EN#
Text Label 14000 6950 2    50   ~ 0
DRV_E_DIR
Text Label 14000 7050 2    50   ~ 0
DRV_E_STEP
Wire Wire Line
	13300 6850 14100 6850
Text Label 14000 5950 2    50   ~ 0
DRV_B_EN#
Wire Wire Line
	13300 5950 14100 5950
Wire Wire Line
	14100 4950 13300 4950
Wire Wire Line
	14100 5050 13300 5050
Wire Wire Line
	14100 5250 13300 5250
Wire Wire Line
	14100 4850 13300 4850
Wire Wire Line
	14100 5450 13300 5450
Wire Wire Line
	14100 5550 13300 5550
Wire Wire Line
	14100 5350 13300 5350
Wire Wire Line
	9900 4700 10450 4700
Wire Wire Line
	9900 4800 10450 4800
Text Label 10000 4700 0    50   ~ 0
USB_D+
Text Label 10000 4800 0    50   ~ 0
USB_D-
$Comp
L connector:J_GEN_4PIN-1COLX4ROW J3
U 1 1 5C7866A7
P 14100 7950
F 0 "J3" H 14350 8100 50  0000 C CNN
F 1 "B4B-XH-A" H 14250 7500 50  0000 L CNN
F 2 "" H 14100 7950 50  0001 C CNN
F 3 "" H 14100 7950 50  0001 C CNN
	1    14100 7950
	1    0    0    -1  
$EndComp
Wire Wire Line
	13250 8050 14100 8050
Wire Wire Line
	13250 8150 14100 8150
Text Label 13350 8150 0    50   ~ 0
USB_D+
Text Label 13350 8050 0    50   ~ 0
USB_D-
$Comp
L sch_power:V_5V0 #PWR0112
U 1 1 5C7963CF
P 14000 7850
F 0 "#PWR0112" H 14000 7850 50  0001 C CNN
F 1 "V_5V0" H 14000 8000 50  0000 C CNN
F 2 "" H 14000 7850 50  0001 C CNN
F 3 "" H 14000 7850 50  0001 C CNN
	1    14000 7850
	1    0    0    -1  
$EndComp
Wire Wire Line
	14000 7850 14000 7950
Wire Wire Line
	14000 7950 14100 7950
$Comp
L sch_power:GND #PWR0113
U 1 1 5C79A342
P 14000 8350
F 0 "#PWR0113" H 14000 8250 50  0001 C CNN
F 1 "GND" H 14000 8250 50  0000 C CNN
F 2 "" H 14000 8350 50  0001 C CNN
F 3 "" H 14000 8350 50  0001 C CNN
	1    14000 8350
	1    0    0    -1  
$EndComp
Wire Wire Line
	14100 8250 14000 8250
Wire Wire Line
	14000 8250 14000 8350
Wire Wire Line
	9900 8500 10800 8500
Text Label 10000 8500 0    50   ~ 0
MCU_ISP_TRIGGER#
$Comp
L connector:J_GEN_2PIN-1COLX2ROW J4
U 1 1 5C7A76F3
P 14100 8900
F 0 "J4" H 14350 9050 50  0000 C CNN
F 1 "PINHEAD-02" H 14250 8650 50  0000 L CNN
F 2 "" H 14100 8900 50  0001 C CNN
F 3 "" H 14100 8900 50  0001 C CNN
	1    14100 8900
	1    0    0    -1  
$EndComp
$Comp
L sch_power:GND #PWR0114
U 1 1 5C7ABADF
P 14000 9100
F 0 "#PWR0114" H 14000 9000 50  0001 C CNN
F 1 "GND" H 14000 9000 50  0000 C CNN
F 2 "" H 14000 9100 50  0001 C CNN
F 3 "" H 14000 9100 50  0001 C CNN
	1    14000 9100
	1    0    0    -1  
$EndComp
Wire Wire Line
	14100 9000 14000 9000
Wire Wire Line
	14000 9000 14000 9100
Wire Wire Line
	14100 8900 13250 8900
Text Label 13350 8900 0    50   ~ 0
MCU_ISP_TRIGGER#
Text GLabel 10450 4200 2    50   Input ~ 0
THRM1
Wire Wire Line
	10450 4200 9900 4200
Text Label 10000 4200 0    50   ~ 0
THRM1
Text GLabel 10450 4300 2    50   Input ~ 0
THRM2
Wire Wire Line
	10450 4300 9900 4300
Text Label 10000 4300 0    50   ~ 0
THRM2
Text GLabel 10450 4400 2    50   Input ~ 0
THRM3
Wire Wire Line
	10450 4400 9900 4400
Text Label 10000 4400 0    50   ~ 0
THRM3
Text GLabel 10450 4100 2    50   Input ~ 0
THRM0
Wire Wire Line
	10450 4100 9900 4100
Text Label 10000 4100 0    50   ~ 0
THRM0
Text Notes 14750 700  0    50   ~ 0
TODO: Filamenout runout
Text Notes 14750 800  0    50   ~ 0
TODO: BLTouch
Text Notes 14750 900  0    50   ~ 0
TODO: Inductive sensor
Text Notes 14750 1000 0    50   ~ 0
TODO: PS_ON
Text Notes 14750 1100 0    50   ~ 0
TODO: RGB_ON
Wire Wire Line
	9900 2700 10600 2700
Wire Wire Line
	9900 2800 10600 2800
Wire Wire Line
	9900 2900 10600 2900
Wire Wire Line
	9900 3000 10600 3000
Text Label 10000 2700 0    50   ~ 0
SPI_SD_CS#
Text Label 10000 2800 0    50   ~ 0
SPI_SD_CLK
Text Label 10000 2900 0    50   ~ 0
SPI_SD_MISO
Text Label 10000 3000 0    50   ~ 0
SPI_SD_MOSI
Text GLabel 10600 2700 2    50   Input ~ 0
SPI_SD_CS#
Text GLabel 10600 3000 2    50   Input ~ 0
SPI_SD_MOSI
Text GLabel 10600 2900 2    50   Input ~ 0
SPI_SD_MISO
Text GLabel 10600 2800 2    50   Input ~ 0
SPI_SD_CLK
Text GLabel 7150 1950 0    50   Input ~ 0
MCU_RST#
Wire Wire Line
	7150 1950 7200 1950
Wire Wire Line
	7200 1950 7200 2100
Connection ~ 7200 2100
Wire Wire Line
	7200 2100 7250 2100
Wire Wire Line
	12900 3200 13800 3200
Text Label 13750 3200 2    50   ~ 0
EXP_BEEPER
Wire Wire Line
	13800 3300 12900 3300
Text Label 12950 3300 0    50   ~ 0
EXP_BTN_ENC
Wire Wire Line
	13800 3500 12900 3500
Text Label 13700 3500 2    50   ~ 0
EXP_BTN_EN1
Wire Wire Line
	13800 3600 12900 3600
Text Label 13700 3600 2    50   ~ 0
EXP_BTN_EN2
Wire Wire Line
	13800 3700 12900 3700
Text Label 13700 3700 2    50   ~ 0
EXP_SD_DETECT
Text Label 13750 3800 2    50   ~ 0
LCD_EN
Text Label 13750 3900 2    50   ~ 0
LCD_D4
Wire Wire Line
	12650 4000 13800 4000
Text Label 13750 4000 2    50   ~ 0
LCD_RS
Wire Wire Line
	13800 3800 12650 3800
Wire Wire Line
	13800 3900 12650 3900
Text GLabel 13800 3500 2    50   Input ~ 0
EXP_BTN_EN1
Text GLabel 13800 3600 2    50   Input ~ 0
EXP_BTN_EN2
Text GLabel 13800 3700 2    50   Input ~ 0
EXP_SD_DETECT
Text GLabel 13800 3200 2    50   Input ~ 0
EXP_BEEPER
Text GLabel 13800 3300 2    50   Input ~ 0
EXP_BTN_ENC
Text GLabel 13800 3800 2    50   Input ~ 0
LCD_EN
Text GLabel 13800 3900 2    50   Input ~ 0
LCD_D4
Text GLabel 13800 4000 2    50   Input ~ 0
LCD_RS
NoConn ~ 5400 5800
Wire Wire Line
	9900 2100 10600 2100
Wire Wire Line
	9900 2200 10600 2200
Wire Wire Line
	9900 2300 10600 2300
Wire Wire Line
	9900 2400 10600 2400
Text GLabel 10600 2100 2    50   Input ~ 0
I2C_SDA
Text GLabel 10600 2200 2    50   Input ~ 0
I2C_SCL
Text GLabel 10600 2300 2    50   Input ~ 0
UART_TXD
Text GLabel 10600 2400 2    50   Input ~ 0
UART_RXD
Text Label 10050 2100 0    50   ~ 0
I2C_SDA
Text Label 10050 2200 0    50   ~ 0
I2C_SCL
Text Label 10050 2300 0    50   ~ 0
UART_TXD
Text Label 10050 2400 0    50   ~ 0
UART_RXD
Text Notes 10100 2500 0    50   ~ 0
FREE GENERIC IO
Text Notes 10100 2600 0    50   ~ 0
FREE GENERIC IO
Text Notes 10100 3100 0    50   ~ 0
FREE GENERIC IO
Text Notes 10100 3200 0    50   ~ 0
FREE GENERIC IO
Text Notes 10100 3300 0    50   ~ 0
FREE GENERIC IO
Text Notes 10100 3400 0    50   ~ 0
FREE GENERIC IO
Text Notes 10100 3500 0    50   ~ 0
FREE GENERIC IO
Text Notes 10100 3600 0    50   ~ 0
FREE GENERIC IO
Text Notes 10100 3700 0    50   ~ 0
FREE GENERIC IO
Text Notes 10100 3800 0    50   ~ 0
FREE GENERIC IO
Text Notes 10100 3900 0    50   ~ 0
FREE GENERIC IO
Text Notes 10100 4000 0    50   ~ 0
FREE GENERIC IO
Text Notes 10100 4500 0    50   ~ 0
FREE GENERIC IO
Text Notes 10100 4600 0    50   ~ 0
FREE GENERIC IO
Text Notes 10100 5000 0    50   ~ 0
FREE GENERIC IO
Text Notes 10100 5100 0    50   ~ 0
FREE GENERIC IO
Text Notes 10100 5200 0    50   ~ 0
FREE GENERIC IO
Text Notes 10100 5300 0    50   ~ 0
FREE GENERIC IO
Text Notes 10100 5400 0    50   ~ 0
FREE GENERIC IO
Text Notes 10100 5500 0    50   ~ 0
FREE GENERIC IO
Text Notes 10100 5600 0    50   ~ 0
FREE GENERIC IO
Text Notes 10100 5700 0    50   ~ 0
FREE GENERIC IO
Text Notes 10100 5800 0    50   ~ 0
FREE GENERIC IO
Text Notes 10100 5900 0    50   ~ 0
FREE GENERIC IO
Text Notes 10100 6000 0    50   ~ 0
FREE GENERIC IO
Text Notes 10100 6100 0    50   ~ 0
FREE GENERIC IO
Text Notes 10100 6200 0    50   ~ 0
FREE GENERIC IO
Text Notes 10100 6300 0    50   ~ 0
FREE GENERIC IO
Text Notes 10100 6400 0    50   ~ 0
FREE GENERIC IO
Text Notes 10100 6500 0    50   ~ 0
FREE GENERIC IO
Text Notes 10100 7000 0    50   ~ 0
FREE GENERIC IO
Text Notes 10100 7100 0    50   ~ 0
FREE GENERIC IO
Text Notes 10100 7200 0    50   ~ 0
FREE GENERIC IO
Text Notes 10100 7300 0    50   ~ 0
FREE GENERIC IO
Text Notes 10100 6600 0    50   ~ 0
FREE GENERIC IO
Text Notes 10100 6700 0    50   ~ 0
FREE GENERIC IO
Text Notes 10100 6800 0    50   ~ 0
FREE GENERIC IO
Text Notes 10100 6900 0    50   ~ 0
FREE GENERIC IO
Text Notes 10100 7500 0    50   ~ 0
FREE PWM IO
Text Notes 10100 7600 0    50   ~ 0
FREE PWM IO
Text Notes 10100 7700 0    50   ~ 0
FREE PWM IO
Text Notes 10100 7800 0    50   ~ 0
FREE PWM IO
Text Notes 10100 7900 0    50   ~ 0
FREE PWM IO
Text Notes 10100 8000 0    50   ~ 0
FREE PWM IO
Text Notes 10100 8100 0    50   ~ 0
FREE PWM IO
Text Notes 10100 8200 0    50   ~ 0
FREE GENERIC IO
Text Notes 10100 8300 0    50   ~ 0
FREE GENERIC IO
Text Notes 10100 8400 0    50   ~ 0
FREE GENERIC IO
Text Notes 10100 8600 0    50   ~ 0
FREE GENERIC IO
Text Notes 10100 8700 0    50   ~ 0
FREE GENERIC IO
Text Notes 10100 8800 0    50   ~ 0
FREE GENERIC IO
Text Notes 10100 9000 0    50   ~ 0
FREE GENERIC IO
Text Notes 10100 9100 0    50   ~ 0
FREE GENERIC IO
Text Notes 10100 9300 0    50   ~ 0
FREE GENERIC IO
Text Notes 10100 9400 0    50   ~ 0
FREE GENERIC IO
$EndSCHEMATC
