(export (version D)
  (design
    (source E:\Projekty\printerboard\HW\PrinterBoard\PrinterBoard.sch)
    (date "10.1.2019 23:18:00")
    (tool "Eeschema (5.0.2)-1")
    (sheet (number 1) (name /) (tstamps /)
      (title_block
        (title)
        (company)
        (rev)
        (date)
        (source PrinterBoard.sch)
        (comment (number 1) (value ""))
        (comment (number 2) (value ""))
        (comment (number 3) (value ""))
        (comment (number 4) (value ""))))
    (sheet (number 2) (name /PrinterBoard_MCU/) (tstamps /5C46B167/)
      (title_block
        (title)
        (company)
        (rev)
        (date)
        (source PrinterBoard_MCU.sch)
        (comment (number 1) (value ""))
        (comment (number 2) (value ""))
        (comment (number 3) (value ""))
        (comment (number 4) (value ""))))
    (sheet (number 3) (name /PrinterBoard_Drivers/) (tstamps /5C480BFA/)
      (title_block
        (title)
        (company)
        (rev)
        (date)
        (source PrinterBoard_Drivers.sch)
        (comment (number 1) (value ""))
        (comment (number 2) (value ""))
        (comment (number 3) (value ""))
        (comment (number 4) (value ""))))
    (sheet (number 4) (name /PrinterBoard_Connectors/) (tstamps /5C83D846/)
      (title_block
        (title)
        (company)
        (rev)
        (date)
        (source PrinterBoard_Connectors.sch)
        (comment (number 1) (value ""))
        (comment (number 2) (value ""))
        (comment (number 3) (value ""))
        (comment (number 4) (value "")))))
  (components
    (comp (ref U1)
      (value U_MCU_NXP_LPC1768FBD100)
      (footprint ic_smt:QFP100P50_1600X1600X160HD)
      (fields
        (field (name SOURCE) https://cz.farnell.com/nxp/lpc1768fbd100-551/mcu-32bit-cortex-m3-100mhz-lqfp/dp/1718549))
      (libsource (lib ic) (part U_MCU_NXP_LPC1768FBD100) (description ""))
      (sheetpath (names /PrinterBoard_MCU/) (tstamps /5C46B167/))
      (tstamp 5C46B6D5))
    (comp (ref Q1)
      (value 12M_3.2X2.5)
      (fields
        (field (name SOURCE) https://cz.farnell.com/abracon/abm8g-106-12-000mhz-t/crystal-12mhz-10pf-3-2mm-x-2-5mm/dp/2889293))
      (libsource (lib passive) (part XTAL) (description ""))
      (sheetpath (names /PrinterBoard_MCU/) (tstamps /5C46B167/))
      (tstamp 5C46B6F4))
    (comp (ref C2)
      (value 18pF)
      (footprint discrete_smt:CAPC1005X55_0402_IPC-B)
      (libsource (lib passive) (part C_NP) (description ""))
      (sheetpath (names /PrinterBoard_MCU/) (tstamps /5C46B167/))
      (tstamp 5C46B701))
    (comp (ref C5)
      (value 18pF)
      (footprint discrete_smt:CAPC1005X55_0402_IPC-B)
      (libsource (lib passive) (part C_NP) (description ""))
      (sheetpath (names /PrinterBoard_MCU/) (tstamps /5C46B167/))
      (tstamp 5C46B709))
    (comp (ref C3)
      (value 100nF)
      (footprint discrete_smt:CAPC1005X55_0402_IPC-B)
      (libsource (lib passive) (part C_NP_STK) (description ""))
      (sheetpath (names /PrinterBoard_MCU/) (tstamps /5C46B167/))
      (tstamp 5C46B736))
    (comp (ref C4)
      (value 100nF)
      (footprint discrete_smt:CAPC1005X55_0402_IPC-B)
      (libsource (lib passive) (part C_NP_STK) (description ""))
      (sheetpath (names /PrinterBoard_MCU/) (tstamps /5C46B167/))
      (tstamp 5C46B75C))
    (comp (ref C6)
      (value 100nF)
      (footprint discrete_smt:CAPC1005X55_0402_IPC-B)
      (libsource (lib passive) (part C_NP_STK) (description ""))
      (sheetpath (names /PrinterBoard_MCU/) (tstamps /5C46B167/))
      (tstamp 5C46B763))
    (comp (ref C7)
      (value 100nF)
      (footprint discrete_smt:CAPC1005X55_0402_IPC-B)
      (libsource (lib passive) (part C_NP_STK) (description ""))
      (sheetpath (names /PrinterBoard_MCU/) (tstamps /5C46B167/))
      (tstamp 5C46B76A))
    (comp (ref C9)
      (value 100nF)
      (footprint discrete_smt:CAPC1005X55_0402_IPC-B)
      (libsource (lib passive) (part C_NP_STK) (description ""))
      (sheetpath (names /PrinterBoard_MCU/) (tstamps /5C46B167/))
      (tstamp 5C46B771))
    (comp (ref C10)
      (value 100nF)
      (footprint discrete_smt:CAPC1005X55_0402_IPC-B)
      (libsource (lib passive) (part C_NP_STK) (description ""))
      (sheetpath (names /PrinterBoard_MCU/) (tstamps /5C46B167/))
      (tstamp 5C46B778))
    (comp (ref C1)
      (value 10uF)
      (footprint discrete_smt:CAPC1005X55_0402_IPC-B)
      (libsource (lib passive) (part C_NP_STK) (description ""))
      (sheetpath (names /PrinterBoard_MCU/) (tstamps /5C46B167/))
      (tstamp 5C46B780))
    (comp (ref C8)
      (value 100nF)
      (footprint discrete_smt:CAPC1005X55_0402_IPC-B)
      (libsource (lib passive) (part C_NP_STK) (description ""))
      (sheetpath (names /PrinterBoard_MCU/) (tstamps /5C46B167/))
      (tstamp 5C46B7A8))
    (comp (ref FB1)
      (value 600R)
      (footprint discrete_smt:CAPC1608X95N_0603_IPC-B)
      (libsource (lib passive) (part FB) (description ""))
      (sheetpath (names /PrinterBoard_MCU/) (tstamps /5C46B167/))
      (tstamp 5C46B7B2))
    (comp (ref R1)
      (value 10k)
      (footprint discrete_smt:CAPC1005X55_0402_IPC-B)
      (libsource (lib passive) (part R) (description ""))
      (sheetpath (names /PrinterBoard_MCU/) (tstamps /5C46B167/))
      (tstamp 5C46B7D5))
    (comp (ref J2)
      (value PINHEAD-02)
      (libsource (lib connector) (part J_GEN_2PIN-1COLX2ROW) (description ""))
      (sheetpath (names /PrinterBoard_MCU/) (tstamps /5C46B167/))
      (tstamp 5C46B7E0))
    (comp (ref TP1)
      (value TESTPOINT)
      (footprint misc:TESTPOINT_RND_1mm_SingleSide)
      (libsource (lib misc) (part TESTPOINT) (description ""))
      (sheetpath (names /PrinterBoard_MCU/) (tstamps /5C46B167/))
      (tstamp 5C46B7EB))
    (comp (ref J1)
      (value PINHEAD-03X02)
      (libsource (lib connector) (part J_GEN_6PIN-2COLX3ROW_Z) (description ""))
      (sheetpath (names /PrinterBoard_MCU/) (tstamps /5C46B167/))
      (tstamp 5C46B7FA))
    (comp (ref J3)
      (value B4B-XH-A)
      (libsource (lib connector) (part J_GEN_4PIN-1COLX4ROW) (description ""))
      (sheetpath (names /PrinterBoard_MCU/) (tstamps /5C46B167/))
      (tstamp 5C7866A7))
    (comp (ref J4)
      (value PINHEAD-02)
      (libsource (lib connector) (part J_GEN_2PIN-1COLX2ROW) (description ""))
      (sheetpath (names /PrinterBoard_MCU/) (tstamps /5C46B167/))
      (tstamp 5C7A76F3))
    (comp (ref MOD1)
      (value POLOLU_DRIVERBOARD)
      (libsource (lib module) (part POLOLU_DRIVERBOARD) (description ""))
      (sheetpath (names /PrinterBoard_Drivers/) (tstamps /5C480BFA/))
      (tstamp 5C48382F))
    (comp (ref J5)
      (value J_GEN_4PIN-1COLX4ROW)
      (libsource (lib connector) (part J_GEN_4PIN-1COLX4ROW) (description ""))
      (sheetpath (names /PrinterBoard_Drivers/) (tstamps /5C480BFA/))
      (tstamp 5C4838E3))
    (comp (ref C11)
      (value 1uF)
      (footprint discrete_smt:CAPC1005X55_0402_IPC-B)
      (libsource (lib passive) (part C_NP) (description ""))
      (sheetpath (names /PrinterBoard_Drivers/) (tstamps /5C480BFA/))
      (tstamp 5C483D48))
    (comp (ref C14)
      (value 1uF)
      (footprint discrete_smt:CAPC1005X55_0402_IPC-B)
      (libsource (lib passive) (part C_NP) (description ""))
      (sheetpath (names /PrinterBoard_Drivers/) (tstamps /5C480BFA/))
      (tstamp 5C484990))
    (comp (ref C17)
      (value 100uF)
      (footprint discrete_smt:CAPAE660X770_WE-865080545012)
      (libsource (lib passive) (part C_POL) (description ""))
      (sheetpath (names /PrinterBoard_Drivers/) (tstamps /5C480BFA/))
      (tstamp 5C48554B))
    (comp (ref R19)
      (value DNI)
      (footprint discrete_smt:CAPC1005X55_0402_IPC-B)
      (libsource (lib passive) (part R) (description ""))
      (sheetpath (names /PrinterBoard_Drivers/) (tstamps /5C480BFA/))
      (tstamp 5C485C61))
    (comp (ref R2)
      (value 0R)
      (footprint discrete_smt:CAPC1005X55_0402_IPC-B)
      (libsource (lib passive) (part R) (description ""))
      (sheetpath (names /PrinterBoard_Drivers/) (tstamps /5C480BFA/))
      (tstamp 5C4C0CFB))
    (comp (ref R3)
      (value 0R)
      (footprint discrete_smt:CAPC1005X55_0402_IPC-B)
      (libsource (lib passive) (part R) (description ""))
      (sheetpath (names /PrinterBoard_Drivers/) (tstamps /5C480BFA/))
      (tstamp 5C4C0D38))
    (comp (ref R4)
      (value 0R)
      (footprint discrete_smt:CAPC1005X55_0402_IPC-B)
      (libsource (lib passive) (part R) (description ""))
      (sheetpath (names /PrinterBoard_Drivers/) (tstamps /5C480BFA/))
      (tstamp 5C4C0D62))
    (comp (ref R5)
      (value 0R)
      (footprint discrete_smt:CAPC1005X55_0402_IPC-B)
      (libsource (lib passive) (part R) (description ""))
      (sheetpath (names /PrinterBoard_Drivers/) (tstamps /5C480BFA/))
      (tstamp 5C4C0D92))
    (comp (ref R14)
      (value DNI)
      (footprint discrete_smt:CAPC1005X55_0402_IPC-B)
      (libsource (lib passive) (part R) (description ""))
      (sheetpath (names /PrinterBoard_Drivers/) (tstamps /5C480BFA/))
      (tstamp 5C4C7142))
    (comp (ref R17)
      (value DNI)
      (footprint discrete_smt:CAPC1005X55_0402_IPC-B)
      (libsource (lib passive) (part R) (description ""))
      (sheetpath (names /PrinterBoard_Drivers/) (tstamps /5C480BFA/))
      (tstamp 5C4C71B9))
    (comp (ref R23)
      (value DNI)
      (footprint discrete_smt:CAPC1005X55_0402_IPC-B)
      (libsource (lib passive) (part R) (description ""))
      (sheetpath (names /PrinterBoard_Drivers/) (tstamps /5C480BFA/))
      (tstamp 5C4C71E5))
    (comp (ref MOD2)
      (value POLOLU_DRIVERBOARD)
      (libsource (lib module) (part POLOLU_DRIVERBOARD) (description ""))
      (sheetpath (names /PrinterBoard_Drivers/) (tstamps /5C480BFA/))
      (tstamp 5C5067C0))
    (comp (ref J6)
      (value J_GEN_4PIN-1COLX4ROW)
      (libsource (lib connector) (part J_GEN_4PIN-1COLX4ROW) (description ""))
      (sheetpath (names /PrinterBoard_Drivers/) (tstamps /5C480BFA/))
      (tstamp 5C5067C7))
    (comp (ref C12)
      (value 1uF)
      (footprint discrete_smt:CAPC1005X55_0402_IPC-B)
      (libsource (lib passive) (part C_NP) (description ""))
      (sheetpath (names /PrinterBoard_Drivers/) (tstamps /5C480BFA/))
      (tstamp 5C5067EA))
    (comp (ref C15)
      (value 1uF)
      (footprint discrete_smt:CAPC1005X55_0402_IPC-B)
      (libsource (lib passive) (part C_NP) (description ""))
      (sheetpath (names /PrinterBoard_Drivers/) (tstamps /5C480BFA/))
      (tstamp 5C506801))
    (comp (ref C18)
      (value 100uF)
      (footprint discrete_smt:CAPAE660X770_WE-865080545012)
      (libsource (lib passive) (part C_POL) (description ""))
      (sheetpath (names /PrinterBoard_Drivers/) (tstamps /5C480BFA/))
      (tstamp 5C50681D))
    (comp (ref R20)
      (value DNI)
      (footprint discrete_smt:CAPC1005X55_0402_IPC-B)
      (libsource (lib passive) (part R) (description ""))
      (sheetpath (names /PrinterBoard_Drivers/) (tstamps /5C480BFA/))
      (tstamp 5C506826))
    (comp (ref R6)
      (value 0R)
      (footprint discrete_smt:CAPC1005X55_0402_IPC-B)
      (libsource (lib passive) (part R) (description ""))
      (sheetpath (names /PrinterBoard_Drivers/) (tstamps /5C480BFA/))
      (tstamp 5C506851))
    (comp (ref R7)
      (value 0R)
      (footprint discrete_smt:CAPC1005X55_0402_IPC-B)
      (libsource (lib passive) (part R) (description ""))
      (sheetpath (names /PrinterBoard_Drivers/) (tstamps /5C480BFA/))
      (tstamp 5C506858))
    (comp (ref R8)
      (value 0R)
      (footprint discrete_smt:CAPC1005X55_0402_IPC-B)
      (libsource (lib passive) (part R) (description ""))
      (sheetpath (names /PrinterBoard_Drivers/) (tstamps /5C480BFA/))
      (tstamp 5C50685F))
    (comp (ref R9)
      (value 0R)
      (footprint discrete_smt:CAPC1005X55_0402_IPC-B)
      (libsource (lib passive) (part R) (description ""))
      (sheetpath (names /PrinterBoard_Drivers/) (tstamps /5C480BFA/))
      (tstamp 5C506866))
    (comp (ref R15)
      (value DNI)
      (footprint discrete_smt:CAPC1005X55_0402_IPC-B)
      (libsource (lib passive) (part R) (description ""))
      (sheetpath (names /PrinterBoard_Drivers/) (tstamps /5C480BFA/))
      (tstamp 5C50686E))
    (comp (ref R18)
      (value DNI)
      (footprint discrete_smt:CAPC1005X55_0402_IPC-B)
      (libsource (lib passive) (part R) (description ""))
      (sheetpath (names /PrinterBoard_Drivers/) (tstamps /5C480BFA/))
      (tstamp 5C506875))
    (comp (ref R24)
      (value DNI)
      (footprint discrete_smt:CAPC1005X55_0402_IPC-B)
      (libsource (lib passive) (part R) (description ""))
      (sheetpath (names /PrinterBoard_Drivers/) (tstamps /5C480BFA/))
      (tstamp 5C50687C))
    (comp (ref MOD3)
      (value POLOLU_DRIVERBOARD)
      (libsource (lib module) (part POLOLU_DRIVERBOARD) (description ""))
      (sheetpath (names /PrinterBoard_Drivers/) (tstamps /5C480BFA/))
      (tstamp 5C50EE4B))
    (comp (ref J7)
      (value J_GEN_4PIN-1COLX4ROW)
      (libsource (lib connector) (part J_GEN_4PIN-1COLX4ROW) (description ""))
      (sheetpath (names /PrinterBoard_Drivers/) (tstamps /5C480BFA/))
      (tstamp 5C50EE52))
    (comp (ref C13)
      (value 1uF)
      (footprint discrete_smt:CAPC1005X55_0402_IPC-B)
      (libsource (lib passive) (part C_NP) (description ""))
      (sheetpath (names /PrinterBoard_Drivers/) (tstamps /5C480BFA/))
      (tstamp 5C50EE75))
    (comp (ref C16)
      (value 1uF)
      (footprint discrete_smt:CAPC1005X55_0402_IPC-B)
      (libsource (lib passive) (part C_NP) (description ""))
      (sheetpath (names /PrinterBoard_Drivers/) (tstamps /5C480BFA/))
      (tstamp 5C50EE8C))
    (comp (ref C19)
      (value 100uF)
      (footprint discrete_smt:CAPAE660X770_WE-865080545012)
      (libsource (lib passive) (part C_POL) (description ""))
      (sheetpath (names /PrinterBoard_Drivers/) (tstamps /5C480BFA/))
      (tstamp 5C50EEA8))
    (comp (ref R22)
      (value DNI)
      (footprint discrete_smt:CAPC1005X55_0402_IPC-B)
      (libsource (lib passive) (part R) (description ""))
      (sheetpath (names /PrinterBoard_Drivers/) (tstamps /5C480BFA/))
      (tstamp 5C50EEB1))
    (comp (ref R10)
      (value 0R)
      (footprint discrete_smt:CAPC1005X55_0402_IPC-B)
      (libsource (lib passive) (part R) (description ""))
      (sheetpath (names /PrinterBoard_Drivers/) (tstamps /5C480BFA/))
      (tstamp 5C50EEDC))
    (comp (ref R11)
      (value 0R)
      (footprint discrete_smt:CAPC1005X55_0402_IPC-B)
      (libsource (lib passive) (part R) (description ""))
      (sheetpath (names /PrinterBoard_Drivers/) (tstamps /5C480BFA/))
      (tstamp 5C50EEE3))
    (comp (ref R12)
      (value 0R)
      (footprint discrete_smt:CAPC1005X55_0402_IPC-B)
      (libsource (lib passive) (part R) (description ""))
      (sheetpath (names /PrinterBoard_Drivers/) (tstamps /5C480BFA/))
      (tstamp 5C50EEEA))
    (comp (ref R13)
      (value 0R)
      (footprint discrete_smt:CAPC1005X55_0402_IPC-B)
      (libsource (lib passive) (part R) (description ""))
      (sheetpath (names /PrinterBoard_Drivers/) (tstamps /5C480BFA/))
      (tstamp 5C50EEF1))
    (comp (ref R16)
      (value DNI)
      (footprint discrete_smt:CAPC1005X55_0402_IPC-B)
      (libsource (lib passive) (part R) (description ""))
      (sheetpath (names /PrinterBoard_Drivers/) (tstamps /5C480BFA/))
      (tstamp 5C50EEF9))
    (comp (ref R21)
      (value DNI)
      (footprint discrete_smt:CAPC1005X55_0402_IPC-B)
      (libsource (lib passive) (part R) (description ""))
      (sheetpath (names /PrinterBoard_Drivers/) (tstamps /5C480BFA/))
      (tstamp 5C50EF00))
    (comp (ref R25)
      (value DNI)
      (footprint discrete_smt:CAPC1005X55_0402_IPC-B)
      (libsource (lib passive) (part R) (description ""))
      (sheetpath (names /PrinterBoard_Drivers/) (tstamps /5C480BFA/))
      (tstamp 5C50EF07))
    (comp (ref MOD4)
      (value POLOLU_DRIVERBOARD)
      (libsource (lib module) (part POLOLU_DRIVERBOARD) (description ""))
      (sheetpath (names /PrinterBoard_Drivers/) (tstamps /5C480BFA/))
      (tstamp 5C50EF32))
    (comp (ref J8)
      (value J_GEN_4PIN-1COLX4ROW)
      (libsource (lib connector) (part J_GEN_4PIN-1COLX4ROW) (description ""))
      (sheetpath (names /PrinterBoard_Drivers/) (tstamps /5C480BFA/))
      (tstamp 5C50EF39))
    (comp (ref C20)
      (value 1uF)
      (footprint discrete_smt:CAPC1005X55_0402_IPC-B)
      (libsource (lib passive) (part C_NP) (description ""))
      (sheetpath (names /PrinterBoard_Drivers/) (tstamps /5C480BFA/))
      (tstamp 5C50EF5C))
    (comp (ref C22)
      (value 1uF)
      (footprint discrete_smt:CAPC1005X55_0402_IPC-B)
      (libsource (lib passive) (part C_NP) (description ""))
      (sheetpath (names /PrinterBoard_Drivers/) (tstamps /5C480BFA/))
      (tstamp 5C50EF73))
    (comp (ref C24)
      (value 100uF)
      (footprint discrete_smt:CAPAE660X770_WE-865080545012)
      (libsource (lib passive) (part C_POL) (description ""))
      (sheetpath (names /PrinterBoard_Drivers/) (tstamps /5C480BFA/))
      (tstamp 5C50EF8F))
    (comp (ref R37)
      (value DNI)
      (footprint discrete_smt:CAPC1005X55_0402_IPC-B)
      (libsource (lib passive) (part R) (description ""))
      (sheetpath (names /PrinterBoard_Drivers/) (tstamps /5C480BFA/))
      (tstamp 5C50EF98))
    (comp (ref R26)
      (value 0R)
      (footprint discrete_smt:CAPC1005X55_0402_IPC-B)
      (libsource (lib passive) (part R) (description ""))
      (sheetpath (names /PrinterBoard_Drivers/) (tstamps /5C480BFA/))
      (tstamp 5C50EFC3))
    (comp (ref R27)
      (value 0R)
      (footprint discrete_smt:CAPC1005X55_0402_IPC-B)
      (libsource (lib passive) (part R) (description ""))
      (sheetpath (names /PrinterBoard_Drivers/) (tstamps /5C480BFA/))
      (tstamp 5C50EFCA))
    (comp (ref R28)
      (value 0R)
      (footprint discrete_smt:CAPC1005X55_0402_IPC-B)
      (libsource (lib passive) (part R) (description ""))
      (sheetpath (names /PrinterBoard_Drivers/) (tstamps /5C480BFA/))
      (tstamp 5C50EFD1))
    (comp (ref R29)
      (value 0R)
      (footprint discrete_smt:CAPC1005X55_0402_IPC-B)
      (libsource (lib passive) (part R) (description ""))
      (sheetpath (names /PrinterBoard_Drivers/) (tstamps /5C480BFA/))
      (tstamp 5C50EFD8))
    (comp (ref R34)
      (value DNI)
      (footprint discrete_smt:CAPC1005X55_0402_IPC-B)
      (libsource (lib passive) (part R) (description ""))
      (sheetpath (names /PrinterBoard_Drivers/) (tstamps /5C480BFA/))
      (tstamp 5C50EFE0))
    (comp (ref R36)
      (value DNI)
      (footprint discrete_smt:CAPC1005X55_0402_IPC-B)
      (libsource (lib passive) (part R) (description ""))
      (sheetpath (names /PrinterBoard_Drivers/) (tstamps /5C480BFA/))
      (tstamp 5C50EFE7))
    (comp (ref R40)
      (value DNI)
      (footprint discrete_smt:CAPC1005X55_0402_IPC-B)
      (libsource (lib passive) (part R) (description ""))
      (sheetpath (names /PrinterBoard_Drivers/) (tstamps /5C480BFA/))
      (tstamp 5C50EFEE))
    (comp (ref MOD5)
      (value POLOLU_DRIVERBOARD)
      (libsource (lib module) (part POLOLU_DRIVERBOARD) (description ""))
      (sheetpath (names /PrinterBoard_Drivers/) (tstamps /5C480BFA/))
      (tstamp 5C51F249))
    (comp (ref J9)
      (value J_GEN_4PIN-1COLX4ROW)
      (libsource (lib connector) (part J_GEN_4PIN-1COLX4ROW) (description ""))
      (sheetpath (names /PrinterBoard_Drivers/) (tstamps /5C480BFA/))
      (tstamp 5C51F250))
    (comp (ref C21)
      (value 1uF)
      (footprint discrete_smt:CAPC1005X55_0402_IPC-B)
      (libsource (lib passive) (part C_NP) (description ""))
      (sheetpath (names /PrinterBoard_Drivers/) (tstamps /5C480BFA/))
      (tstamp 5C51F273))
    (comp (ref C23)
      (value 1uF)
      (footprint discrete_smt:CAPC1005X55_0402_IPC-B)
      (libsource (lib passive) (part C_NP) (description ""))
      (sheetpath (names /PrinterBoard_Drivers/) (tstamps /5C480BFA/))
      (tstamp 5C51F28A))
    (comp (ref C25)
      (value 100uF)
      (footprint discrete_smt:CAPAE660X770_WE-865080545012)
      (libsource (lib passive) (part C_POL) (description ""))
      (sheetpath (names /PrinterBoard_Drivers/) (tstamps /5C480BFA/))
      (tstamp 5C51F2A6))
    (comp (ref R39)
      (value DNI)
      (footprint discrete_smt:CAPC1005X55_0402_IPC-B)
      (libsource (lib passive) (part R) (description ""))
      (sheetpath (names /PrinterBoard_Drivers/) (tstamps /5C480BFA/))
      (tstamp 5C51F2AF))
    (comp (ref R30)
      (value 0R)
      (footprint discrete_smt:CAPC1005X55_0402_IPC-B)
      (libsource (lib passive) (part R) (description ""))
      (sheetpath (names /PrinterBoard_Drivers/) (tstamps /5C480BFA/))
      (tstamp 5C51F2DA))
    (comp (ref R31)
      (value 0R)
      (footprint discrete_smt:CAPC1005X55_0402_IPC-B)
      (libsource (lib passive) (part R) (description ""))
      (sheetpath (names /PrinterBoard_Drivers/) (tstamps /5C480BFA/))
      (tstamp 5C51F2E1))
    (comp (ref R32)
      (value 0R)
      (footprint discrete_smt:CAPC1005X55_0402_IPC-B)
      (libsource (lib passive) (part R) (description ""))
      (sheetpath (names /PrinterBoard_Drivers/) (tstamps /5C480BFA/))
      (tstamp 5C51F2E8))
    (comp (ref R33)
      (value 0R)
      (footprint discrete_smt:CAPC1005X55_0402_IPC-B)
      (libsource (lib passive) (part R) (description ""))
      (sheetpath (names /PrinterBoard_Drivers/) (tstamps /5C480BFA/))
      (tstamp 5C51F2EF))
    (comp (ref R35)
      (value DNI)
      (footprint discrete_smt:CAPC1005X55_0402_IPC-B)
      (libsource (lib passive) (part R) (description ""))
      (sheetpath (names /PrinterBoard_Drivers/) (tstamps /5C480BFA/))
      (tstamp 5C51F2F7))
    (comp (ref R38)
      (value DNI)
      (footprint discrete_smt:CAPC1005X55_0402_IPC-B)
      (libsource (lib passive) (part R) (description ""))
      (sheetpath (names /PrinterBoard_Drivers/) (tstamps /5C480BFA/))
      (tstamp 5C51F2FE))
    (comp (ref R41)
      (value DNI)
      (footprint discrete_smt:CAPC1005X55_0402_IPC-B)
      (libsource (lib passive) (part R) (description ""))
      (sheetpath (names /PrinterBoard_Drivers/) (tstamps /5C480BFA/))
      (tstamp 5C51F305))
    (comp (ref J11)
      (value J_GEN_10PIN-2COLX5ROW_Z)
      (libsource (lib connector) (part J_GEN_10PIN-2COLX5ROW_Z) (description ""))
      (sheetpath (names /PrinterBoard_Connectors/) (tstamps /5C83D846/))
      (tstamp 5C84E80C))
    (comp (ref J10)
      (value J_GEN_10PIN-2COLX5ROW_Z)
      (libsource (lib connector) (part J_GEN_10PIN-2COLX5ROW_Z) (description ""))
      (sheetpath (names /PrinterBoard_Connectors/) (tstamps /5C83D846/))
      (tstamp 5C84E805))
    (comp (ref R42)
      (value 0R)
      (footprint discrete_smt:CAPC1005X55_0402_IPC-B)
      (libsource (lib passive) (part R) (description ""))
      (sheetpath (names /PrinterBoard_Connectors/) (tstamps /5C83D846/))
      (tstamp 5C85FD4C))
    (comp (ref U2)
      (value U_TRCVR_SN74LVC2T45)
      (footprint ic_smt:SOIC65P300X400X130-8MD-TI-DCT)
      (libsource (lib ic) (part U_TRCVR_SN74LVC2T45) (description ""))
      (sheetpath (names /PrinterBoard_Connectors/) (tstamps /5C83D846/))
      (tstamp 5C862542))
    (comp (ref C26)
      (value 100nF)
      (footprint discrete_smt:CAPC1005X55_0402_IPC-B)
      (libsource (lib passive) (part C_NP) (description ""))
      (sheetpath (names /PrinterBoard_Connectors/) (tstamps /5C83D846/))
      (tstamp 5C865B0B))
    (comp (ref C29)
      (value 100nF)
      (footprint discrete_smt:CAPC1005X55_0402_IPC-B)
      (libsource (lib passive) (part C_NP) (description ""))
      (sheetpath (names /PrinterBoard_Connectors/) (tstamps /5C83D846/))
      (tstamp 5C8690F8))
    (comp (ref U3)
      (value U_TRCVR_SN74LVC2T45)
      (footprint ic_smt:SOIC65P300X400X130-8MD-TI-DCT)
      (libsource (lib ic) (part U_TRCVR_SN74LVC2T45) (description ""))
      (sheetpath (names /PrinterBoard_Connectors/) (tstamps /5C83D846/))
      (tstamp 5C86F744))
    (comp (ref C27)
      (value 100nF)
      (footprint discrete_smt:CAPC1005X55_0402_IPC-B)
      (libsource (lib passive) (part C_NP) (description ""))
      (sheetpath (names /PrinterBoard_Connectors/) (tstamps /5C83D846/))
      (tstamp 5C86F769))
    (comp (ref C30)
      (value 100nF)
      (footprint discrete_smt:CAPC1005X55_0402_IPC-B)
      (libsource (lib passive) (part C_NP) (description ""))
      (sheetpath (names /PrinterBoard_Connectors/) (tstamps /5C83D846/))
      (tstamp 5C86F77C))
    (comp (ref U4)
      (value U_TRCVR_SN74LVC2T45)
      (footprint ic_smt:SOIC65P300X400X130-8MD-TI-DCT)
      (libsource (lib ic) (part U_TRCVR_SN74LVC2T45) (description ""))
      (sheetpath (names /PrinterBoard_Connectors/) (tstamps /5C83D846/))
      (tstamp 5C8771C2))
    (comp (ref C28)
      (value 100nF)
      (footprint discrete_smt:CAPC1005X55_0402_IPC-B)
      (libsource (lib passive) (part C_NP) (description ""))
      (sheetpath (names /PrinterBoard_Connectors/) (tstamps /5C83D846/))
      (tstamp 5C8771E7))
    (comp (ref C31)
      (value 100nF)
      (footprint discrete_smt:CAPC1005X55_0402_IPC-B)
      (libsource (lib passive) (part C_NP) (description ""))
      (sheetpath (names /PrinterBoard_Connectors/) (tstamps /5C83D846/))
      (tstamp 5C8771FA)))
  (libparts
    (libpart (lib connector) (part J_GEN_10PIN-2COLX5ROW_Z)
      (fields
        (field (name Reference) J)
        (field (name Value) J_GEN_10PIN-2COLX5ROW_Z))
      (pins
        (pin (num 1) (name 1) (type passive))
        (pin (num 2) (name 2) (type passive))
        (pin (num 3) (name 3) (type passive))
        (pin (num 4) (name 4) (type passive))
        (pin (num 5) (name 5) (type passive))
        (pin (num 6) (name 6) (type passive))
        (pin (num 7) (name 7) (type passive))
        (pin (num 8) (name 8) (type passive))
        (pin (num 9) (name 9) (type passive))
        (pin (num 10) (name 10) (type passive))))
    (libpart (lib connector) (part J_GEN_2PIN-1COLX2ROW)
      (fields
        (field (name Reference) J)
        (field (name Value) J_GEN_2PIN-1COLX2ROW))
      (pins
        (pin (num 1) (name 1) (type passive))
        (pin (num 2) (name 2) (type passive))))
    (libpart (lib connector) (part J_GEN_4PIN-1COLX4ROW)
      (fields
        (field (name Reference) J)
        (field (name Value) J_GEN_4PIN-1COLX4ROW))
      (pins
        (pin (num 1) (name 1) (type passive))
        (pin (num 2) (name 2) (type passive))
        (pin (num 3) (name 3) (type passive))
        (pin (num 4) (name 4) (type passive))))
    (libpart (lib connector) (part J_GEN_6PIN-2COLX3ROW_Z)
      (fields
        (field (name Reference) J)
        (field (name Value) J_GEN_6PIN-2COLX3ROW_Z))
      (pins
        (pin (num 1) (name 1) (type passive))
        (pin (num 2) (name 2) (type passive))
        (pin (num 3) (name 3) (type passive))
        (pin (num 4) (name 4) (type passive))
        (pin (num 5) (name 5) (type passive))
        (pin (num 6) (name 6) (type passive))))
    (libpart (lib ic) (part U_MCU_NXP_LPC1768FBD100)
      (fields
        (field (name Reference) U)
        (field (name Value) U_MCU_NXP_LPC1768FBD100))
      (pins
        (pin (num 1) (name TDO/SWO) (type input))
        (pin (num 2) (name TDI) (type input))
        (pin (num 3) (name TMS/SWDIO) (type input))
        (pin (num 4) (name TRST#) (type input))
        (pin (num 5) (name TCK/SWDCLK) (type input))
        (pin (num 6) (name P0[26]/AD0[3]/AOUT/RXD3) (type input))
        (pin (num 7) (name P0[25]/AD0[2]/I2SRX_SDA/TXD3) (type input))
        (pin (num 8) (name P0[24]/AD0[1]/I2SRX_WS/CAP3[1]) (type input))
        (pin (num 9) (name P0[23]/AD0[0]/I2SRX_CLK/CAP3[0]) (type input))
        (pin (num 10) (name VDDA_10) (type input))
        (pin (num 11) (name VSSA_11) (type input))
        (pin (num 12) (name VREFP) (type input))
        (pin (num 13) (name NC_13) (type input))
        (pin (num 14) (name RSTOUT#) (type input))
        (pin (num 15) (name VREFN) (type input))
        (pin (num 16) (name RTCX1) (type input))
        (pin (num 17) (name RESET#) (type input))
        (pin (num 18) (name RTCX2) (type input))
        (pin (num 19) (name VBAT) (type input))
        (pin (num 20) (name P1[31]/SCK1/AD0[5]) (type input))
        (pin (num 21) (name P1[30]/VBUS/AD0[4]) (type input))
        (pin (num 22) (name XTAL1) (type input))
        (pin (num 23) (name XTAL2) (type input))
        (pin (num 24) (name P0[28]/SCL0/USB_SCL) (type input))
        (pin (num 25) (name P0[27]/SDA0/USB_SDA) (type input))
        (pin (num 26) (name P3[26]/STCLK/MAT0[1]/PWM1[3]) (type input))
        (pin (num 27) (name P3[25]/MAT0[0]/PWM1[2]) (type input))
        (pin (num 28) (name VDD_3V3_28) (type input))
        (pin (num 29) (name P0[29]/USB_D+) (type input))
        (pin (num 30) (name P0[30]/USB_D-) (type input))
        (pin (num 31) (name VSS_31) (type input))
        (pin (num 32) (name P1[18]/USB_UP_LED/PWM1[1]/CAP1[0]) (type input))
        (pin (num 33) (name P1[19]/MCOA0/USB_PPWR/CAP1[1]) (type input))
        (pin (num 34) (name P1[20]/MCI0/PWM1[2]/SCK0) (type input))
        (pin (num 35) (name P1[21]/MCABORT/PWM1[3]/SSEL0) (type input))
        (pin (num 36) (name P1[22]/MCOB0/USB_PWRD/MAT1[0]) (type input))
        (pin (num 37) (name P1[23]/MCI1/PWM1[4]/MISO0) (type input))
        (pin (num 38) (name P1[24]/MCI2/PWM1[5]/MOSI0) (type input))
        (pin (num 39) (name P1[25]/MCOA1/MAT1[1]) (type input))
        (pin (num 40) (name P1[26]/MCOB1/PWM1[6]/CAP0[0]) (type input))
        (pin (num 41) (name VSS_41) (type input))
        (pin (num 42) (name VDD_REG_3V3_42) (type input))
        (pin (num 43) (name P1[27]/CLKOUT/USB_OVRCR/CAP0[1]) (type input))
        (pin (num 44) (name P1[28]/MCOA2/PCAP1[0]/MAT0[0]) (type input))
        (pin (num 45) (name P1[29]/MCOB2/PCAP1[1]/MAT0[1]) (type input))
        (pin (num 46) (name P0[0]/RD1/TXD3/SDA1) (type input))
        (pin (num 47) (name P0[1]/TD1/RXD3/SCL1) (type input))
        (pin (num 48) (name P0[10]/TXD2/SDA2/MAT3[0]) (type input))
        (pin (num 49) (name P0[11]/RXD2/SCL2/MAT3[1]) (type input))
        (pin (num 50) (name P2[13]/EINT3/I2STX_SDA) (type input))
        (pin (num 51) (name P2[12]/EINT2/I2STX_WS) (type input))
        (pin (num 52) (name P2[11]/EINT1/I2STX_CLK) (type input))
        (pin (num 53) (name P2[10]/EINT0/NMI) (type input))
        (pin (num 54) (name VDD_3V3_54) (type input))
        (pin (num 55) (name VSS_55) (type input))
        (pin (num 56) (name P0[22]/RTS1/TD1) (type input))
        (pin (num 57) (name P0[21]/RI1/RD1) (type input))
        (pin (num 58) (name P0[20]/DTR1/SCL1) (type input))
        (pin (num 59) (name P0[19]/DSR1/SDA1) (type input))
        (pin (num 60) (name P0[18]/DCD1/MOSI0/MOSI) (type input))
        (pin (num 61) (name P0[17]/CTS1/MISO0/MISO) (type input))
        (pin (num 62) (name P0[15]/TXD1/SCK0/SCK) (type input))
        (pin (num 63) (name P0[16]/RXD1/SSEL0/SSEL) (type input))
        (pin (num 64) (name P2[9]/USB_CONNECT/RXD2) (type input))
        (pin (num 65) (name P2[8]/TD2/TXD2) (type input))
        (pin (num 66) (name P2[7]/RD2/RTS1) (type input))
        (pin (num 67) (name P2[6]/PCAP1[0]/RI1/TRACECLK) (type input))
        (pin (num 68) (name P2[5]/PWM1[6]/DTR1/TRACEDATA[0]) (type input))
        (pin (num 69) (name P2[4]/PWM1[5]/DSR1/TRACEDATA[1]) (type input))
        (pin (num 70) (name P2[3]/PWM1[4]/DCD1/TRACEDATA[2]) (type input))
        (pin (num 71) (name VDD_3V3_71) (type input))
        (pin (num 72) (name VSS_72) (type input))
        (pin (num 73) (name P2[2]/PWM1[3]/CTS1/TRACEDATA[3]) (type input))
        (pin (num 74) (name P2[1]/PWM1[2]/RXD1) (type input))
        (pin (num 75) (name P2[0]/PWM1[1]/TXD1) (type input))
        (pin (num 76) (name P0[9]/I2STX_SDA/MOSI1/MAT2[3]) (type input))
        (pin (num 77) (name P0[8]/I2STX_WS/MISO1/MAT2[2]) (type input))
        (pin (num 78) (name P0[7]/I2STX_CLK/SCK1/MAT2[1]) (type input))
        (pin (num 79) (name P0[6]/I2SRX_SDA/SSEL1/MAT2[0]) (type input))
        (pin (num 80) (name P0[5]/I2SRX_WS/TD2/CAP2[1]) (type input))
        (pin (num 81) (name P0[4]/I2SRX_CLK/RD2/CAP2[0]) (type input))
        (pin (num 82) (name P4[28]/RX_MCLK/MAT2[0]/TXD3) (type input))
        (pin (num 83) (name VSS_83) (type input))
        (pin (num 84) (name VDD_REG_3V3_84) (type input))
        (pin (num 85) (name P4[29]/TX_MCLK/MAT2[1]/RXD3) (type input))
        (pin (num 86) (name P1[17]/ENET_MDIO) (type input))
        (pin (num 87) (name P1[16]/ENET_MDC) (type input))
        (pin (num 88) (name P1[15]/ENET_REF_CLK) (type input))
        (pin (num 89) (name P1[14]/ENET_RX_ER) (type input))
        (pin (num 90) (name P1[10]/ENET_RXD1) (type input))
        (pin (num 91) (name P1[9]/ENET_RXD0) (type input))
        (pin (num 92) (name P1[8]/ENET_CRS) (type input))
        (pin (num 93) (name P1[4]/ENET_TX_EN) (type input))
        (pin (num 94) (name P1[1]/ENET_TXD1) (type input))
        (pin (num 95) (name P1[0]/ENET_TXD0) (type input))
        (pin (num 96) (name VDD_3V3_96) (type input))
        (pin (num 97) (name VSS_97) (type input))
        (pin (num 98) (name P0[2]/TXD0/AD0[7]) (type input))
        (pin (num 99) (name P0[3]/RXD0/AD0[6]) (type input))
        (pin (num 100) (name RTCK) (type input))))
    (libpart (lib ic) (part U_TRCVR_SN74LVC2T45)
      (fields
        (field (name Reference) U)
        (field (name Value) U_TRCVR_SN74LVC2T45))
      (pins
        (pin (num 1) (name VCCA) (type power_in))
        (pin (num 2) (name A1) (type BiDi))
        (pin (num 3) (name A2) (type BiDi))
        (pin (num 4) (name GND) (type power_in))
        (pin (num 5) (name DIR) (type input))
        (pin (num 6) (name B2) (type BiDi))
        (pin (num 7) (name B1) (type BiDi))
        (pin (num 8) (name VCCB) (type power_in))))
    (libpart (lib misc) (part TESTPOINT)
      (fields
        (field (name Reference) TP)
        (field (name Value) TESTPOINT))
      (pins
        (pin (num 1) (name 1) (type passive))))
    (libpart (lib module) (part POLOLU_DRIVERBOARD)
      (fields
        (field (name Reference) MOD)
        (field (name Value) POLOLU_DRIVERBOARD))
      (pins
        (pin (num 1) (name EN#) (type input))
        (pin (num 2) (name SPI_MOSI/MS1/MS1) (type input))
        (pin (num 3) (name SPI_CLK/MS2/MS2) (type input))
        (pin (num 4) (name SPI_CS#/NC/MS3) (type input))
        (pin (num 5) (name SPI_MISO/PDN/RST#) (type input))
        (pin (num 6) (name NC/CLK/SLP#) (type input))
        (pin (num 7) (name STEP) (type input))
        (pin (num 8) (name DIR) (type input))
        (pin (num 9) (name GND) (type passive))
        (pin (num 10) (name VIO/VDD) (type power_in))
        (pin (num 11) (name M1B) (type output))
        (pin (num 12) (name M1A) (type output))
        (pin (num 13) (name M2A) (type output))
        (pin (num 14) (name M2B) (type output))
        (pin (num 15) (name GND) (type passive))
        (pin (num 16) (name VMOT) (type power_in))))
    (libpart (lib passive) (part C_NP)
      (fields
        (field (name Reference) C)
        (field (name Value) C_NP))
      (pins
        (pin (num 1) (name 1) (type passive))
        (pin (num 2) (name 2) (type passive))))
    (libpart (lib passive) (part C_NP_STK)
      (fields
        (field (name Reference) C)
        (field (name Value) C_NP_STK))
      (pins
        (pin (num 1) (name 1) (type passive))
        (pin (num 2) (name 2) (type passive))))
    (libpart (lib passive) (part C_POL)
      (fields
        (field (name Reference) C)
        (field (name Value) C_POL))
      (pins
        (pin (num A) (name A) (type passive))
        (pin (num C) (name C) (type passive))))
    (libpart (lib passive) (part FB)
      (fields
        (field (name Reference) FB)
        (field (name Value) FB))
      (pins
        (pin (num 1) (name 1) (type power_in))
        (pin (num 2) (name 2) (type power_in))))
    (libpart (lib passive) (part R)
      (fields
        (field (name Reference) R)
        (field (name Value) R))
      (pins
        (pin (num 1) (name 1) (type power_in))
        (pin (num 2) (name 2) (type power_in))))
    (libpart (lib passive) (part XTAL)
      (fields
        (field (name Reference) Q)
        (field (name Value) XTAL))
      (pins
        (pin (num 1) (name 1) (type passive))
        (pin (num 2) (name 2) (type passive)))))
  (libraries
    (library (logical connector)
      (uri E:\Projekty\kicadlib_dm\symbol/connector.lib))
    (library (logical ic)
      (uri E:\Projekty\kicadlib_dm\symbol/ic.lib))
    (library (logical misc)
      (uri E:\Projekty\kicadlib_dm\symbol/misc.lib))
    (library (logical module)
      (uri E:\Projekty\kicadlib_dm\symbol/module.lib))
    (library (logical passive)
      (uri E:\Projekty\kicadlib_dm\symbol/passive.lib)))
  (nets
    (net (code 1) (name SPI_DRV_MISO)
      (node (ref R5) (pin 1))
      (node (ref R13) (pin 1))
      (node (ref R9) (pin 1))
      (node (ref R29) (pin 1))
      (node (ref R33) (pin 1)))
    (net (code 2) (name SPI_DRV_CS#_B)
      (node (ref R8) (pin 1)))
    (net (code 3) (name SPI_DRV_CLK)
      (node (ref R11) (pin 1))
      (node (ref R27) (pin 1))
      (node (ref R3) (pin 1))
      (node (ref R31) (pin 1))
      (node (ref R7) (pin 1)))
    (net (code 4) (name SPI_DRV_MOSI)
      (node (ref R10) (pin 1))
      (node (ref R6) (pin 1))
      (node (ref R26) (pin 1))
      (node (ref R30) (pin 1))
      (node (ref R2) (pin 1)))
    (net (code 5) (name DRV_A_STEP)
      (node (ref MOD1) (pin 7)))
    (net (code 6) (name DRV_A_DIR)
      (node (ref MOD1) (pin 8)))
    (net (code 7) (name DRV_A_EN#)
      (node (ref MOD1) (pin 1)))
    (net (code 8) (name SPI_DRV_CS#_A)
      (node (ref R4) (pin 1)))
    (net (code 9) (name "Net-(U1-Pad1)")
      (node (ref U1) (pin 1)))
    (net (code 10) (name "Net-(U1-Pad2)")
      (node (ref U1) (pin 2)))
    (net (code 11) (name "Net-(U1-Pad100)")
      (node (ref U1) (pin 100)))
    (net (code 12) (name "Net-(U1-Pad13)")
      (node (ref U1) (pin 13)))
    (net (code 13) (name "Net-(U1-Pad18)")
      (node (ref U1) (pin 18)))
    (net (code 14) (name "Net-(U1-Pad16)")
      (node (ref U1) (pin 16)))
    (net (code 15) (name DRV_C_STEP)
      (node (ref MOD3) (pin 7)))
    (net (code 16) (name SPI_DRV_CS#_E)
      (node (ref R32) (pin 1)))
    (net (code 17) (name DRV_D_STEP)
      (node (ref MOD4) (pin 7)))
    (net (code 18) (name DRV_D_DIR)
      (node (ref MOD4) (pin 8)))
    (net (code 19) (name DRV_D_EN#)
      (node (ref MOD4) (pin 1)))
    (net (code 20) (name SPI_DRV_CS#_D)
      (node (ref R28) (pin 1)))
    (net (code 21) (name DRV_C_DIR)
      (node (ref MOD3) (pin 8)))
    (net (code 22) (name DRV_C_EN#)
      (node (ref MOD3) (pin 1)))
    (net (code 23) (name SPI_DRV_CS#_C)
      (node (ref R12) (pin 1)))
    (net (code 24) (name DRV_B_STEP)
      (node (ref MOD2) (pin 7)))
    (net (code 25) (name DRV_B_DIR)
      (node (ref MOD2) (pin 8)))
    (net (code 26) (name MCU_RST#)
      (node (ref J2) (pin 1))
      (node (ref U1) (pin 17))
      (node (ref R42) (pin 2))
      (node (ref R1) (pin 1)))
    (net (code 27) (name V_3V3)
      (node (ref R21) (pin 2))
      (node (ref R16) (pin 2))
      (node (ref U1) (pin 42))
      (node (ref MOD2) (pin 10))
      (node (ref R25) (pin 2))
      (node (ref C1) (pin 2))
      (node (ref C10) (pin 2))
      (node (ref C9) (pin 2))
      (node (ref C7) (pin 2))
      (node (ref C6) (pin 2))
      (node (ref C4) (pin 2))
      (node (ref FB1) (pin 1))
      (node (ref C3) (pin 2))
      (node (ref MOD5) (pin 10))
      (node (ref R34) (pin 2))
      (node (ref R36) (pin 2))
      (node (ref R40) (pin 2))
      (node (ref C20) (pin 2))
      (node (ref R35) (pin 2))
      (node (ref R38) (pin 2))
      (node (ref R41) (pin 2))
      (node (ref R23) (pin 2))
      (node (ref C21) (pin 2))
      (node (ref MOD4) (pin 10))
      (node (ref R14) (pin 2))
      (node (ref R17) (pin 2))
      (node (ref C28) (pin 2))
      (node (ref J1) (pin 2))
      (node (ref C13) (pin 2))
      (node (ref U1) (pin 71))
      (node (ref U3) (pin 8))
      (node (ref U4) (pin 8))
      (node (ref U1) (pin 84))
      (node (ref R24) (pin 2))
      (node (ref R15) (pin 2))
      (node (ref R18) (pin 2))
      (node (ref C27) (pin 2))
      (node (ref U1) (pin 54))
      (node (ref C12) (pin 2))
      (node (ref U2) (pin 8))
      (node (ref U1) (pin 28))
      (node (ref MOD1) (pin 10))
      (node (ref U1) (pin 19))
      (node (ref MOD3) (pin 10))
      (node (ref C11) (pin 2))
      (node (ref R1) (pin 2))
      (node (ref U1) (pin 96))
      (node (ref C26) (pin 2)))
    (net (code 28) (name GND)
      (node (ref C27) (pin 1))
      (node (ref C26) (pin 1))
      (node (ref J11) (pin 9))
      (node (ref U2) (pin 4))
      (node (ref U2) (pin 5))
      (node (ref C31) (pin 1))
      (node (ref J10) (pin 9))
      (node (ref C25) (pin C))
      (node (ref MOD4) (pin 9))
      (node (ref C28) (pin 1))
      (node (ref C29) (pin 1))
      (node (ref MOD4) (pin 15))
      (node (ref C17) (pin C))
      (node (ref C14) (pin 1))
      (node (ref MOD3) (pin 9))
      (node (ref MOD1) (pin 9))
      (node (ref MOD3) (pin 15))
      (node (ref C19) (pin C))
      (node (ref MOD2) (pin 15))
      (node (ref C11) (pin 1))
      (node (ref MOD2) (pin 9))
      (node (ref MOD1) (pin 15))
      (node (ref C21) (pin 1))
      (node (ref C15) (pin 1))
      (node (ref C12) (pin 1))
      (node (ref MOD5) (pin 15))
      (node (ref C30) (pin 1))
      (node (ref U4) (pin 4))
      (node (ref U4) (pin 5))
      (node (ref U3) (pin 4))
      (node (ref U3) (pin 5))
      (node (ref C13) (pin 1))
      (node (ref C16) (pin 1))
      (node (ref C18) (pin C))
      (node (ref MOD5) (pin 9))
      (node (ref C23) (pin 1))
      (node (ref C5) (pin 1))
      (node (ref C2) (pin 1))
      (node (ref J4) (pin 2))
      (node (ref C24) (pin C))
      (node (ref C20) (pin 1))
      (node (ref C22) (pin 1))
      (node (ref J3) (pin 4))
      (node (ref C3) (pin 1))
      (node (ref C8) (pin 1))
      (node (ref U1) (pin 97))
      (node (ref U1) (pin 31))
      (node (ref U1) (pin 15))
      (node (ref U1) (pin 11))
      (node (ref U1) (pin 55))
      (node (ref U1) (pin 41))
      (node (ref C4) (pin 1))
      (node (ref C6) (pin 1))
      (node (ref C7) (pin 1))
      (node (ref C1) (pin 1))
      (node (ref C9) (pin 1))
      (node (ref J2) (pin 2))
      (node (ref C10) (pin 1))
      (node (ref U1) (pin 72))
      (node (ref J1) (pin 6)))
    (net (code 29) (name /PrinterBoard_MCU/MCU_JTAG_SWDCLK)
      (node (ref U1) (pin 5))
      (node (ref J1) (pin 5)))
    (net (code 30) (name /PrinterBoard_MCU/MCU_JTAG_TRST#)
      (node (ref U1) (pin 4))
      (node (ref J1) (pin 3)))
    (net (code 31) (name /PrinterBoard_MCU/MCU_JTAG_SWDIO)
      (node (ref J1) (pin 1))
      (node (ref U1) (pin 3)))
    (net (code 32) (name "Net-(J1-Pad4)")
      (node (ref J1) (pin 4)))
    (net (code 33) (name /PrinterBoard_MCU/MCU_RSTO#)
      (node (ref U1) (pin 14))
      (node (ref TP1) (pin 1)))
    (net (code 34) (name EXP_BTN_EN2)
      (node (ref J11) (pin 5)))
    (net (code 35) (name EXP_BTN_EN1)
      (node (ref J11) (pin 3)))
    (net (code 36) (name EXP_BTN_ENC)
      (node (ref J10) (pin 2)))
    (net (code 37) (name EXP_BEEPER)
      (node (ref J10) (pin 1)))
    (net (code 38) (name EXP_SD_DETECT)
      (node (ref J11) (pin 7)))
    (net (code 39) (name SPI_SD_MOSI)
      (node (ref U1) (pin 76))
      (node (ref U4) (pin 6)))
    (net (code 40) (name SPI_SD_MISO)
      (node (ref J11) (pin 1))
      (node (ref U1) (pin 77)))
    (net (code 41) (name SPI_SD_CLK)
      (node (ref U1) (pin 78))
      (node (ref U3) (pin 6)))
    (net (code 42) (name SPI_SD_CS#)
      (node (ref U1) (pin 79))
      (node (ref U4) (pin 7)))
    (net (code 43) (name THRM0)
      (node (ref U1) (pin 9)))
    (net (code 44) (name UART_RXD)
      (node (ref U1) (pin 99)))
    (net (code 45) (name UART_TXD)
      (node (ref U1) (pin 98)))
    (net (code 46) (name I2C_SCL)
      (node (ref U1) (pin 47)))
    (net (code 47) (name I2C_SDA)
      (node (ref U1) (pin 46)))
    (net (code 48) (name LCD_RS)
      (node (ref U3) (pin 7)))
    (net (code 49) (name LCD_D4)
      (node (ref U2) (pin 6)))
    (net (code 50) (name LCD_EN)
      (node (ref U2) (pin 7)))
    (net (code 51) (name /PrinterBoard_MCU/USB_D+)
      (node (ref U1) (pin 29))
      (node (ref J3) (pin 3)))
    (net (code 52) (name V_5V0)
      (node (ref U2) (pin 1))
      (node (ref C31) (pin 2))
      (node (ref J3) (pin 1))
      (node (ref U4) (pin 1))
      (node (ref C30) (pin 2))
      (node (ref U3) (pin 1))
      (node (ref J10) (pin 10))
      (node (ref C29) (pin 2)))
    (net (code 53) (name /PrinterBoard_MCU/USB_D-)
      (node (ref J3) (pin 2))
      (node (ref U1) (pin 30)))
    (net (code 54) (name DRV_B_EN#)
      (node (ref MOD2) (pin 1)))
    (net (code 55) (name DRV_E_STEP)
      (node (ref MOD5) (pin 7)))
    (net (code 56) (name DRV_E_DIR)
      (node (ref MOD5) (pin 8)))
    (net (code 57) (name DRV_E_EN#)
      (node (ref MOD5) (pin 1)))
    (net (code 58) (name THRM3)
      (node (ref U1) (pin 6)))
    (net (code 59) (name THRM2)
      (node (ref U1) (pin 7)))
    (net (code 60) (name THRM1)
      (node (ref U1) (pin 8)))
    (net (code 61) (name /PrinterBoard_MCU/MCU_ISP_TRIGGER#)
      (node (ref U1) (pin 53))
      (node (ref J4) (pin 1)))
    (net (code 62) (name "Net-(U1-Pad73)")
      (node (ref U1) (pin 73)))
    (net (code 63) (name "Net-(U1-Pad86)")
      (node (ref U1) (pin 86)))
    (net (code 64) (name "Net-(U1-Pad85)")
      (node (ref U1) (pin 85)))
    (net (code 65) (name "Net-(U1-Pad83)")
      (node (ref U1) (pin 83)))
    (net (code 66) (name "Net-(U1-Pad82)")
      (node (ref U1) (pin 82)))
    (net (code 67) (name "Net-(U1-Pad81)")
      (node (ref U1) (pin 81)))
    (net (code 68) (name "Net-(U1-Pad80)")
      (node (ref U1) (pin 80)))
    (net (code 69) (name "Net-(U1-Pad75)")
      (node (ref U1) (pin 75)))
    (net (code 70) (name "Net-(U1-Pad74)")
      (node (ref U1) (pin 74)))
    (net (code 71) (name "Net-(U1-Pad87)")
      (node (ref U1) (pin 87)))
    (net (code 72) (name "Net-(U1-Pad70)")
      (node (ref U1) (pin 70)))
    (net (code 73) (name "Net-(U1-Pad69)")
      (node (ref U1) (pin 69)))
    (net (code 74) (name "Net-(U1-Pad68)")
      (node (ref U1) (pin 68)))
    (net (code 75) (name "Net-(U1-Pad67)")
      (node (ref U1) (pin 67)))
    (net (code 76) (name "Net-(U1-Pad66)")
      (node (ref U1) (pin 66)))
    (net (code 77) (name "Net-(U1-Pad65)")
      (node (ref U1) (pin 65)))
    (net (code 78) (name "Net-(U1-Pad64)")
      (node (ref U1) (pin 64)))
    (net (code 79) (name "Net-(U1-Pad63)")
      (node (ref U1) (pin 63)))
    (net (code 80) (name "Net-(U1-Pad62)")
      (node (ref U1) (pin 62)))
    (net (code 81) (name "Net-(U1-Pad61)")
      (node (ref U1) (pin 61)))
    (net (code 82) (name "Net-(U1-Pad60)")
      (node (ref U1) (pin 60)))
    (net (code 83) (name "Net-(U1-Pad95)")
      (node (ref U1) (pin 95)))
    (net (code 84) (name "Net-(U1-Pad94)")
      (node (ref U1) (pin 94)))
    (net (code 85) (name "Net-(U1-Pad93)")
      (node (ref U1) (pin 93)))
    (net (code 86) (name "Net-(U1-Pad92)")
      (node (ref U1) (pin 92)))
    (net (code 87) (name "Net-(U1-Pad91)")
      (node (ref U1) (pin 91)))
    (net (code 88) (name "Net-(U1-Pad90)")
      (node (ref U1) (pin 90)))
    (net (code 89) (name "Net-(U1-Pad89)")
      (node (ref U1) (pin 89)))
    (net (code 90) (name "Net-(U1-Pad88)")
      (node (ref U1) (pin 88)))
    (net (code 91) (name "Net-(U1-Pad21)")
      (node (ref U1) (pin 21)))
    (net (code 92) (name "Net-(U1-Pad34)")
      (node (ref U1) (pin 34)))
    (net (code 93) (name "Net-(U1-Pad33)")
      (node (ref U1) (pin 33)))
    (net (code 94) (name "Net-(U1-Pad32)")
      (node (ref U1) (pin 32)))
    (net (code 95) (name "Net-(U1-Pad27)")
      (node (ref U1) (pin 27)))
    (net (code 96) (name "Net-(U1-Pad26)")
      (node (ref U1) (pin 26)))
    (net (code 97) (name "Net-(U1-Pad25)")
      (node (ref U1) (pin 25)))
    (net (code 98) (name "Net-(U1-Pad24)")
      (node (ref U1) (pin 24)))
    (net (code 99) (name /PrinterBoard_MCU/MCU_XTAL2)
      (node (ref C5) (pin 2))
      (node (ref Q1) (pin 1))
      (node (ref U1) (pin 23)))
    (net (code 100) (name "Net-(U1-Pad35)")
      (node (ref U1) (pin 35)))
    (net (code 101) (name "Net-(U1-Pad20)")
      (node (ref U1) (pin 20)))
    (net (code 102) (name "Net-(U1-Pad48)")
      (node (ref U1) (pin 48)))
    (net (code 103) (name "Net-(U1-Pad59)")
      (node (ref U1) (pin 59)))
    (net (code 104) (name "Net-(U1-Pad58)")
      (node (ref U1) (pin 58)))
    (net (code 105) (name "Net-(U1-Pad57)")
      (node (ref U1) (pin 57)))
    (net (code 106) (name "Net-(U1-Pad56)")
      (node (ref U1) (pin 56)))
    (net (code 107) (name "Net-(U1-Pad52)")
      (node (ref U1) (pin 52)))
    (net (code 108) (name "Net-(U1-Pad51)")
      (node (ref U1) (pin 51)))
    (net (code 109) (name "Net-(U1-Pad50)")
      (node (ref U1) (pin 50)))
    (net (code 110) (name "Net-(U1-Pad49)")
      (node (ref U1) (pin 49)))
    (net (code 111) (name "Net-(U1-Pad45)")
      (node (ref U1) (pin 45)))
    (net (code 112) (name "Net-(U1-Pad44)")
      (node (ref U1) (pin 44)))
    (net (code 113) (name "Net-(U1-Pad43)")
      (node (ref U1) (pin 43)))
    (net (code 114) (name "Net-(U1-Pad40)")
      (node (ref U1) (pin 40)))
    (net (code 115) (name "Net-(U1-Pad39)")
      (node (ref U1) (pin 39)))
    (net (code 116) (name "Net-(U1-Pad38)")
      (node (ref U1) (pin 38)))
    (net (code 117) (name "Net-(U1-Pad37)")
      (node (ref U1) (pin 37)))
    (net (code 118) (name "Net-(U1-Pad36)")
      (node (ref U1) (pin 36)))
    (net (code 119) (name /PrinterBoard_MCU/V_3V3_A)
      (node (ref FB1) (pin 2))
      (node (ref U1) (pin 10))
      (node (ref C8) (pin 2))
      (node (ref U1) (pin 12)))
    (net (code 120) (name /PrinterBoard_MCU/MCU_XTAL1)
      (node (ref Q1) (pin 2))
      (node (ref C2) (pin 2))
      (node (ref U1) (pin 22)))
    (net (code 121) (name V_MOT)
      (node (ref C23) (pin 2))
      (node (ref C15) (pin 2))
      (node (ref C16) (pin 2))
      (node (ref C18) (pin A))
      (node (ref MOD5) (pin 16))
      (node (ref C22) (pin 2))
      (node (ref C19) (pin A))
      (node (ref C14) (pin 2))
      (node (ref MOD2) (pin 16))
      (node (ref C17) (pin A))
      (node (ref MOD4) (pin 16))
      (node (ref MOD1) (pin 16))
      (node (ref C24) (pin A))
      (node (ref C25) (pin A))
      (node (ref MOD3) (pin 16)))
    (net (code 122) (name /PrinterBoard_Drivers/MOT_D_1A)
      (node (ref J8) (pin 2))
      (node (ref MOD4) (pin 12)))
    (net (code 123) (name /PrinterBoard_Drivers/MOT_D_2A)
      (node (ref MOD4) (pin 13))
      (node (ref J8) (pin 3)))
    (net (code 124) (name /PrinterBoard_Drivers/MOT_D_2B)
      (node (ref MOD4) (pin 14))
      (node (ref J8) (pin 4)))
    (net (code 125) (name /PrinterBoard_Drivers/DRV_D_CLK_MS2)
      (node (ref MOD4) (pin 3))
      (node (ref R27) (pin 2))
      (node (ref R36) (pin 1)))
    (net (code 126) (name /PrinterBoard_Drivers/DRV_D_SLP#)
      (node (ref R37) (pin 2))
      (node (ref MOD4) (pin 6)))
    (net (code 127) (name /PrinterBoard_Drivers/DRV_D_MISO_RST#)
      (node (ref MOD4) (pin 5))
      (node (ref R37) (pin 1))
      (node (ref R29) (pin 2)))
    (net (code 128) (name /PrinterBoard_Drivers/DRV_D_MOSI_MS1)
      (node (ref R40) (pin 1))
      (node (ref MOD4) (pin 2))
      (node (ref R26) (pin 2)))
    (net (code 129) (name /PrinterBoard_Drivers/DRV_D_CS#_MS3)
      (node (ref MOD4) (pin 4))
      (node (ref R28) (pin 2))
      (node (ref R34) (pin 1)))
    (net (code 130) (name /PrinterBoard_Drivers/DRV_C_SLP#)
      (node (ref R22) (pin 2))
      (node (ref MOD3) (pin 6)))
    (net (code 131) (name /PrinterBoard_Drivers/DRV_C_CLK_MS2)
      (node (ref R21) (pin 1))
      (node (ref MOD3) (pin 3))
      (node (ref R11) (pin 2)))
    (net (code 132) (name /PrinterBoard_Drivers/DRV_C_CS#_MS3)
      (node (ref R12) (pin 2))
      (node (ref R16) (pin 1))
      (node (ref MOD3) (pin 4)))
    (net (code 133) (name /PrinterBoard_Drivers/DRV_C_MISO_RST#)
      (node (ref R13) (pin 2))
      (node (ref MOD3) (pin 5))
      (node (ref R22) (pin 1)))
    (net (code 134) (name /PrinterBoard_Drivers/MOT_A_1B)
      (node (ref MOD4) (pin 11))
      (node (ref J5) (pin 1))
      (node (ref J8) (pin 1))
      (node (ref MOD1) (pin 11)))
    (net (code 135) (name /PrinterBoard_Drivers/DRV_E_SLP#)
      (node (ref MOD5) (pin 6))
      (node (ref R39) (pin 2)))
    (net (code 136) (name /PrinterBoard_Drivers/DRV_E_MOSI_MS1)
      (node (ref MOD5) (pin 2))
      (node (ref R30) (pin 2))
      (node (ref R41) (pin 1)))
    (net (code 137) (name /PrinterBoard_Drivers/DRV_E_CLK_MS2)
      (node (ref R31) (pin 2))
      (node (ref MOD5) (pin 3))
      (node (ref R38) (pin 1)))
    (net (code 138) (name /PrinterBoard_Drivers/DRV_E_MISO_RST#)
      (node (ref R39) (pin 1))
      (node (ref R33) (pin 2))
      (node (ref MOD5) (pin 5)))
    (net (code 139) (name /PrinterBoard_Drivers/DRV_E_CS#_MS3)
      (node (ref MOD5) (pin 4))
      (node (ref R32) (pin 2))
      (node (ref R35) (pin 1)))
    (net (code 140) (name /PrinterBoard_Drivers/MOT_E_1B)
      (node (ref J9) (pin 1))
      (node (ref MOD5) (pin 11)))
    (net (code 141) (name /PrinterBoard_Drivers/MOT_E_1A)
      (node (ref J9) (pin 2))
      (node (ref MOD5) (pin 12)))
    (net (code 142) (name /PrinterBoard_Drivers/MOT_E_2A)
      (node (ref MOD5) (pin 13))
      (node (ref J9) (pin 3)))
    (net (code 143) (name /PrinterBoard_Drivers/MOT_E_2B)
      (node (ref MOD5) (pin 14))
      (node (ref J9) (pin 4)))
    (net (code 144) (name /PrinterBoard_Drivers/DRV_A_MISO_RST#)
      (node (ref R5) (pin 2))
      (node (ref MOD1) (pin 5))
      (node (ref R19) (pin 1)))
    (net (code 145) (name /PrinterBoard_Drivers/DRV_A_SLP#)
      (node (ref MOD1) (pin 6))
      (node (ref R19) (pin 2)))
    (net (code 146) (name /PrinterBoard_Drivers/MOT_B_1B)
      (node (ref MOD2) (pin 11))
      (node (ref J6) (pin 1)))
    (net (code 147) (name /PrinterBoard_Drivers/MOT_B_1A)
      (node (ref J6) (pin 2))
      (node (ref MOD2) (pin 12)))
    (net (code 148) (name /PrinterBoard_Drivers/MOT_B_2A)
      (node (ref MOD2) (pin 13))
      (node (ref J6) (pin 3)))
    (net (code 149) (name /PrinterBoard_Drivers/MOT_B_2B)
      (node (ref MOD2) (pin 14))
      (node (ref J6) (pin 4)))
    (net (code 150) (name /PrinterBoard_Drivers/MOT_A_1A)
      (node (ref J5) (pin 2))
      (node (ref MOD1) (pin 12)))
    (net (code 151) (name /PrinterBoard_Drivers/MOT_A_2A)
      (node (ref J5) (pin 3))
      (node (ref MOD1) (pin 13)))
    (net (code 152) (name /PrinterBoard_Drivers/MOT_A_2B)
      (node (ref J5) (pin 4))
      (node (ref MOD1) (pin 14)))
    (net (code 153) (name /PrinterBoard_Drivers/DRV_A_CS#_MS3)
      (node (ref R14) (pin 1))
      (node (ref R4) (pin 2))
      (node (ref MOD1) (pin 4)))
    (net (code 154) (name /PrinterBoard_Drivers/DRV_A_MOSI_MS1)
      (node (ref R2) (pin 2))
      (node (ref R23) (pin 1))
      (node (ref MOD1) (pin 2)))
    (net (code 155) (name /PrinterBoard_Drivers/DRV_A_CLK_MS2)
      (node (ref R17) (pin 1))
      (node (ref R3) (pin 2))
      (node (ref MOD1) (pin 3)))
    (net (code 156) (name /PrinterBoard_Drivers/DRV_C_MOSI_MS1)
      (node (ref R10) (pin 2))
      (node (ref R25) (pin 1))
      (node (ref MOD3) (pin 2)))
    (net (code 157) (name /PrinterBoard_Drivers/MOT_C_1B)
      (node (ref MOD3) (pin 11))
      (node (ref J7) (pin 1)))
    (net (code 158) (name /PrinterBoard_Drivers/MOT_C_1A)
      (node (ref MOD3) (pin 12))
      (node (ref J7) (pin 2)))
    (net (code 159) (name /PrinterBoard_Drivers/MOT_C_2A)
      (node (ref J7) (pin 3))
      (node (ref MOD3) (pin 13)))
    (net (code 160) (name /PrinterBoard_Drivers/MOT_C_2B)
      (node (ref J7) (pin 4))
      (node (ref MOD3) (pin 14)))
    (net (code 161) (name /PrinterBoard_Drivers/DRV_B_MOSI_MS1)
      (node (ref MOD2) (pin 2))
      (node (ref R6) (pin 2))
      (node (ref R24) (pin 1)))
    (net (code 162) (name /PrinterBoard_Drivers/DRV_B_SLP#)
      (node (ref MOD2) (pin 6))
      (node (ref R20) (pin 2)))
    (net (code 163) (name /PrinterBoard_Drivers/DRV_B_MISO_RST#)
      (node (ref R20) (pin 1))
      (node (ref R9) (pin 2))
      (node (ref MOD2) (pin 5)))
    (net (code 164) (name /PrinterBoard_Drivers/DRV_B_CS#_MS3)
      (node (ref MOD2) (pin 4))
      (node (ref R15) (pin 1))
      (node (ref R8) (pin 2)))
    (net (code 165) (name /PrinterBoard_Drivers/DRV_B_CLK_MS2)
      (node (ref R7) (pin 2))
      (node (ref MOD2) (pin 3))
      (node (ref R18) (pin 1)))
    (net (code 166) (name /PrinterBoard_Connectors/SPI_SD_CLK_5V0)
      (node (ref J11) (pin 2))
      (node (ref U3) (pin 3)))
    (net (code 167) (name /PrinterBoard_Connectors/SPI_SD_MOSI_5V0)
      (node (ref J11) (pin 6))
      (node (ref U4) (pin 3)))
    (net (code 168) (name "Net-(J10-Pad6)")
      (node (ref J10) (pin 6)))
    (net (code 169) (name "Net-(J10-Pad7)")
      (node (ref J10) (pin 7)))
    (net (code 170) (name "Net-(J10-Pad8)")
      (node (ref J10) (pin 8)))
    (net (code 171) (name "Net-(J11-Pad10)")
      (node (ref J11) (pin 10)))
    (net (code 172) (name /PrinterBoard_Connectors/EXP_MCU_RST#)
      (node (ref J11) (pin 8))
      (node (ref R42) (pin 1)))
    (net (code 173) (name /PrinterBoard_Connectors/SPI_SD_CS#_5V0)
      (node (ref U4) (pin 2))
      (node (ref J11) (pin 4)))
    (net (code 174) (name /PrinterBoard_Connectors/LCD_EN_5V0)
      (node (ref U2) (pin 2))
      (node (ref J10) (pin 3)))
    (net (code 175) (name /PrinterBoard_Connectors/LCD_RS_5V0)
      (node (ref J10) (pin 4))
      (node (ref U3) (pin 2)))
    (net (code 176) (name /PrinterBoard_Connectors/LCD_D4_5V0)
      (node (ref J10) (pin 5))
      (node (ref U2) (pin 3)))))