EESchema Schematic File Version 4
LIBS:PrinterBoard-cache
EELAYER 26 0
EELAYER END
$Descr A3 16535 11693
encoding utf-8
Sheet 5 5
Title ""
Date ""
Rev ""
Comp ""
Comment1 ""
Comment2 ""
Comment3 ""
Comment4 ""
$EndDescr
Text Notes 550  800  0    200  ~ 0
Page 04 - Power Connectors
$Comp
L active:NFET_3S Q3
U 1 1 5C95C0DD
P 5050 3850
F 0 "Q3" H 5200 3950 50  0000 L CNN
F 1 "PSMN1R8-40YLC" H 5200 3850 50  0000 L CNN
F 2 "discrete_smt:DPAK127P600X120-5N_SOT669_NEXPERIA_PSMN1R8-40YLC" H 5050 3850 50  0001 C CNN
F 3 "" H 5050 3850 50  0001 C CNN
F 4 "40V/100A/1.8m" H 5200 3750 50  0000 L CNN "Params"
	1    5050 3850
	1    0    0    -1  
$EndComp
Text Notes 900  2800 0    100  ~ 0
Heatbed
$Comp
L connector:J_GEN_2PIN-1COLX2ROW J17
U 1 1 5C95C3AF
P 2550 1900
F 0 "J17" H 2800 2050 50  0000 C CNN
F 1 "WEIDMUELLER_PM5.08/2/90" H 2700 1650 50  0000 L CNN
F 2 "connector_tht:WEIDMUELLER_PM5.08-2-90" H 2550 1900 50  0001 C CNN
F 3 "" H 2550 1900 50  0001 C CNN
	1    2550 1900
	-1   0    0    -1  
$EndComp
Text Notes 1000 1350 0    100  ~ 0
Main Input
$Comp
L connector:J_GEN_2PIN-1COLX2ROW J18
U 1 1 5C95C4B6
P 5800 3150
F 0 "J18" H 6050 3300 50  0000 C CNN
F 1 "PM5.08/2/90" H 5950 2900 50  0000 L CNN
F 2 "connector_tht:WEIDMUELLER_PM5.08-2-90" H 5800 3150 50  0001 C CNN
F 3 "" H 5800 3150 50  0001 C CNN
	1    5800 3150
	1    0    0    -1  
$EndComp
$Comp
L sch_power:GND #PWR028
U 1 1 5C95C578
P 5100 4150
F 0 "#PWR028" H 5100 4050 50  0001 C CNN
F 1 "GND" H 5100 4050 50  0000 C CNN
F 2 "" H 5100 4150 50  0001 C CNN
F 3 "" H 5100 4150 50  0001 C CNN
	1    5100 4150
	1    0    0    -1  
$EndComp
Wire Wire Line
	5100 4000 5100 4050
Wire Wire Line
	5200 3250 5200 3600
Wire Wire Line
	5800 3150 5050 3150
Wire Wire Line
	5050 3500 5050 3600
Wire Wire Line
	5050 3600 5050 3700
Wire Wire Line
	5050 3300 5050 3150
Connection ~ 5050 3150
Wire Wire Line
	5050 4000 5050 4050
Wire Wire Line
	5050 4050 5100 4050
Connection ~ 5100 4050
Wire Wire Line
	5100 4050 5100 4150
Wire Wire Line
	5150 4000 5150 4050
Wire Wire Line
	5150 4050 5100 4050
Wire Wire Line
	5200 3250 5800 3250
Wire Wire Line
	5050 3600 5200 3600
Connection ~ 5050 3600
$Comp
L passive:R R59
U 1 1 5C3A6625
P 4750 4250
F 0 "R59" H 4860 4270 50  0000 L BNN
F 1 "100k" H 4860 4230 50  0000 L TNN
F 2 "discrete_smt:RESC1005X55_0402_IPC-B" H 4750 4250 50  0001 C CNN
F 3 "" H 4750 4250 50  0001 C CNN
	1    4750 4250
	0    -1   -1   0   
$EndComp
Wire Wire Line
	4900 3900 4750 3900
Wire Wire Line
	4750 3900 4750 4050
$Comp
L sch_power:GND #PWR027
U 1 1 5C3A67B0
P 4750 4500
F 0 "#PWR027" H 4750 4400 50  0001 C CNN
F 1 "GND" H 4750 4400 50  0000 C CNN
F 2 "" H 4750 4500 50  0001 C CNN
F 3 "" H 4750 4500 50  0001 C CNN
	1    4750 4500
	1    0    0    -1  
$EndComp
Wire Wire Line
	4750 4450 4750 4500
Wire Wire Line
	4750 3900 4200 3900
Connection ~ 4750 3900
$Comp
L sch_power:GND #PWR026
U 1 1 5C3A7389
P 2650 2250
F 0 "#PWR026" H 2650 2150 50  0001 C CNN
F 1 "GND" H 2650 2150 50  0000 C CNN
F 2 "" H 2650 2250 50  0001 C CNN
F 3 "" H 2650 2250 50  0001 C CNN
	1    2650 2250
	1    0    0    -1  
$EndComp
Wire Wire Line
	2550 2000 2650 2000
Wire Wire Line
	2650 2000 2650 2200
$Comp
L passive:R R58
U 1 1 5C3A7936
P 4000 3900
F 0 "R58" H 4110 3920 50  0000 L BNN
F 1 "10R/0805" H 4110 3880 50  0000 L TNN
F 2 "discrete_smt:RESC2012X50N_0805" H 4000 3900 50  0001 C CNN
F 3 "" H 4000 3900 50  0001 C CNN
	1    4000 3900
	1    0    0    -1  
$EndComp
Wire Wire Line
	2550 1900 2650 1900
Wire Wire Line
	2650 1900 2650 1700
$Comp
L sch_power:V_MOT #PWR0172
U 1 1 5C3AB4E4
P 5050 3050
F 0 "#PWR0172" H 5050 3050 50  0001 C CNN
F 1 "V_MOT" H 5050 3200 50  0000 C CNN
F 2 "" H 5050 3050 50  0001 C CNN
F 3 "" H 5050 3050 50  0001 C CNN
	1    5050 3050
	1    0    0    -1  
$EndComp
Wire Wire Line
	5050 3050 5050 3150
Text GLabel 1750 4100 0    50   Input ~ 0
PWM_HEATBED
Wire Wire Line
	3300 3900 3800 3900
Wire Wire Line
	2650 1700 2800 1700
Wire Wire Line
	2800 1700 2800 1850
Connection ~ 2650 1700
Wire Wire Line
	2650 1700 2650 1650
Wire Wire Line
	2650 2200 2800 2200
Wire Wire Line
	2800 2200 2800 2050
Connection ~ 2650 2200
Wire Wire Line
	2650 2200 2650 2250
$Comp
L passive:F_4PIN F1
U 1 1 5C3B1BD8
P 4250 1700
F 0 "F1" H 4150 1750 50  0000 L BNN
F 1 "KEYSTONE_3522_X2" H 3900 1600 50  0000 L TNN
F 2 "connector_tht:KEYSTONE_3522_ATO-FUSE-HOLDER" H 4250 1700 50  0001 C CNN
F 3 "" H 4250 1700 50  0001 C CNN
	1    4250 1700
	1    0    0    -1  
$EndComp
Wire Wire Line
	2800 1700 3950 1700
Connection ~ 2800 1700
Wire Wire Line
	3950 1700 3950 1750
Wire Wire Line
	3950 1750 4050 1750
Connection ~ 3950 1700
Wire Wire Line
	3950 1700 4050 1700
Wire Wire Line
	4450 1700 4550 1700
Wire Wire Line
	4450 1750 4550 1750
Wire Wire Line
	4550 1750 4550 1700
Wire Wire Line
	4550 1700 5450 1700
Connection ~ 4550 1700
$Comp
L sch_power:V_MOT #PWR0173
U 1 1 5C3B3B27
P 5450 1650
F 0 "#PWR0173" H 5450 1650 50  0001 C CNN
F 1 "V_MOT" H 5450 1800 50  0000 C CNN
F 2 "" H 5450 1650 50  0001 C CNN
F 3 "" H 5450 1650 50  0001 C CNN
	1    5450 1650
	1    0    0    -1  
$EndComp
Wire Wire Line
	5450 1650 5450 1700
$Comp
L sch_power:V_IN #PWR0174
U 1 1 5C3B5919
P 2650 1650
F 0 "#PWR0174" H 2650 1650 50  0001 C CNN
F 1 "V_IN" H 2650 1800 50  0000 C CNN
F 2 "" H 2650 1650 50  0001 C CNN
F 3 "" H 2650 1650 50  0001 C CNN
	1    2650 1650
	1    0    0    -1  
$EndComp
Text Notes 3800 1950 0    50   ~ 0
+ LITTELFUSE 0287010.PXCN
$Comp
L passive:C_POL C42
U 1 1 5C3B5DD4
P 5450 2050
F 0 "C42" H 5520 2070 50  0000 L BNN
F 1 "100uF/35V" H 5300 2000 50  0000 L TNN
F 2 "discrete_smt:CAPAE660X770_WE-865080545012" H 5450 2050 50  0001 C CNN
F 3 "" H 5450 2050 50  0001 C CNN
	1    5450 2050
	0    -1   -1   0   
$EndComp
Wire Wire Line
	5450 1700 5450 1950
Connection ~ 5450 1700
$Comp
L sch_power:GND #PWR0175
U 1 1 5C3B73F5
P 5450 2250
F 0 "#PWR0175" H 5450 2150 50  0001 C CNN
F 1 "GND" H 5450 2150 50  0000 C CNN
F 2 "" H 5450 2250 50  0001 C CNN
F 3 "" H 5450 2250 50  0001 C CNN
	1    5450 2250
	1    0    0    -1  
$EndComp
Wire Wire Line
	5450 2150 5450 2250
$Comp
L ic:U_DRV_LS_MCP1402T-E-OT U5
U 1 1 5C3BAE12
P 2500 3900
F 0 "U5" H 2900 4050 50  0000 C CNN
F 1 "MCP1402T-E-OT" H 2650 3550 50  0000 L CNN
F 2 "ic_smt:SOT-23-5_GENERIC" H 2500 3900 50  0001 C CNN
F 3 "" H 2500 3900 50  0001 C CNN
	1    2500 3900
	1    0    0    -1  
$EndComp
$Comp
L sch_power:GND #PWR0176
U 1 1 5C3BAF43
P 3400 4300
F 0 "#PWR0176" H 3400 4200 50  0001 C CNN
F 1 "GND" H 3400 4200 50  0000 C CNN
F 2 "" H 3400 4300 50  0001 C CNN
F 3 "" H 3400 4300 50  0001 C CNN
	1    3400 4300
	1    0    0    -1  
$EndComp
Wire Wire Line
	3300 4100 3400 4100
Wire Wire Line
	3400 4100 3400 4000
Wire Wire Line
	3400 4000 3300 4000
Wire Wire Line
	3400 4100 3400 4300
Connection ~ 3400 4100
Wire Wire Line
	1750 4100 2500 4100
$Comp
L sch_power:V_12V0 #PWR0177
U 1 1 5C3BFDB7
P 2050 3300
F 0 "#PWR0177" H 2050 3300 50  0001 C CNN
F 1 "V_12V0" H 2050 3450 50  0000 C CNN
F 2 "" H 2050 3300 50  0001 C CNN
F 3 "" H 2050 3300 50  0001 C CNN
	1    2050 3300
	1    0    0    -1  
$EndComp
Wire Wire Line
	2050 3300 2050 3350
Wire Wire Line
	2400 3900 2500 3900
$Comp
L passive:C_NP_STK C40
U 1 1 5C3C13A0
P 2250 3650
F 0 "C40" H 2310 3670 40  0000 L BNN
F 1 "100nF" H 2310 3630 40  0000 L TNN
F 2 "discrete_smt:CAPC1005X55_0402_IPC-B" H 2250 3650 50  0001 C CNN
F 3 "" H 2250 3650 50  0001 C CNN
	1    2250 3650
	0    -1   -1   0   
$EndComp
$Comp
L passive:C_NP_STK C38
U 1 1 5C3C1426
P 2050 3650
F 0 "C38" H 2110 3670 40  0000 L BNN
F 1 "1uF" H 2110 3630 40  0000 L TNN
F 2 "discrete_smt:CAPC1005X55_0402_IPC-B" H 2050 3650 50  0001 C CNN
F 3 "" H 2050 3650 50  0001 C CNN
	1    2050 3650
	0    -1   -1   0   
$EndComp
Wire Wire Line
	2400 3350 2250 3350
Wire Wire Line
	2050 3350 2050 3550
Wire Wire Line
	2400 3350 2400 3900
Wire Wire Line
	2250 3550 2250 3350
Connection ~ 2250 3350
Wire Wire Line
	2250 3350 2050 3350
Connection ~ 2050 3350
$Comp
L sch_power:GND #PWR0178
U 1 1 5C3C5AE4
P 2050 3800
F 0 "#PWR0178" H 2050 3700 50  0001 C CNN
F 1 "GND" H 2050 3700 50  0000 C CNN
F 2 "" H 2050 3800 50  0001 C CNN
F 3 "" H 2050 3800 50  0001 C CNN
	1    2050 3800
	1    0    0    -1  
$EndComp
Wire Wire Line
	2050 3750 2050 3800
$Comp
L sch_power:GND #PWR0179
U 1 1 5C3C7507
P 2250 3800
F 0 "#PWR0179" H 2250 3700 50  0001 C CNN
F 1 "GND" H 2250 3700 50  0000 C CNN
F 2 "" H 2250 3800 50  0001 C CNN
F 3 "" H 2250 3800 50  0001 C CNN
	1    2250 3800
	1    0    0    -1  
$EndComp
Wire Wire Line
	2250 3750 2250 3800
Text Notes 2150 3300 0    50   ~ 0
Note: VDDmax=18V
Text Label 3400 3900 0    50   ~ 0
HB_FET_R
Text Label 4450 3900 0    50   ~ 0
HB_FET
Text Label 1850 4100 0    50   ~ 0
PWM_HEATBED
Wire Notes Line
	850  2500 6550 2500
Wire Notes Line
	6550 2500 6550 1350
Wire Notes Line
	6550 1350 850  1350
Wire Notes Line
	850  1350 850  2500
Wire Notes Line
	850  2800 6550 2800
Wire Notes Line
	6550 2800 6550 4700
Wire Notes Line
	850  2800 850  4700
Wire Notes Line
	850  4700 6550 4700
$Comp
L active:NFET_3S Q4
U 1 1 5C3D575F
P 5050 6050
F 0 "Q4" H 5200 6150 50  0000 L CNN
F 1 "PSMN1R8-40YLC" H 5200 6050 50  0000 L CNN
F 2 "discrete_smt:DPAK127P600X120-5N_SOT669_NEXPERIA_PSMN1R8-40YLC" H 5050 6050 50  0001 C CNN
F 3 "" H 5050 6050 50  0001 C CNN
F 4 "40V/100A/1.8m" H 5200 5950 50  0000 L CNN "Params"
	1    5050 6050
	1    0    0    -1  
$EndComp
Text Notes 900  5000 0    100  ~ 0
Hotend
$Comp
L connector:J_GEN_2PIN-1COLX2ROW J19
U 1 1 5C3D5767
P 5800 5350
F 0 "J19" H 6050 5500 50  0000 C CNN
F 1 "PM5.08/2/90" H 5950 5100 50  0000 L CNN
F 2 "connector_tht:WEIDMUELLER_PM5.08-2-90" H 5800 5350 50  0001 C CNN
F 3 "" H 5800 5350 50  0001 C CNN
	1    5800 5350
	1    0    0    -1  
$EndComp
$Comp
L sch_power:GND #PWR0180
U 1 1 5C3D576E
P 5100 6350
F 0 "#PWR0180" H 5100 6250 50  0001 C CNN
F 1 "GND" H 5100 6250 50  0000 C CNN
F 2 "" H 5100 6350 50  0001 C CNN
F 3 "" H 5100 6350 50  0001 C CNN
	1    5100 6350
	1    0    0    -1  
$EndComp
Wire Wire Line
	5100 6200 5100 6250
Wire Wire Line
	5200 5450 5200 5800
Wire Wire Line
	5800 5350 5050 5350
Wire Wire Line
	5050 5700 5050 5800
Wire Wire Line
	5050 5800 5050 5900
Wire Wire Line
	5050 5500 5050 5350
Connection ~ 5050 5350
Wire Wire Line
	5050 6200 5050 6250
Wire Wire Line
	5050 6250 5100 6250
Connection ~ 5100 6250
Wire Wire Line
	5100 6250 5100 6350
Wire Wire Line
	5150 6200 5150 6250
Wire Wire Line
	5150 6250 5100 6250
Wire Wire Line
	5200 5450 5800 5450
Wire Wire Line
	5050 5800 5200 5800
Connection ~ 5050 5800
$Comp
L passive:R R61
U 1 1 5C3D578B
P 4750 6450
F 0 "R61" H 4860 6470 50  0000 L BNN
F 1 "100k" H 4860 6430 50  0000 L TNN
F 2 "discrete_smt:RESC1005X55_0402_IPC-B" H 4750 6450 50  0001 C CNN
F 3 "" H 4750 6450 50  0001 C CNN
	1    4750 6450
	0    -1   -1   0   
$EndComp
Wire Wire Line
	4900 6100 4750 6100
Wire Wire Line
	4750 6100 4750 6250
$Comp
L sch_power:GND #PWR0181
U 1 1 5C3D5794
P 4750 6700
F 0 "#PWR0181" H 4750 6600 50  0001 C CNN
F 1 "GND" H 4750 6600 50  0000 C CNN
F 2 "" H 4750 6700 50  0001 C CNN
F 3 "" H 4750 6700 50  0001 C CNN
	1    4750 6700
	1    0    0    -1  
$EndComp
Wire Wire Line
	4750 6650 4750 6700
Wire Wire Line
	4750 6100 4200 6100
Connection ~ 4750 6100
$Comp
L passive:R R60
U 1 1 5C3D579D
P 4000 6100
F 0 "R60" H 4110 6120 50  0000 L BNN
F 1 "10R/0805" H 4110 6080 50  0000 L TNN
F 2 "discrete_smt:RESC2012X50N_0805" H 4000 6100 50  0001 C CNN
F 3 "" H 4000 6100 50  0001 C CNN
	1    4000 6100
	1    0    0    -1  
$EndComp
$Comp
L sch_power:V_MOT #PWR0182
U 1 1 5C3D57A4
P 5050 5250
F 0 "#PWR0182" H 5050 5250 50  0001 C CNN
F 1 "V_MOT" H 5050 5400 50  0000 C CNN
F 2 "" H 5050 5250 50  0001 C CNN
F 3 "" H 5050 5250 50  0001 C CNN
	1    5050 5250
	1    0    0    -1  
$EndComp
Wire Wire Line
	5050 5250 5050 5350
Text GLabel 1750 6300 0    50   Input ~ 0
PWM_HOTEND
Wire Wire Line
	3300 6100 3800 6100
$Comp
L ic:U_DRV_LS_MCP1402T-E-OT U6
U 1 1 5C3D57AD
P 2500 6100
F 0 "U6" H 2900 6250 50  0000 C CNN
F 1 "MCP1402T-E-OT" H 2650 5750 50  0000 L CNN
F 2 "ic_smt:SOT-23-5_GENERIC" H 2500 6100 50  0001 C CNN
F 3 "" H 2500 6100 50  0001 C CNN
	1    2500 6100
	1    0    0    -1  
$EndComp
$Comp
L sch_power:GND #PWR0183
U 1 1 5C3D57B4
P 3400 6500
F 0 "#PWR0183" H 3400 6400 50  0001 C CNN
F 1 "GND" H 3400 6400 50  0000 C CNN
F 2 "" H 3400 6500 50  0001 C CNN
F 3 "" H 3400 6500 50  0001 C CNN
	1    3400 6500
	1    0    0    -1  
$EndComp
Wire Wire Line
	3300 6300 3400 6300
Wire Wire Line
	3400 6300 3400 6200
Wire Wire Line
	3400 6200 3300 6200
Wire Wire Line
	3400 6300 3400 6500
Connection ~ 3400 6300
Wire Wire Line
	1750 6300 2500 6300
$Comp
L sch_power:V_12V0 #PWR0184
U 1 1 5C3D57C0
P 2050 5500
F 0 "#PWR0184" H 2050 5500 50  0001 C CNN
F 1 "V_12V0" H 2050 5650 50  0000 C CNN
F 2 "" H 2050 5500 50  0001 C CNN
F 3 "" H 2050 5500 50  0001 C CNN
	1    2050 5500
	1    0    0    -1  
$EndComp
Wire Wire Line
	2050 5500 2050 5550
Wire Wire Line
	2400 6100 2500 6100
$Comp
L passive:C_NP_STK C41
U 1 1 5C3D57C8
P 2250 5850
F 0 "C41" H 2310 5870 40  0000 L BNN
F 1 "100nF" H 2310 5830 40  0000 L TNN
F 2 "discrete_smt:CAPC1005X55_0402_IPC-B" H 2250 5850 50  0001 C CNN
F 3 "" H 2250 5850 50  0001 C CNN
	1    2250 5850
	0    -1   -1   0   
$EndComp
$Comp
L passive:C_NP_STK C39
U 1 1 5C3D57CF
P 2050 5850
F 0 "C39" H 2110 5870 40  0000 L BNN
F 1 "1uF" H 2110 5830 40  0000 L TNN
F 2 "discrete_smt:CAPC1005X55_0402_IPC-B" H 2050 5850 50  0001 C CNN
F 3 "" H 2050 5850 50  0001 C CNN
	1    2050 5850
	0    -1   -1   0   
$EndComp
Wire Wire Line
	2400 5550 2250 5550
Wire Wire Line
	2050 5550 2050 5750
Wire Wire Line
	2400 5550 2400 6100
Wire Wire Line
	2250 5750 2250 5550
Connection ~ 2250 5550
Wire Wire Line
	2250 5550 2050 5550
Connection ~ 2050 5550
$Comp
L sch_power:GND #PWR0185
U 1 1 5C3D57DD
P 2050 6000
F 0 "#PWR0185" H 2050 5900 50  0001 C CNN
F 1 "GND" H 2050 5900 50  0000 C CNN
F 2 "" H 2050 6000 50  0001 C CNN
F 3 "" H 2050 6000 50  0001 C CNN
	1    2050 6000
	1    0    0    -1  
$EndComp
Wire Wire Line
	2050 5950 2050 6000
$Comp
L sch_power:GND #PWR0186
U 1 1 5C3D57E4
P 2250 6000
F 0 "#PWR0186" H 2250 5900 50  0001 C CNN
F 1 "GND" H 2250 5900 50  0000 C CNN
F 2 "" H 2250 6000 50  0001 C CNN
F 3 "" H 2250 6000 50  0001 C CNN
	1    2250 6000
	1    0    0    -1  
$EndComp
Wire Wire Line
	2250 5950 2250 6000
Text Notes 2150 5500 0    50   ~ 0
Note: VDDmax=18V
Text Label 3400 6100 0    50   ~ 0
HE_FET_R
Text Label 4450 6100 0    50   ~ 0
HE_FET
Text Label 1850 6300 0    50   ~ 0
PWM_HOTEND
Wire Notes Line
	850  5000 6550 5000
Wire Notes Line
	6550 5000 6550 6900
Wire Notes Line
	850  5000 850  6900
Wire Notes Line
	850  6900 6550 6900
Text Label 5250 3250 0    50   ~ 0
HB_SWGND
Text Label 5300 5450 0    50   ~ 0
HE_SWGND
Text Notes 1850 6400 0    50   ~ 0
Note: Vih=2.4V
Text Notes 1850 4200 0    50   ~ 0
Note: Vih=2.4V
Text Notes 6900 1350 0    100  ~ 0
FAN0
$Comp
L sch_power:GND #PWR0187
U 1 1 5C3E42ED
P 9250 2700
F 0 "#PWR0187" H 9250 2600 50  0001 C CNN
F 1 "GND" H 9250 2600 50  0000 C CNN
F 2 "" H 9250 2700 50  0001 C CNN
F 3 "" H 9250 2700 50  0001 C CNN
	1    9250 2700
	1    0    0    -1  
$EndComp
Wire Wire Line
	9400 1800 9400 2150
$Comp
L active:D D5
U 1 1 5C3E42F6
P 9250 1950
F 0 "D5" V 9300 2050 50  0000 L BNN
F 1 "ESH2PD-M3/84A" V 9150 2050 50  0000 L TNN
F 2 "discrete_smt:DO-220AA_SMP" H 9250 1950 50  0001 C CNN
F 3 "" H 9250 1950 50  0001 C CNN
	1    9250 1950
	0    -1   -1   0   
$EndComp
Wire Wire Line
	9250 2050 9250 2150
Wire Wire Line
	9250 2150 9250 2250
Wire Wire Line
	9250 1850 9250 1700
Connection ~ 9250 1700
Wire Wire Line
	9250 2150 9300 2150
Connection ~ 9250 2150
$Comp
L passive:R R63
U 1 1 5C3E430A
P 8950 2800
F 0 "R63" H 9060 2820 50  0000 L BNN
F 1 "100k" H 9060 2780 50  0000 L TNN
F 2 "discrete_smt:RESC1005X55_0402_IPC-B" H 8950 2800 50  0001 C CNN
F 3 "" H 8950 2800 50  0001 C CNN
	1    8950 2800
	0    -1   -1   0   
$EndComp
Wire Wire Line
	9100 2450 8950 2450
Wire Wire Line
	8950 2450 8950 2600
$Comp
L sch_power:GND #PWR0188
U 1 1 5C3E4313
P 8950 3050
F 0 "#PWR0188" H 8950 2950 50  0001 C CNN
F 1 "GND" H 8950 2950 50  0000 C CNN
F 2 "" H 8950 3050 50  0001 C CNN
F 3 "" H 8950 3050 50  0001 C CNN
	1    8950 3050
	1    0    0    -1  
$EndComp
Wire Wire Line
	8950 3000 8950 3050
Wire Wire Line
	8950 2450 8400 2450
Connection ~ 8950 2450
$Comp
L passive:R R62
U 1 1 5C3E431C
P 8200 2450
F 0 "R62" H 8310 2470 50  0000 L BNN
F 1 "10R/0805" H 8310 2430 50  0000 L TNN
F 2 "discrete_smt:RESC2012X50N_0805" H 8200 2450 50  0001 C CNN
F 3 "" H 8200 2450 50  0001 C CNN
	1    8200 2450
	1    0    0    -1  
$EndComp
$Comp
L sch_power:V_MOT #PWR0189
U 1 1 5C3E4323
P 7200 1600
F 0 "#PWR0189" H 7200 1600 50  0001 C CNN
F 1 "V_MOT" H 7200 1750 50  0000 C CNN
F 2 "" H 7200 1600 50  0001 C CNN
F 3 "" H 7200 1600 50  0001 C CNN
	1    7200 1600
	1    0    0    -1  
$EndComp
Wire Wire Line
	8050 1700 8400 1700
Text GLabel 7350 2450 0    50   Input ~ 0
PWM_FAN0
Text Label 8650 2450 0    50   ~ 0
FAN0_FET
Wire Notes Line
	6850 1350 10750 1350
Wire Notes Line
	10750 1350 10750 3250
Wire Notes Line
	6850 1350 6850 3250
Wire Notes Line
	6850 3250 10750 3250
Text Label 9400 1800 0    50   ~ 0
FAN0_SWGND
$Comp
L connector:J_GEN_2PIN-1COLX2ROW J20
U 1 1 5C3E8794
P 10000 1700
F 0 "J20" H 10250 1850 50  0000 C CNN
F 1 "PINHEAD_X2" H 10150 1450 50  0000 L CNN
F 2 "connector_tht:PINHEADER_2.54MM_2x1" H 10000 1700 50  0001 C CNN
F 3 "" H 10000 1700 50  0001 C CNN
	1    10000 1700
	1    0    0    -1  
$EndComp
Wire Wire Line
	9250 1700 10000 1700
Wire Wire Line
	9400 1800 10000 1800
Wire Wire Line
	9250 2550 9250 2700
Wire Wire Line
	7350 2450 8000 2450
Text Label 7450 2450 0    50   ~ 0
PWM_FAN0
$Comp
L active:NFET_2D Q5
U 1 1 5C42947F
P 9250 2400
F 0 "Q5" H 9350 2500 50  0000 L CNN
F 1 "FDT439N" H 9350 2400 50  0000 L CNN
F 2 "discrete_smt:SOT230P700X180-4MD-FAIRCHILD-FDT439N-PINSPEC" H 9250 2400 50  0001 C CNN
F 3 "" H 9350 2500 50  0000 L CNN
F 4 "40V/6.3A/60m" H 9350 2300 50  0000 L CNN "Params"
	1    9250 2400
	1    0    0    -1  
$EndComp
Wire Wire Line
	9300 2250 9300 2150
Connection ~ 9300 2150
Wire Wire Line
	9300 2150 9400 2150
$Comp
L active:D D2
U 1 1 5C43166B
P 5050 3400
F 0 "D2" H 5110 3420 50  0000 L BNN
F 1 "ESH2PD-M3/84A" H 4800 3550 50  0000 L TNN
F 2 "discrete_smt:DO-220AA_SMP" H 5050 3400 50  0001 C CNN
F 3 "" H 5050 3400 50  0001 C CNN
	1    5050 3400
	0    -1   -1   0   
$EndComp
$Comp
L active:D D4
U 1 1 5C431A9F
P 5050 5600
F 0 "D4" H 5110 5620 50  0000 L BNN
F 1 "ESH2PD-M3/84A" H 4800 5750 50  0000 L TNN
F 2 "discrete_smt:DO-220AA_SMP" H 5050 5600 50  0001 C CNN
F 3 "" H 5050 5600 50  0001 C CNN
	1    5050 5600
	0    -1   -1   0   
$EndComp
$Comp
L sch_power:V_12V0 #PWR049
U 1 1 5C447995
P 7550 1600
F 0 "#PWR049" H 7550 1600 50  0001 C CNN
F 1 "V_12V0" H 7550 1750 50  0000 C CNN
F 2 "" H 7550 1600 50  0001 C CNN
F 3 "" H 7550 1600 50  0001 C CNN
	1    7550 1600
	1    0    0    -1  
$EndComp
$Comp
L passive:R R75
U 1 1 5C447B85
P 7850 1900
F 0 "R75" H 7960 1920 50  0000 L BNN
F 1 "0R/0805" H 7960 1880 50  0000 L TNN
F 2 "discrete_smt:RESC2012X50N_0805" H 7850 1900 50  0001 C CNN
F 3 "" H 7850 1900 50  0001 C CNN
	1    7850 1900
	1    0    0    -1  
$EndComp
$Comp
L passive:R R74
U 1 1 5C447C22
P 7850 1700
F 0 "R74" H 7960 1720 50  0000 L BNN
F 1 "0R/0805" H 7960 1680 50  0000 L TNN
F 2 "discrete_smt:RESC2012X50N_0805" H 7850 1700 50  0001 C CNN
F 3 "" H 7850 1700 50  0001 C CNN
	1    7850 1700
	1    0    0    -1  
$EndComp
Wire Wire Line
	7550 1600 7550 1700
Wire Wire Line
	7550 1700 7650 1700
Wire Wire Line
	7200 1600 7200 1900
Wire Wire Line
	7200 1900 7650 1900
Wire Wire Line
	8050 1900 8400 1900
Wire Wire Line
	8400 1900 8400 1700
Connection ~ 8400 1700
Wire Wire Line
	8400 1700 9250 1700
$Comp
L connector:J_STD_FAN_4PIN J23
U 1 1 5C45DC9D
P 5300 8050
F 0 "J23" H 5700 8200 50  0000 C CNN
F 1 "J_STD_FAN_4PIN" H 5450 7600 50  0000 L CNN
F 2 "connector_tht:MOLEX_47053-1000" H 5300 8050 50  0001 C CNN
F 3 "" H 5300 8050 50  0001 C CNN
	1    5300 8050
	1    0    0    -1  
$EndComp
Text Notes 6900 3550 0    100  ~ 0
FAN1
$Comp
L sch_power:GND #PWR057
U 1 1 5C45E24E
P 9250 4900
F 0 "#PWR057" H 9250 4800 50  0001 C CNN
F 1 "GND" H 9250 4800 50  0000 C CNN
F 2 "" H 9250 4900 50  0001 C CNN
F 3 "" H 9250 4900 50  0001 C CNN
	1    9250 4900
	1    0    0    -1  
$EndComp
Wire Wire Line
	9400 4000 9400 4350
$Comp
L active:D D7
U 1 1 5C45E255
P 9250 4150
F 0 "D7" V 9300 4250 50  0000 L BNN
F 1 "ESH2PD-M3/84A" V 9150 4250 50  0000 L TNN
F 2 "discrete_smt:DO-220AA_SMP" H 9250 4150 50  0001 C CNN
F 3 "" H 9250 4150 50  0001 C CNN
	1    9250 4150
	0    -1   -1   0   
$EndComp
Wire Wire Line
	9250 4250 9250 4350
Wire Wire Line
	9250 4350 9250 4450
Wire Wire Line
	9250 4050 9250 3900
Connection ~ 9250 3900
Wire Wire Line
	9250 4350 9300 4350
Connection ~ 9250 4350
$Comp
L passive:R R82
U 1 1 5C45E262
P 8950 5000
F 0 "R82" H 9060 5020 50  0000 L BNN
F 1 "100k" H 9060 4980 50  0000 L TNN
F 2 "discrete_smt:RESC1005X55_0402_IPC-B" H 8950 5000 50  0001 C CNN
F 3 "" H 8950 5000 50  0001 C CNN
	1    8950 5000
	0    -1   -1   0   
$EndComp
Wire Wire Line
	9100 4650 8950 4650
Wire Wire Line
	8950 4650 8950 4800
$Comp
L sch_power:GND #PWR054
U 1 1 5C45E26B
P 8950 5250
F 0 "#PWR054" H 8950 5150 50  0001 C CNN
F 1 "GND" H 8950 5150 50  0000 C CNN
F 2 "" H 8950 5250 50  0001 C CNN
F 3 "" H 8950 5250 50  0001 C CNN
	1    8950 5250
	1    0    0    -1  
$EndComp
Wire Wire Line
	8950 5200 8950 5250
Wire Wire Line
	8950 4650 8400 4650
Connection ~ 8950 4650
$Comp
L passive:R R80
U 1 1 5C45E274
P 8200 4650
F 0 "R80" H 8310 4670 50  0000 L BNN
F 1 "10R/0805" H 8310 4630 50  0000 L TNN
F 2 "discrete_smt:RESC2012X50N_0805" H 8200 4650 50  0001 C CNN
F 3 "" H 8200 4650 50  0001 C CNN
	1    8200 4650
	1    0    0    -1  
$EndComp
$Comp
L sch_power:V_MOT #PWR045
U 1 1 5C45E27B
P 7200 3800
F 0 "#PWR045" H 7200 3800 50  0001 C CNN
F 1 "V_MOT" H 7200 3950 50  0000 C CNN
F 2 "" H 7200 3800 50  0001 C CNN
F 3 "" H 7200 3800 50  0001 C CNN
	1    7200 3800
	1    0    0    -1  
$EndComp
Wire Wire Line
	8050 3900 8400 3900
Text GLabel 7350 4650 0    50   Input ~ 0
PWM_FAN1
Text Label 8650 4650 0    50   ~ 0
FAN1_FET
Wire Notes Line
	6850 3550 10750 3550
Wire Notes Line
	10750 3550 10750 5450
Wire Notes Line
	6850 3550 6850 5450
Wire Notes Line
	6850 5450 10750 5450
$Comp
L connector:J_GEN_2PIN-1COLX2ROW J24
U 1 1 5C45E289
P 10000 3900
F 0 "J24" H 10250 4050 50  0000 C CNN
F 1 "PINHEAD_X2" H 10150 3650 50  0000 L CNN
F 2 "connector_tht:PINHEADER_2.54MM_2x1" H 10000 3900 50  0001 C CNN
F 3 "" H 10000 3900 50  0001 C CNN
	1    10000 3900
	1    0    0    -1  
$EndComp
Wire Wire Line
	9250 3900 10000 3900
Wire Wire Line
	9400 4000 10000 4000
Wire Wire Line
	9250 4750 9250 4900
Wire Wire Line
	7350 4650 8000 4650
Text Label 7450 4650 0    50   ~ 0
PWM_FAN1
$Comp
L active:NFET_2D Q8
U 1 1 5C45E296
P 9250 4600
F 0 "Q8" H 9350 4700 50  0000 L CNN
F 1 "FDT439N" H 9350 4600 50  0000 L CNN
F 2 "discrete_smt:SOT230P700X180-4MD-FAIRCHILD-FDT439N-PINSPEC" H 9250 4600 50  0001 C CNN
F 3 "" H 9350 4700 50  0000 L CNN
F 4 "40V/6.3A/60m" H 9350 4500 50  0000 L CNN "Params"
	1    9250 4600
	1    0    0    -1  
$EndComp
Wire Wire Line
	9300 4450 9300 4350
Connection ~ 9300 4350
Wire Wire Line
	9300 4350 9400 4350
$Comp
L sch_power:V_12V0 #PWR050
U 1 1 5C45E2A0
P 7550 3800
F 0 "#PWR050" H 7550 3800 50  0001 C CNN
F 1 "V_12V0" H 7550 3950 50  0000 C CNN
F 2 "" H 7550 3800 50  0001 C CNN
F 3 "" H 7550 3800 50  0001 C CNN
	1    7550 3800
	1    0    0    -1  
$EndComp
$Comp
L passive:R R77
U 1 1 5C45E2A6
P 7850 4100
F 0 "R77" H 7960 4120 50  0000 L BNN
F 1 "0R/0805" H 7960 4080 50  0000 L TNN
F 2 "discrete_smt:RESC2012X50N_0805" H 7850 4100 50  0001 C CNN
F 3 "" H 7850 4100 50  0001 C CNN
	1    7850 4100
	1    0    0    -1  
$EndComp
$Comp
L passive:R R76
U 1 1 5C45E2AD
P 7850 3900
F 0 "R76" H 7960 3920 50  0000 L BNN
F 1 "0R/0805" H 7960 3880 50  0000 L TNN
F 2 "discrete_smt:RESC2012X50N_0805" H 7850 3900 50  0001 C CNN
F 3 "" H 7850 3900 50  0001 C CNN
	1    7850 3900
	1    0    0    -1  
$EndComp
Wire Wire Line
	7550 3800 7550 3900
Wire Wire Line
	7550 3900 7650 3900
Wire Wire Line
	7200 3800 7200 4100
Wire Wire Line
	7200 4100 7650 4100
Wire Wire Line
	8050 4100 8400 4100
Wire Wire Line
	8400 4100 8400 3900
Connection ~ 8400 3900
Wire Wire Line
	8400 3900 9250 3900
Text Notes 6900 5750 0    100  ~ 0
FAN2
$Comp
L sch_power:GND #PWR058
U 1 1 5C46281D
P 9250 7100
F 0 "#PWR058" H 9250 7000 50  0001 C CNN
F 1 "GND" H 9250 7000 50  0000 C CNN
F 2 "" H 9250 7100 50  0001 C CNN
F 3 "" H 9250 7100 50  0001 C CNN
	1    9250 7100
	1    0    0    -1  
$EndComp
Wire Wire Line
	9400 6200 9400 6550
$Comp
L active:D D8
U 1 1 5C462824
P 9250 6350
F 0 "D8" V 9300 6450 50  0000 L BNN
F 1 "ESH2PD-M3/84A" V 9150 6450 50  0000 L TNN
F 2 "discrete_smt:DO-220AA_SMP" H 9250 6350 50  0001 C CNN
F 3 "" H 9250 6350 50  0001 C CNN
	1    9250 6350
	0    -1   -1   0   
$EndComp
Wire Wire Line
	9250 6450 9250 6550
Wire Wire Line
	9250 6550 9250 6650
Wire Wire Line
	9250 6250 9250 6100
Connection ~ 9250 6100
Wire Wire Line
	9250 6550 9300 6550
Connection ~ 9250 6550
$Comp
L passive:R R83
U 1 1 5C462831
P 8950 7200
F 0 "R83" H 9060 7220 50  0000 L BNN
F 1 "100k" H 9060 7180 50  0000 L TNN
F 2 "discrete_smt:RESC1005X55_0402_IPC-B" H 8950 7200 50  0001 C CNN
F 3 "" H 8950 7200 50  0001 C CNN
	1    8950 7200
	0    -1   -1   0   
$EndComp
Wire Wire Line
	9100 6850 8950 6850
Wire Wire Line
	8950 6850 8950 7000
$Comp
L sch_power:GND #PWR055
U 1 1 5C46283A
P 8950 7450
F 0 "#PWR055" H 8950 7350 50  0001 C CNN
F 1 "GND" H 8950 7350 50  0000 C CNN
F 2 "" H 8950 7450 50  0001 C CNN
F 3 "" H 8950 7450 50  0001 C CNN
	1    8950 7450
	1    0    0    -1  
$EndComp
Wire Wire Line
	8950 7400 8950 7450
Wire Wire Line
	8950 6850 8400 6850
Connection ~ 8950 6850
$Comp
L passive:R R81
U 1 1 5C462843
P 8200 6850
F 0 "R81" H 8310 6870 50  0000 L BNN
F 1 "10R/0805" H 8310 6830 50  0000 L TNN
F 2 "discrete_smt:RESC2012X50N_0805" H 8200 6850 50  0001 C CNN
F 3 "" H 8200 6850 50  0001 C CNN
	1    8200 6850
	1    0    0    -1  
$EndComp
$Comp
L sch_power:V_MOT #PWR046
U 1 1 5C46284A
P 7200 6000
F 0 "#PWR046" H 7200 6000 50  0001 C CNN
F 1 "V_MOT" H 7200 6150 50  0000 C CNN
F 2 "" H 7200 6000 50  0001 C CNN
F 3 "" H 7200 6000 50  0001 C CNN
	1    7200 6000
	1    0    0    -1  
$EndComp
Wire Wire Line
	8050 6100 8400 6100
Text GLabel 7350 6850 0    50   Input ~ 0
PWM_FAN2
Text Label 8650 6850 0    50   ~ 0
FAN2_FET
Wire Notes Line
	6850 5750 10750 5750
Wire Notes Line
	10750 5750 10750 7650
Wire Notes Line
	6850 5750 6850 7650
Wire Notes Line
	6850 7650 10750 7650
$Comp
L connector:J_GEN_2PIN-1COLX2ROW J25
U 1 1 5C462858
P 10000 6100
F 0 "J25" H 10250 6250 50  0000 C CNN
F 1 "PINHEAD_X2" H 10150 5850 50  0000 L CNN
F 2 "connector_tht:PINHEADER_2.54MM_2x1" H 10000 6100 50  0001 C CNN
F 3 "" H 10000 6100 50  0001 C CNN
	1    10000 6100
	1    0    0    -1  
$EndComp
Wire Wire Line
	9250 6100 10000 6100
Wire Wire Line
	9400 6200 10000 6200
Wire Wire Line
	9250 6950 9250 7100
Wire Wire Line
	7350 6850 8000 6850
Text Label 7450 6850 0    50   ~ 0
PWM_FAN2
$Comp
L active:NFET_2D Q9
U 1 1 5C462865
P 9250 6800
F 0 "Q9" H 9350 6900 50  0000 L CNN
F 1 "FDT439N" H 9350 6800 50  0000 L CNN
F 2 "discrete_smt:SOT230P700X180-4MD-FAIRCHILD-FDT439N-PINSPEC" H 9250 6800 50  0001 C CNN
F 3 "" H 9350 6900 50  0000 L CNN
F 4 "40V/6.3A/60m" H 9350 6700 50  0000 L CNN "Params"
	1    9250 6800
	1    0    0    -1  
$EndComp
Wire Wire Line
	9300 6650 9300 6550
Connection ~ 9300 6550
Wire Wire Line
	9300 6550 9400 6550
$Comp
L sch_power:V_12V0 #PWR051
U 1 1 5C46286F
P 7550 6000
F 0 "#PWR051" H 7550 6000 50  0001 C CNN
F 1 "V_12V0" H 7550 6150 50  0000 C CNN
F 2 "" H 7550 6000 50  0001 C CNN
F 3 "" H 7550 6000 50  0001 C CNN
	1    7550 6000
	1    0    0    -1  
$EndComp
$Comp
L passive:R R79
U 1 1 5C462875
P 7850 6300
F 0 "R79" H 7960 6320 50  0000 L BNN
F 1 "0R/0805" H 7960 6280 50  0000 L TNN
F 2 "discrete_smt:RESC2012X50N_0805" H 7850 6300 50  0001 C CNN
F 3 "" H 7850 6300 50  0001 C CNN
	1    7850 6300
	1    0    0    -1  
$EndComp
$Comp
L passive:R R78
U 1 1 5C46287C
P 7850 6100
F 0 "R78" H 7960 6120 50  0000 L BNN
F 1 "0R/0805" H 7960 6080 50  0000 L TNN
F 2 "discrete_smt:RESC2012X50N_0805" H 7850 6100 50  0001 C CNN
F 3 "" H 7850 6100 50  0001 C CNN
	1    7850 6100
	1    0    0    -1  
$EndComp
Wire Wire Line
	7550 6000 7550 6100
Wire Wire Line
	7550 6100 7650 6100
Wire Wire Line
	7200 6000 7200 6300
Wire Wire Line
	7200 6300 7650 6300
Wire Wire Line
	8050 6300 8400 6300
Wire Wire Line
	8400 6300 8400 6100
Connection ~ 8400 6100
Wire Wire Line
	8400 6100 9250 6100
$Comp
L sch_power:V_12V0 #PWR056
U 1 1 5C4ABFB2
P 5150 7850
F 0 "#PWR056" H 5150 7850 50  0001 C CNN
F 1 "V_12V0" H 5150 8000 50  0000 C CNN
F 2 "" H 5150 7850 50  0001 C CNN
F 3 "" H 5150 7850 50  0001 C CNN
	1    5150 7850
	1    0    0    -1  
$EndComp
$Comp
L active:NFET_2D Q7
U 1 1 5C4BE248
P 3900 8700
F 0 "Q7" H 4000 8800 50  0000 L CNN
F 1 "FDT439N" H 4000 8700 50  0000 L CNN
F 2 "discrete_smt:SOT230P700X180-4MD-FAIRCHILD-FDT439N-PINSPEC" H 3900 8700 50  0001 C CNN
F 3 "" H 4000 8800 50  0000 L CNN
F 4 "40V/6.3A/60m" H 4000 8600 50  0000 L CNN "Params"
	1    3900 8700
	1    0    0    -1  
$EndComp
$Comp
L active:D D6
U 1 1 5C4BE3F5
P 3950 7900
F 0 "D6" H 3900 7950 50  0000 L BNN
F 1 "ESH2PD-M3/84A" H 3900 8100 50  0000 L TNN
F 2 "discrete_smt:DO-220AA_SMP" H 3950 7900 50  0001 C CNN
F 3 "" H 3950 7900 50  0001 C CNN
	1    3950 7900
	0    -1   -1   0   
$EndComp
Wire Wire Line
	3900 8550 3900 8500
Wire Wire Line
	3900 8500 3950 8500
Connection ~ 3950 8500
Wire Wire Line
	3950 8500 3950 8550
$Comp
L sch_power:GND #PWR052
U 1 1 5C4F103C
P 3900 8950
F 0 "#PWR052" H 3900 8850 50  0001 C CNN
F 1 "GND" H 3900 8850 50  0000 C CNN
F 2 "" H 3900 8950 50  0001 C CNN
F 3 "" H 3900 8950 50  0001 C CNN
	1    3900 8950
	1    0    0    -1  
$EndComp
Wire Wire Line
	3900 8850 3900 8950
Text GLabel 2100 8750 0    50   Input ~ 0
PWM_ATXFAN_HARD
Text Label 2200 8750 0    50   ~ 0
PWM_ATXFAN_HARD
Wire Wire Line
	2100 8750 3650 8750
Wire Wire Line
	2100 8350 3200 8350
Text GLabel 2100 8350 0    50   Input ~ 0
PWM_ATXFAN_SOFT
Wire Wire Line
	2100 8250 2450 8250
Text GLabel 2100 8250 0    50   Output ~ 0
TACH_ATXFAN
$Comp
L passive:R R70
U 1 1 5C5500DA
P 2750 8250
F 0 "R70" H 2860 8270 50  0000 L BNN
F 1 "10k/0402" H 2860 8230 50  0000 L TNN
F 2 "discrete_smt:RESC1005X55_0402_IPC-B" H 2750 8250 50  0001 C CNN
F 3 "" H 2750 8250 50  0001 C CNN
	1    2750 8250
	1    0    0    -1  
$EndComp
Wire Wire Line
	2950 8250 3350 8250
$Comp
L passive:R R72
U 1 1 5C5501A5
P 3350 7950
F 0 "R72" H 3460 7970 50  0000 L BNN
F 1 "10k/0402" H 3460 7930 50  0000 L TNN
F 2 "discrete_smt:RESC1005X55_0402_IPC-B" H 3350 7950 50  0001 C CNN
F 3 "" H 3350 7950 50  0001 C CNN
	1    3350 7950
	0    -1   -1   0   
$EndComp
$Comp
L sch_power:V_12V0 #PWR047
U 1 1 5C550875
P 3350 7450
F 0 "#PWR047" H 3350 7450 50  0001 C CNN
F 1 "V_12V0" H 3350 7600 50  0000 C CNN
F 2 "" H 3350 7450 50  0001 C CNN
F 3 "" H 3350 7450 50  0001 C CNN
	1    3350 7450
	1    0    0    -1  
$EndComp
Wire Wire Line
	3350 7450 3350 7750
Wire Wire Line
	3350 8150 3350 8250
Connection ~ 3350 8250
Wire Wire Line
	3350 8250 5300 8250
$Comp
L passive:R R71
U 1 1 5C55E85D
P 2750 8450
F 0 "R71" H 2860 8470 50  0000 L BNN
F 1 "6k8/0402" H 2860 8430 50  0000 L TNN
F 2 "discrete_smt:RESC1005X55_0402_IPC-B" H 2750 8450 50  0001 C CNN
F 3 "" H 2750 8450 50  0001 C CNN
	1    2750 8450
	1    0    0    -1  
$EndComp
Wire Wire Line
	2450 8250 2450 8450
Wire Wire Line
	2450 8450 2550 8450
Connection ~ 2450 8250
Wire Wire Line
	2450 8250 2550 8250
$Comp
L sch_power:GND #PWR048
U 1 1 5C565C6E
P 3350 8500
F 0 "#PWR048" H 3350 8400 50  0001 C CNN
F 1 "GND" H 3350 8400 50  0000 C CNN
F 2 "" H 3350 8500 50  0001 C CNN
F 3 "" H 3350 8500 50  0001 C CNN
	1    3350 8500
	1    0    0    -1  
$EndComp
Wire Wire Line
	2950 8450 3350 8450
Wire Wire Line
	3350 8450 3350 8500
Wire Wire Line
	3950 8000 3950 8050
Wire Wire Line
	5150 8150 5300 8150
Connection ~ 3950 8050
Wire Wire Line
	5300 8050 3950 8050
Wire Wire Line
	3950 8050 3950 8500
$Comp
L passive:R R73
U 1 1 5C5C75D4
P 3400 8350
F 0 "R73" H 3510 8370 50  0000 L BNN
F 1 "0R/0402" H 3510 8330 50  0000 L TNN
F 2 "discrete_smt:RESC1005X55_0402_IPC-B" H 3400 8350 50  0001 C CNN
F 3 "" H 3400 8350 50  0001 C CNN
	1    3400 8350
	1    0    0    -1  
$EndComp
Wire Wire Line
	3600 8350 5300 8350
Text Notes 900  7200 0    100  ~ 0
ATX FAN (Board cooling)
Wire Notes Line
	850  7200 6550 7200
Wire Notes Line
	850  7200 850  9150
Wire Notes Line
	6550 7200 6550 9150
Wire Notes Line
	850  9150 6550 9150
Text Label 8550 1700 0    50   ~ 0
V_FAN0
Text Label 8550 3900 0    50   ~ 0
V_FAN1
Text Label 8550 6100 0    50   ~ 0
V_FAN2
Text Label 9400 4000 0    50   ~ 0
FAN1_SWGND
Text Label 9400 6200 0    50   ~ 0
FAN2_SWGND
$Comp
L sch_power:V_12V0 #PWR053
U 1 1 5CE7CD7A
P 3950 7650
F 0 "#PWR053" H 3950 7650 50  0001 C CNN
F 1 "V_12V0" H 3950 7800 50  0000 C CNN
F 2 "" H 3950 7650 50  0001 C CNN
F 3 "" H 3950 7650 50  0001 C CNN
	1    3950 7650
	1    0    0    -1  
$EndComp
Wire Wire Line
	3950 7650 3950 7800
Wire Wire Line
	5150 7850 5150 8150
Text Label 4250 8050 0    50   ~ 0
ATXFAN_SWGND
Text Label 4250 8250 0    50   ~ 0
TACH_ATXFAN_CON
Text Label 4250 8350 0    50   ~ 0
PWM_ATXFAN_CON
$Comp
L active:D D3
U 1 1 5CA22B85
P 2800 1950
F 0 "D3" V 2850 1900 50  0000 R BNN
F 1 "ESH2PD-M3/84A" V 2700 1900 50  0000 R TNN
F 2 "discrete_smt:DO-220AA_SMP" H 2800 1950 50  0001 C CNN
F 3 "" H 2800 1950 50  0001 C CNN
	1    2800 1950
	0    -1   -1   0   
$EndComp
Text Notes 3800 2050 0    50   ~ 0
(Automotive fuse ATO format)
$Comp
L passive:R R88
U 1 1 5CAAA42D
P 3150 8850
F 0 "R88" H 3260 8870 50  0000 L BNN
F 1 "100k/0402" H 3260 8830 50  0000 L TNN
F 2 "discrete_smt:RESC1005X55_0402_IPC-B" H 3150 8850 50  0001 C CNN
F 3 "" H 3150 8850 50  0001 C CNN
	1    3150 8850
	1    0    0    -1  
$EndComp
$Comp
L sch_power:GND #PWR0194
U 1 1 5CAAA517
P 2900 8950
F 0 "#PWR0194" H 2900 8850 50  0001 C CNN
F 1 "GND" H 2900 8850 50  0000 C CNN
F 2 "" H 2900 8950 50  0001 C CNN
F 3 "" H 2900 8950 50  0001 C CNN
	1    2900 8950
	1    0    0    -1  
$EndComp
Wire Wire Line
	2900 8950 2900 8850
Wire Wire Line
	2900 8850 2950 8850
Wire Wire Line
	3350 8850 3650 8850
Wire Wire Line
	3650 8850 3650 8750
Connection ~ 3650 8750
Wire Wire Line
	3650 8750 3750 8750
$EndSCHEMATC
