EESchema Schematic File Version 4
LIBS:PrinterBoard-cache
EELAYER 26 0
EELAYER END
$Descr A3 16535 11693
encoding utf-8
Sheet 3 5
Title ""
Date ""
Rev ""
Comp ""
Comment1 ""
Comment2 ""
Comment3 ""
Comment4 ""
$EndDescr
$Comp
L module:POLOLU_DRIVERBOARD MOD1
U 1 1 5C48382F
P 4700 3150
F 0 "MOD1" H 5450 3300 50  0000 C CNN
F 1 "POLOLU_DRIVERBOARD" H 5000 1900 50  0000 L CNN
F 2 "misc:MODULE_POLOLU_DRIVER" H 4300 2800 50  0001 C CNN
F 3 "" H 4300 2800 50  0001 C CNN
	1    4700 3150
	1    0    0    -1  
$EndComp
$Comp
L connector:J_GEN_4PIN-1COLX4ROW J5
U 1 1 5C4838E3
P 6850 3350
F 0 "J5" H 7100 3500 50  0000 C CNN
F 1 "J_GEN_4PIN-1COLX4ROW" H 7000 2900 50  0000 L CNN
F 2 "connector_tht:PINHEADER_2.54MM_1x4" H 6850 3350 50  0001 C CNN
F 3 "" H 6850 3350 50  0001 C CNN
	1    6850 3350
	1    0    0    -1  
$EndComp
Wire Wire Line
	6200 3350 6850 3350
Wire Wire Line
	6200 3450 6850 3450
Wire Wire Line
	6200 3550 6850 3550
Wire Wire Line
	6200 3650 6850 3650
Text Label 6300 3350 0    50   ~ 0
MOT_A_1B
Text Label 6300 3450 0    50   ~ 0
MOT_A_1A
Text Label 6300 3550 0    50   ~ 0
MOT_A_2A
Text Label 6300 3650 0    50   ~ 0
MOT_A_2B
$Comp
L sch_power:GND #PWR0115
U 1 1 5C483A34
P 6300 4350
F 0 "#PWR0115" H 6300 4250 50  0001 C CNN
F 1 "GND" H 6300 4250 50  0000 C CNN
F 2 "" H 6300 4350 50  0001 C CNN
F 3 "" H 6300 4350 50  0001 C CNN
	1    6300 4350
	1    0    0    -1  
$EndComp
Wire Wire Line
	6200 4250 6300 4250
Wire Wire Line
	6300 4250 6300 4350
Wire Wire Line
	6200 4150 6300 4150
Wire Wire Line
	6300 4150 6300 4250
Connection ~ 6300 4250
$Comp
L sch_power:V_3V3 #PWR0116
U 1 1 5C483BB2
P 4450 2550
F 0 "#PWR0116" H 4450 2550 50  0001 C CNN
F 1 "V_3V3" H 4450 2700 50  0000 C CNN
F 2 "" H 4450 2550 50  0001 C CNN
F 3 "" H 4450 2550 50  0001 C CNN
	1    4450 2550
	1    0    0    -1  
$EndComp
Wire Wire Line
	4450 2550 4450 2650
Wire Wire Line
	4600 2650 4600 3150
Wire Wire Line
	4600 3150 4700 3150
$Comp
L passive:C_NP C11
U 1 1 5C483D48
P 4450 2950
F 0 "C11" H 4510 2970 50  0000 L BNN
F 1 "1uF" H 4510 2930 50  0000 L TNN
F 2 "discrete_smt:CAPC1005X55_0402_IPC-B" H 4450 2950 50  0001 C CNN
F 3 "" H 4450 2950 50  0001 C CNN
	1    4450 2950
	0    -1   -1   0   
$EndComp
$Comp
L sch_power:GND #PWR0117
U 1 1 5C483DDB
P 4450 3100
F 0 "#PWR0117" H 4450 3000 50  0001 C CNN
F 1 "GND" H 4450 3000 50  0000 C CNN
F 2 "" H 4450 3100 50  0001 C CNN
F 3 "" H 4450 3100 50  0001 C CNN
	1    4450 3100
	1    0    0    -1  
$EndComp
Wire Wire Line
	4450 3050 4450 3100
Wire Wire Line
	4450 2850 4450 2650
Connection ~ 4450 2650
Wire Wire Line
	4450 2650 4600 2650
$Comp
L sch_power:V_MOT #PWR0118
U 1 1 5C484919
P 6700 2550
F 0 "#PWR0118" H 6700 2550 50  0001 C CNN
F 1 "V_MOT" H 6700 2700 50  0000 C CNN
F 2 "" H 6700 2550 50  0001 C CNN
F 3 "" H 6700 2550 50  0001 C CNN
	1    6700 2550
	1    0    0    -1  
$EndComp
$Comp
L passive:C_NP C14
U 1 1 5C484990
P 6500 2950
F 0 "C14" H 6560 2970 50  0000 L BNN
F 1 "1uF" H 6560 2930 50  0000 L TNN
F 2 "discrete_smt:CAPC1005X55_0402_IPC-B" H 6500 2950 50  0001 C CNN
F 3 "" H 6500 2950 50  0001 C CNN
	1    6500 2950
	0    -1   -1   0   
$EndComp
$Comp
L sch_power:GND #PWR0119
U 1 1 5C484997
P 6500 3100
F 0 "#PWR0119" H 6500 3000 50  0001 C CNN
F 1 "GND" H 6500 3000 50  0000 C CNN
F 2 "" H 6500 3100 50  0001 C CNN
F 3 "" H 6500 3100 50  0001 C CNN
	1    6500 3100
	1    0    0    -1  
$EndComp
Wire Wire Line
	6500 3050 6500 3100
Wire Wire Line
	6500 2850 6500 2650
$Comp
L sch_power:GND #PWR0120
U 1 1 5C484AA8
P 6700 3100
F 0 "#PWR0120" H 6700 3000 50  0001 C CNN
F 1 "GND" H 6700 3000 50  0000 C CNN
F 2 "" H 6700 3100 50  0001 C CNN
F 3 "" H 6700 3100 50  0001 C CNN
	1    6700 3100
	1    0    0    -1  
$EndComp
Wire Wire Line
	6700 3050 6700 3100
Wire Wire Line
	6700 2850 6700 2650
Wire Wire Line
	6200 3150 6300 3150
Wire Wire Line
	6300 3150 6300 2650
Wire Wire Line
	6300 2650 6500 2650
Wire Wire Line
	6500 2650 6700 2650
Connection ~ 6500 2650
$Comp
L passive:C_POL C17
U 1 1 5C48554B
P 6700 2950
F 0 "C17" H 6770 2970 50  0000 L BNN
F 1 "100uF" H 6770 2930 50  0000 L TNN
F 2 "discrete_smt:CAPAE660X770_WE-865080545012" H 6700 2950 50  0001 C CNN
F 3 "" H 6700 2950 50  0001 C CNN
	1    6700 2950
	0    -1   -1   0   
$EndComp
Wire Wire Line
	6700 2650 6700 2550
Connection ~ 6700 2650
$Comp
L passive:R R19
U 1 1 5C485C61
P 3650 3850
F 0 "R19" H 3760 3870 50  0000 L BNN
F 1 "DNI" H 3760 3830 50  0000 L TNN
F 2 "discrete_smt:RESC1005X55_0402_IPC-B" H 3650 3850 50  0001 C CNN
F 3 "" H 3650 3850 50  0001 C CNN
	1    3650 3850
	1    0    0    -1  
$EndComp
$Comp
L sch_power:V_3V3 #PWR0121
U 1 1 5C486D5B
P 3600 2750
F 0 "#PWR0121" H 3600 2750 50  0001 C CNN
F 1 "V_3V3" H 3600 2900 50  0000 C CNN
F 2 "" H 3600 2750 50  0001 C CNN
F 3 "" H 3600 2750 50  0001 C CNN
	1    3600 2750
	1    0    0    -1  
$EndComp
Wire Wire Line
	3800 3350 3800 3450
Wire Wire Line
	3800 3450 4700 3450
Wire Wire Line
	3600 3350 3600 3550
Wire Wire Line
	3600 3550 4700 3550
Wire Wire Line
	3400 3650 3400 3350
Wire Wire Line
	3400 3650 4700 3650
Wire Wire Line
	3050 3550 3600 3550
Wire Wire Line
	3800 3450 3100 3450
Wire Wire Line
	3400 2950 3400 2850
Wire Wire Line
	3400 2850 3600 2850
Wire Wire Line
	3600 2850 3600 2750
Wire Wire Line
	3600 2850 3600 2950
Connection ~ 3600 2850
Wire Wire Line
	3600 2850 3800 2850
Wire Wire Line
	3800 2850 3800 2950
Wire Wire Line
	3050 3750 3400 3750
Wire Wire Line
	3400 3750 3400 3850
Wire Wire Line
	3400 3750 4700 3750
Wire Wire Line
	3850 3850 4700 3850
Text Label 4000 3450 0    50   ~ 0
DRV_A_MOSI_MS1
Text Label 4000 3550 0    50   ~ 0
DRV_A_CLK_MS2
Text Label 4000 3650 0    50   ~ 0
DRV_A_CS#_MS3
Text Label 4000 3750 0    50   ~ 0
DRV_A_MISO_RST#
Text Label 4000 3850 0    50   ~ 0
DRV_A_SLP#
Wire Wire Line
	2950 3250 3100 3250
Wire Wire Line
	3100 3250 3100 3450
Wire Wire Line
	2950 3850 3050 3850
Wire Wire Line
	3050 3850 3050 3750
Wire Wire Line
	2950 3450 3050 3450
Wire Wire Line
	3050 3450 3050 3550
$Comp
L passive:R R2
U 1 1 5C4C0CFB
P 2750 3250
F 0 "R2" H 2860 3270 50  0000 L BNN
F 1 "0R" H 2860 3230 50  0000 L TNN
F 2 "discrete_smt:RESC1005X55_0402_IPC-B" H 2750 3250 50  0001 C CNN
F 3 "" H 2750 3250 50  0001 C CNN
	1    2750 3250
	1    0    0    -1  
$EndComp
$Comp
L passive:R R3
U 1 1 5C4C0D38
P 2750 3450
F 0 "R3" H 2860 3470 50  0000 L BNN
F 1 "0R" H 2860 3430 50  0000 L TNN
F 2 "discrete_smt:RESC1005X55_0402_IPC-B" H 2750 3450 50  0001 C CNN
F 3 "" H 2750 3450 50  0001 C CNN
	1    2750 3450
	1    0    0    -1  
$EndComp
$Comp
L passive:R R4
U 1 1 5C4C0D62
P 2750 3650
F 0 "R4" H 2860 3670 50  0000 L BNN
F 1 "0R" H 2860 3630 50  0000 L TNN
F 2 "discrete_smt:RESC1005X55_0402_IPC-B" H 2750 3650 50  0001 C CNN
F 3 "" H 2750 3650 50  0001 C CNN
	1    2750 3650
	1    0    0    -1  
$EndComp
$Comp
L passive:R R5
U 1 1 5C4C0D92
P 2750 3850
F 0 "R5" H 2860 3870 50  0000 L BNN
F 1 "0R" H 2860 3830 50  0000 L TNN
F 2 "discrete_smt:RESC1005X55_0402_IPC-B" H 2750 3850 50  0001 C CNN
F 3 "" H 2750 3850 50  0001 C CNN
	1    2750 3850
	1    0    0    -1  
$EndComp
Wire Wire Line
	2950 3650 3400 3650
$Comp
L passive:R R14
U 1 1 5C4C7142
P 3400 3150
F 0 "R14" H 3510 3170 50  0000 L BNN
F 1 "DNI" H 3510 3130 50  0000 L TNN
F 2 "discrete_smt:RESC1005X55_0402_IPC-B" H 3400 3150 50  0001 C CNN
F 3 "" H 3400 3150 50  0001 C CNN
	1    3400 3150
	0    -1   -1   0   
$EndComp
$Comp
L passive:R R17
U 1 1 5C4C71B9
P 3600 3150
F 0 "R17" H 3710 3170 50  0000 L BNN
F 1 "DNI" H 3710 3130 50  0000 L TNN
F 2 "discrete_smt:RESC1005X55_0402_IPC-B" H 3600 3150 50  0001 C CNN
F 3 "" H 3600 3150 50  0001 C CNN
	1    3600 3150
	0    -1   -1   0   
$EndComp
$Comp
L passive:R R23
U 1 1 5C4C71E5
P 3800 3150
F 0 "R23" H 3910 3170 50  0000 L BNN
F 1 "DNI" H 3910 3130 50  0000 L TNN
F 2 "discrete_smt:RESC1005X55_0402_IPC-B" H 3800 3150 50  0001 C CNN
F 3 "" H 3800 3150 50  0001 C CNN
	1    3800 3150
	0    -1   -1   0   
$EndComp
Wire Notes Line
	3250 2500 3250 3950
Wire Notes Line
	3250 3950 3950 3950
Wire Notes Line
	3950 3950 3950 2500
Wire Notes Line
	3950 2500 3250 2500
Connection ~ 3400 3750
Connection ~ 3400 3650
Connection ~ 3600 3550
Connection ~ 3800 3450
Wire Wire Line
	3400 3850 3450 3850
Text Notes 3250 2500 0    50   ~ 0
A4988/DRV8825/TMC2208
Wire Wire Line
	2550 3250 1800 3250
Text Label 1900 3250 0    50   ~ 0
SPI_DRV_MOSI
Text Label 1900 3450 0    50   ~ 0
SPI_DRV_CLK
Wire Wire Line
	2550 3650 1800 3650
Text Label 1900 3650 0    50   ~ 0
SPI_DRV_CS#_A
Wire Wire Line
	2550 3850 1800 3850
Text Label 1900 3850 0    50   ~ 0
SPI_DRV_MISO
Wire Wire Line
	2550 3450 1800 3450
Wire Notes Line
	3150 3150 3150 3950
Wire Notes Line
	3150 3950 2500 3950
Wire Notes Line
	2500 3950 2500 3150
Wire Notes Line
	2500 3150 3150 3150
Text Notes 2500 3150 0    50   ~ 0
TMC2130
Text GLabel 1800 3250 0    50   Input ~ 0
SPI_DRV_MOSI
Text GLabel 1800 3450 0    50   Input ~ 0
SPI_DRV_CLK
Text GLabel 1800 3650 0    50   Input ~ 0
SPI_DRV_CS#_A
Text GLabel 1800 3850 0    50   Input ~ 0
SPI_DRV_MISO
Text GLabel 3900 4050 0    50   Input ~ 0
DRV_A_EN#
Text GLabel 3900 4150 0    50   Input ~ 0
DRV_A_DIR
Text GLabel 3900 4250 0    50   Input ~ 0
DRV_A_STEP
Wire Wire Line
	3900 4150 4700 4150
Wire Wire Line
	3900 4250 4700 4250
Text Label 4000 4050 0    50   ~ 0
DRV_A_EN#
Text Label 4000 4150 0    50   ~ 0
DRV_A_DIR
Text Label 4000 4250 0    50   ~ 0
DRV_A_STEP
Wire Wire Line
	4700 4050 3900 4050
$Comp
L module:POLOLU_DRIVERBOARD MOD2
U 1 1 5C5067C0
P 4700 5500
F 0 "MOD2" H 5450 5650 50  0000 C CNN
F 1 "POLOLU_DRIVERBOARD" H 5000 4250 50  0000 L CNN
F 2 "misc:MODULE_POLOLU_DRIVER" H 4300 5150 50  0001 C CNN
F 3 "" H 4300 5150 50  0001 C CNN
	1    4700 5500
	1    0    0    -1  
$EndComp
$Comp
L connector:J_GEN_4PIN-1COLX4ROW J6
U 1 1 5C5067C7
P 6850 5700
F 0 "J6" H 7100 5850 50  0000 C CNN
F 1 "J_GEN_4PIN-1COLX4ROW" H 7000 5250 50  0000 L CNN
F 2 "connector_tht:PINHEADER_2.54MM_1x4" H 6850 5700 50  0001 C CNN
F 3 "" H 6850 5700 50  0001 C CNN
	1    6850 5700
	1    0    0    -1  
$EndComp
Wire Wire Line
	6200 5700 6850 5700
Wire Wire Line
	6200 5800 6850 5800
Wire Wire Line
	6200 5900 6850 5900
Wire Wire Line
	6200 6000 6850 6000
Text Label 6300 5700 0    50   ~ 0
MOT_B_1B
Text Label 6300 5800 0    50   ~ 0
MOT_B_1A
Text Label 6300 5900 0    50   ~ 0
MOT_B_2A
Text Label 6300 6000 0    50   ~ 0
MOT_B_2B
$Comp
L sch_power:GND #PWR0122
U 1 1 5C5067D6
P 6300 6700
F 0 "#PWR0122" H 6300 6600 50  0001 C CNN
F 1 "GND" H 6300 6600 50  0000 C CNN
F 2 "" H 6300 6700 50  0001 C CNN
F 3 "" H 6300 6700 50  0001 C CNN
	1    6300 6700
	1    0    0    -1  
$EndComp
Wire Wire Line
	6200 6600 6300 6600
Wire Wire Line
	6300 6600 6300 6700
Wire Wire Line
	6200 6500 6300 6500
Wire Wire Line
	6300 6500 6300 6600
Connection ~ 6300 6600
$Comp
L sch_power:V_3V3 #PWR0123
U 1 1 5C5067E1
P 4450 4900
F 0 "#PWR0123" H 4450 4900 50  0001 C CNN
F 1 "V_3V3" H 4450 5050 50  0000 C CNN
F 2 "" H 4450 4900 50  0001 C CNN
F 3 "" H 4450 4900 50  0001 C CNN
	1    4450 4900
	1    0    0    -1  
$EndComp
Wire Wire Line
	4450 4900 4450 5000
Wire Wire Line
	4600 5000 4600 5500
Wire Wire Line
	4600 5500 4700 5500
$Comp
L passive:C_NP C12
U 1 1 5C5067EA
P 4450 5300
F 0 "C12" H 4510 5320 50  0000 L BNN
F 1 "1uF" H 4510 5280 50  0000 L TNN
F 2 "discrete_smt:CAPC1005X55_0402_IPC-B" H 4450 5300 50  0001 C CNN
F 3 "" H 4450 5300 50  0001 C CNN
	1    4450 5300
	0    -1   -1   0   
$EndComp
$Comp
L sch_power:GND #PWR0124
U 1 1 5C5067F1
P 4450 5450
F 0 "#PWR0124" H 4450 5350 50  0001 C CNN
F 1 "GND" H 4450 5350 50  0000 C CNN
F 2 "" H 4450 5450 50  0001 C CNN
F 3 "" H 4450 5450 50  0001 C CNN
	1    4450 5450
	1    0    0    -1  
$EndComp
Wire Wire Line
	4450 5400 4450 5450
Wire Wire Line
	4450 5200 4450 5000
Connection ~ 4450 5000
Wire Wire Line
	4450 5000 4600 5000
$Comp
L sch_power:V_MOT #PWR0125
U 1 1 5C5067FB
P 6700 4900
F 0 "#PWR0125" H 6700 4900 50  0001 C CNN
F 1 "V_MOT" H 6700 5050 50  0000 C CNN
F 2 "" H 6700 4900 50  0001 C CNN
F 3 "" H 6700 4900 50  0001 C CNN
	1    6700 4900
	1    0    0    -1  
$EndComp
$Comp
L passive:C_NP C15
U 1 1 5C506801
P 6500 5300
F 0 "C15" H 6560 5320 50  0000 L BNN
F 1 "1uF" H 6560 5280 50  0000 L TNN
F 2 "discrete_smt:CAPC1005X55_0402_IPC-B" H 6500 5300 50  0001 C CNN
F 3 "" H 6500 5300 50  0001 C CNN
	1    6500 5300
	0    -1   -1   0   
$EndComp
$Comp
L sch_power:GND #PWR0126
U 1 1 5C506808
P 6500 5450
F 0 "#PWR0126" H 6500 5350 50  0001 C CNN
F 1 "GND" H 6500 5350 50  0000 C CNN
F 2 "" H 6500 5450 50  0001 C CNN
F 3 "" H 6500 5450 50  0001 C CNN
	1    6500 5450
	1    0    0    -1  
$EndComp
Wire Wire Line
	6500 5400 6500 5450
Wire Wire Line
	6500 5200 6500 5000
$Comp
L sch_power:GND #PWR0127
U 1 1 5C506810
P 6700 5450
F 0 "#PWR0127" H 6700 5350 50  0001 C CNN
F 1 "GND" H 6700 5350 50  0000 C CNN
F 2 "" H 6700 5450 50  0001 C CNN
F 3 "" H 6700 5450 50  0001 C CNN
	1    6700 5450
	1    0    0    -1  
$EndComp
Wire Wire Line
	6700 5400 6700 5450
Wire Wire Line
	6700 5200 6700 5000
Wire Wire Line
	6200 5500 6300 5500
Wire Wire Line
	6300 5500 6300 5000
Wire Wire Line
	6300 5000 6500 5000
Wire Wire Line
	6500 5000 6700 5000
Connection ~ 6500 5000
$Comp
L passive:C_POL C18
U 1 1 5C50681D
P 6700 5300
F 0 "C18" H 6770 5320 50  0000 L BNN
F 1 "100uF" H 6770 5280 50  0000 L TNN
F 2 "discrete_smt:CAPAE660X770_WE-865080545012" H 6700 5300 50  0001 C CNN
F 3 "" H 6700 5300 50  0001 C CNN
	1    6700 5300
	0    -1   -1   0   
$EndComp
Wire Wire Line
	6700 5000 6700 4900
Connection ~ 6700 5000
$Comp
L passive:R R20
U 1 1 5C506826
P 3650 6200
F 0 "R20" H 3760 6220 50  0000 L BNN
F 1 "DNI" H 3760 6180 50  0000 L TNN
F 2 "discrete_smt:RESC1005X55_0402_IPC-B" H 3650 6200 50  0001 C CNN
F 3 "" H 3650 6200 50  0001 C CNN
	1    3650 6200
	1    0    0    -1  
$EndComp
$Comp
L sch_power:V_3V3 #PWR0128
U 1 1 5C50682D
P 3600 5100
F 0 "#PWR0128" H 3600 5100 50  0001 C CNN
F 1 "V_3V3" H 3600 5250 50  0000 C CNN
F 2 "" H 3600 5100 50  0001 C CNN
F 3 "" H 3600 5100 50  0001 C CNN
	1    3600 5100
	1    0    0    -1  
$EndComp
Wire Wire Line
	3800 5700 3800 5800
Wire Wire Line
	3800 5800 4700 5800
Wire Wire Line
	3600 5700 3600 5900
Wire Wire Line
	3600 5900 4700 5900
Wire Wire Line
	3400 6000 3400 5700
Wire Wire Line
	3400 6000 4700 6000
Wire Wire Line
	3050 5900 3600 5900
Wire Wire Line
	3800 5800 3100 5800
Wire Wire Line
	3400 5300 3400 5200
Wire Wire Line
	3400 5200 3600 5200
Wire Wire Line
	3600 5200 3600 5100
Wire Wire Line
	3600 5200 3600 5300
Connection ~ 3600 5200
Wire Wire Line
	3600 5200 3800 5200
Wire Wire Line
	3800 5200 3800 5300
Wire Wire Line
	3050 6100 3400 6100
Wire Wire Line
	3400 6100 3400 6200
Wire Wire Line
	3400 6100 4700 6100
Wire Wire Line
	3850 6200 4700 6200
Text Label 4000 5800 0    50   ~ 0
DRV_B_MOSI_MS1
Text Label 4000 5900 0    50   ~ 0
DRV_B_CLK_MS2
Text Label 4000 6000 0    50   ~ 0
DRV_B_CS#_MS3
Text Label 4000 6100 0    50   ~ 0
DRV_B_MISO_RST#
Text Label 4000 6200 0    50   ~ 0
DRV_B_SLP#
Wire Wire Line
	2950 5600 3100 5600
Wire Wire Line
	3100 5600 3100 5800
Wire Wire Line
	2950 6200 3050 6200
Wire Wire Line
	3050 6200 3050 6100
Wire Wire Line
	2950 5800 3050 5800
Wire Wire Line
	3050 5800 3050 5900
$Comp
L passive:R R6
U 1 1 5C506851
P 2750 5600
F 0 "R6" H 2860 5620 50  0000 L BNN
F 1 "0R" H 2860 5580 50  0000 L TNN
F 2 "discrete_smt:RESC1005X55_0402_IPC-B" H 2750 5600 50  0001 C CNN
F 3 "" H 2750 5600 50  0001 C CNN
	1    2750 5600
	1    0    0    -1  
$EndComp
$Comp
L passive:R R7
U 1 1 5C506858
P 2750 5800
F 0 "R7" H 2860 5820 50  0000 L BNN
F 1 "0R" H 2860 5780 50  0000 L TNN
F 2 "discrete_smt:RESC1005X55_0402_IPC-B" H 2750 5800 50  0001 C CNN
F 3 "" H 2750 5800 50  0001 C CNN
	1    2750 5800
	1    0    0    -1  
$EndComp
$Comp
L passive:R R8
U 1 1 5C50685F
P 2750 6000
F 0 "R8" H 2860 6020 50  0000 L BNN
F 1 "0R" H 2860 5980 50  0000 L TNN
F 2 "discrete_smt:RESC1005X55_0402_IPC-B" H 2750 6000 50  0001 C CNN
F 3 "" H 2750 6000 50  0001 C CNN
	1    2750 6000
	1    0    0    -1  
$EndComp
$Comp
L passive:R R9
U 1 1 5C506866
P 2750 6200
F 0 "R9" H 2860 6220 50  0000 L BNN
F 1 "0R" H 2860 6180 50  0000 L TNN
F 2 "discrete_smt:RESC1005X55_0402_IPC-B" H 2750 6200 50  0001 C CNN
F 3 "" H 2750 6200 50  0001 C CNN
	1    2750 6200
	1    0    0    -1  
$EndComp
Wire Wire Line
	2950 6000 3400 6000
$Comp
L passive:R R15
U 1 1 5C50686E
P 3400 5500
F 0 "R15" H 3510 5520 50  0000 L BNN
F 1 "DNI" H 3510 5480 50  0000 L TNN
F 2 "discrete_smt:RESC1005X55_0402_IPC-B" H 3400 5500 50  0001 C CNN
F 3 "" H 3400 5500 50  0001 C CNN
	1    3400 5500
	0    -1   -1   0   
$EndComp
$Comp
L passive:R R18
U 1 1 5C506875
P 3600 5500
F 0 "R18" H 3710 5520 50  0000 L BNN
F 1 "DNI" H 3710 5480 50  0000 L TNN
F 2 "discrete_smt:RESC1005X55_0402_IPC-B" H 3600 5500 50  0001 C CNN
F 3 "" H 3600 5500 50  0001 C CNN
	1    3600 5500
	0    -1   -1   0   
$EndComp
$Comp
L passive:R R24
U 1 1 5C50687C
P 3800 5500
F 0 "R24" H 3910 5520 50  0000 L BNN
F 1 "DNI" H 3910 5480 50  0000 L TNN
F 2 "discrete_smt:RESC1005X55_0402_IPC-B" H 3800 5500 50  0001 C CNN
F 3 "" H 3800 5500 50  0001 C CNN
	1    3800 5500
	0    -1   -1   0   
$EndComp
Wire Notes Line
	3250 4850 3250 6300
Wire Notes Line
	3250 6300 3950 6300
Wire Notes Line
	3950 6300 3950 4850
Wire Notes Line
	3950 4850 3250 4850
Connection ~ 3400 6100
Connection ~ 3400 6000
Connection ~ 3600 5900
Connection ~ 3800 5800
Wire Wire Line
	3400 6200 3450 6200
Text Notes 3250 4850 0    50   ~ 0
A4988/DRV8825/TMC2208
Wire Wire Line
	2550 5600 1800 5600
Text Label 1900 5600 0    50   ~ 0
SPI_DRV_MOSI
Text Label 1900 5800 0    50   ~ 0
SPI_DRV_CLK
Wire Wire Line
	2550 6000 1800 6000
Text Label 1900 6000 0    50   ~ 0
SPI_DRV_CS#_B
Wire Wire Line
	2550 6200 1800 6200
Text Label 1900 6200 0    50   ~ 0
SPI_DRV_MISO
Wire Wire Line
	2550 5800 1800 5800
Wire Notes Line
	3150 5500 3150 6300
Wire Notes Line
	3150 6300 2500 6300
Wire Notes Line
	2500 6300 2500 5500
Wire Notes Line
	2500 5500 3150 5500
Text Notes 2500 5500 0    50   ~ 0
TMC2130
Text GLabel 1800 5600 0    50   Input ~ 0
SPI_DRV_MOSI
Text GLabel 1800 5800 0    50   Input ~ 0
SPI_DRV_CLK
Text GLabel 1800 6000 0    50   Input ~ 0
SPI_DRV_CS#_B
Text GLabel 1800 6200 0    50   Input ~ 0
SPI_DRV_MISO
Text GLabel 3900 6400 0    50   Input ~ 0
DRV_B_EN#
Text GLabel 3900 6500 0    50   Input ~ 0
DRV_B_DIR
Text GLabel 3900 6600 0    50   Input ~ 0
DRV_B_STEP
Wire Wire Line
	3900 6500 4700 6500
Wire Wire Line
	3900 6600 4700 6600
Text Label 4000 6500 0    50   ~ 0
DRV_B_DIR
Text Label 4000 6600 0    50   ~ 0
DRV_B_STEP
$Comp
L module:POLOLU_DRIVERBOARD MOD3
U 1 1 5C50EE4B
P 4750 7800
F 0 "MOD3" H 5500 7950 50  0000 C CNN
F 1 "POLOLU_DRIVERBOARD" H 5050 6550 50  0000 L CNN
F 2 "misc:MODULE_POLOLU_DRIVER" H 4350 7450 50  0001 C CNN
F 3 "" H 4350 7450 50  0001 C CNN
	1    4750 7800
	1    0    0    -1  
$EndComp
$Comp
L connector:J_GEN_4PIN-1COLX4ROW J7
U 1 1 5C50EE52
P 6900 8000
F 0 "J7" H 7150 8150 50  0000 C CNN
F 1 "J_GEN_4PIN-1COLX4ROW" H 7050 7550 50  0000 L CNN
F 2 "connector_tht:PINHEADER_2.54MM_1x4" H 6900 8000 50  0001 C CNN
F 3 "" H 6900 8000 50  0001 C CNN
	1    6900 8000
	1    0    0    -1  
$EndComp
Wire Wire Line
	6250 8000 6900 8000
Wire Wire Line
	6250 8100 6900 8100
Wire Wire Line
	6250 8200 6900 8200
Wire Wire Line
	6250 8300 6900 8300
Text Label 6350 8000 0    50   ~ 0
MOT_C_1B
Text Label 6350 8100 0    50   ~ 0
MOT_C_1A
Text Label 6350 8200 0    50   ~ 0
MOT_C_2A
Text Label 6350 8300 0    50   ~ 0
MOT_C_2B
$Comp
L sch_power:GND #PWR0129
U 1 1 5C50EE61
P 6350 9000
F 0 "#PWR0129" H 6350 8900 50  0001 C CNN
F 1 "GND" H 6350 8900 50  0000 C CNN
F 2 "" H 6350 9000 50  0001 C CNN
F 3 "" H 6350 9000 50  0001 C CNN
	1    6350 9000
	1    0    0    -1  
$EndComp
Wire Wire Line
	6250 8900 6350 8900
Wire Wire Line
	6350 8900 6350 9000
Wire Wire Line
	6250 8800 6350 8800
Wire Wire Line
	6350 8800 6350 8900
Connection ~ 6350 8900
$Comp
L sch_power:V_3V3 #PWR0130
U 1 1 5C50EE6C
P 4500 7200
F 0 "#PWR0130" H 4500 7200 50  0001 C CNN
F 1 "V_3V3" H 4500 7350 50  0000 C CNN
F 2 "" H 4500 7200 50  0001 C CNN
F 3 "" H 4500 7200 50  0001 C CNN
	1    4500 7200
	1    0    0    -1  
$EndComp
Wire Wire Line
	4500 7200 4500 7300
Wire Wire Line
	4650 7300 4650 7800
Wire Wire Line
	4650 7800 4750 7800
$Comp
L passive:C_NP C13
U 1 1 5C50EE75
P 4500 7600
F 0 "C13" H 4560 7620 50  0000 L BNN
F 1 "1uF" H 4560 7580 50  0000 L TNN
F 2 "discrete_smt:CAPC1005X55_0402_IPC-B" H 4500 7600 50  0001 C CNN
F 3 "" H 4500 7600 50  0001 C CNN
	1    4500 7600
	0    -1   -1   0   
$EndComp
$Comp
L sch_power:GND #PWR0131
U 1 1 5C50EE7C
P 4500 7750
F 0 "#PWR0131" H 4500 7650 50  0001 C CNN
F 1 "GND" H 4500 7650 50  0000 C CNN
F 2 "" H 4500 7750 50  0001 C CNN
F 3 "" H 4500 7750 50  0001 C CNN
	1    4500 7750
	1    0    0    -1  
$EndComp
Wire Wire Line
	4500 7700 4500 7750
Wire Wire Line
	4500 7500 4500 7300
Connection ~ 4500 7300
Wire Wire Line
	4500 7300 4650 7300
$Comp
L sch_power:V_MOT #PWR0132
U 1 1 5C50EE86
P 6750 7200
F 0 "#PWR0132" H 6750 7200 50  0001 C CNN
F 1 "V_MOT" H 6750 7350 50  0000 C CNN
F 2 "" H 6750 7200 50  0001 C CNN
F 3 "" H 6750 7200 50  0001 C CNN
	1    6750 7200
	1    0    0    -1  
$EndComp
$Comp
L passive:C_NP C16
U 1 1 5C50EE8C
P 6550 7600
F 0 "C16" H 6610 7620 50  0000 L BNN
F 1 "1uF" H 6610 7580 50  0000 L TNN
F 2 "discrete_smt:CAPC1005X55_0402_IPC-B" H 6550 7600 50  0001 C CNN
F 3 "" H 6550 7600 50  0001 C CNN
	1    6550 7600
	0    -1   -1   0   
$EndComp
$Comp
L sch_power:GND #PWR0133
U 1 1 5C50EE93
P 6550 7750
F 0 "#PWR0133" H 6550 7650 50  0001 C CNN
F 1 "GND" H 6550 7650 50  0000 C CNN
F 2 "" H 6550 7750 50  0001 C CNN
F 3 "" H 6550 7750 50  0001 C CNN
	1    6550 7750
	1    0    0    -1  
$EndComp
Wire Wire Line
	6550 7700 6550 7750
Wire Wire Line
	6550 7500 6550 7300
$Comp
L sch_power:GND #PWR0134
U 1 1 5C50EE9B
P 6750 7750
F 0 "#PWR0134" H 6750 7650 50  0001 C CNN
F 1 "GND" H 6750 7650 50  0000 C CNN
F 2 "" H 6750 7750 50  0001 C CNN
F 3 "" H 6750 7750 50  0001 C CNN
	1    6750 7750
	1    0    0    -1  
$EndComp
Wire Wire Line
	6750 7700 6750 7750
Wire Wire Line
	6750 7500 6750 7300
Wire Wire Line
	6250 7800 6350 7800
Wire Wire Line
	6350 7800 6350 7300
Wire Wire Line
	6350 7300 6550 7300
Wire Wire Line
	6550 7300 6750 7300
Connection ~ 6550 7300
$Comp
L passive:C_POL C19
U 1 1 5C50EEA8
P 6750 7600
F 0 "C19" H 6820 7620 50  0000 L BNN
F 1 "100uF" H 6820 7580 50  0000 L TNN
F 2 "discrete_smt:CAPAE660X770_WE-865080545012" H 6750 7600 50  0001 C CNN
F 3 "" H 6750 7600 50  0001 C CNN
	1    6750 7600
	0    -1   -1   0   
$EndComp
Wire Wire Line
	6750 7300 6750 7200
Connection ~ 6750 7300
$Comp
L passive:R R22
U 1 1 5C50EEB1
P 3700 8500
F 0 "R22" H 3810 8520 50  0000 L BNN
F 1 "DNI" H 3810 8480 50  0000 L TNN
F 2 "discrete_smt:RESC1005X55_0402_IPC-B" H 3700 8500 50  0001 C CNN
F 3 "" H 3700 8500 50  0001 C CNN
	1    3700 8500
	1    0    0    -1  
$EndComp
$Comp
L sch_power:V_3V3 #PWR0135
U 1 1 5C50EEB8
P 3650 7400
F 0 "#PWR0135" H 3650 7400 50  0001 C CNN
F 1 "V_3V3" H 3650 7550 50  0000 C CNN
F 2 "" H 3650 7400 50  0001 C CNN
F 3 "" H 3650 7400 50  0001 C CNN
	1    3650 7400
	1    0    0    -1  
$EndComp
Wire Wire Line
	3850 8000 3850 8100
Wire Wire Line
	3850 8100 4750 8100
Wire Wire Line
	3650 8000 3650 8200
Wire Wire Line
	3650 8200 4750 8200
Wire Wire Line
	3450 8300 3450 8000
Wire Wire Line
	3450 8300 4750 8300
Wire Wire Line
	3100 8200 3650 8200
Wire Wire Line
	3850 8100 3150 8100
Wire Wire Line
	3450 7600 3450 7500
Wire Wire Line
	3450 7500 3650 7500
Wire Wire Line
	3650 7500 3650 7400
Wire Wire Line
	3650 7500 3650 7600
Connection ~ 3650 7500
Wire Wire Line
	3650 7500 3850 7500
Wire Wire Line
	3850 7500 3850 7600
Wire Wire Line
	3100 8400 3450 8400
Wire Wire Line
	3450 8400 3450 8500
Wire Wire Line
	3450 8400 4750 8400
Wire Wire Line
	3900 8500 4750 8500
Text Label 4050 8100 0    50   ~ 0
DRV_C_MOSI_MS1
Text Label 4050 8200 0    50   ~ 0
DRV_C_CLK_MS2
Text Label 4050 8300 0    50   ~ 0
DRV_C_CS#_MS3
Text Label 4050 8400 0    50   ~ 0
DRV_C_MISO_RST#
Text Label 4050 8500 0    50   ~ 0
DRV_C_SLP#
Wire Wire Line
	3000 7900 3150 7900
Wire Wire Line
	3150 7900 3150 8100
Wire Wire Line
	3000 8500 3100 8500
Wire Wire Line
	3100 8500 3100 8400
Wire Wire Line
	3000 8100 3100 8100
Wire Wire Line
	3100 8100 3100 8200
$Comp
L passive:R R10
U 1 1 5C50EEDC
P 2800 7900
F 0 "R10" H 2910 7920 50  0000 L BNN
F 1 "0R" H 2910 7880 50  0000 L TNN
F 2 "discrete_smt:RESC1005X55_0402_IPC-B" H 2800 7900 50  0001 C CNN
F 3 "" H 2800 7900 50  0001 C CNN
	1    2800 7900
	1    0    0    -1  
$EndComp
$Comp
L passive:R R11
U 1 1 5C50EEE3
P 2800 8100
F 0 "R11" H 2910 8120 50  0000 L BNN
F 1 "0R" H 2910 8080 50  0000 L TNN
F 2 "discrete_smt:RESC1005X55_0402_IPC-B" H 2800 8100 50  0001 C CNN
F 3 "" H 2800 8100 50  0001 C CNN
	1    2800 8100
	1    0    0    -1  
$EndComp
$Comp
L passive:R R12
U 1 1 5C50EEEA
P 2800 8300
F 0 "R12" H 2910 8320 50  0000 L BNN
F 1 "0R" H 2910 8280 50  0000 L TNN
F 2 "discrete_smt:RESC1005X55_0402_IPC-B" H 2800 8300 50  0001 C CNN
F 3 "" H 2800 8300 50  0001 C CNN
	1    2800 8300
	1    0    0    -1  
$EndComp
$Comp
L passive:R R13
U 1 1 5C50EEF1
P 2800 8500
F 0 "R13" H 2910 8520 50  0000 L BNN
F 1 "0R" H 2910 8480 50  0000 L TNN
F 2 "discrete_smt:RESC1005X55_0402_IPC-B" H 2800 8500 50  0001 C CNN
F 3 "" H 2800 8500 50  0001 C CNN
	1    2800 8500
	1    0    0    -1  
$EndComp
Wire Wire Line
	3000 8300 3450 8300
$Comp
L passive:R R16
U 1 1 5C50EEF9
P 3450 7800
F 0 "R16" H 3560 7820 50  0000 L BNN
F 1 "DNI" H 3560 7780 50  0000 L TNN
F 2 "discrete_smt:RESC1005X55_0402_IPC-B" H 3450 7800 50  0001 C CNN
F 3 "" H 3450 7800 50  0001 C CNN
	1    3450 7800
	0    -1   -1   0   
$EndComp
$Comp
L passive:R R21
U 1 1 5C50EF00
P 3650 7800
F 0 "R21" H 3760 7820 50  0000 L BNN
F 1 "DNI" H 3760 7780 50  0000 L TNN
F 2 "discrete_smt:RESC1005X55_0402_IPC-B" H 3650 7800 50  0001 C CNN
F 3 "" H 3650 7800 50  0001 C CNN
	1    3650 7800
	0    -1   -1   0   
$EndComp
$Comp
L passive:R R25
U 1 1 5C50EF07
P 3850 7800
F 0 "R25" H 3960 7820 50  0000 L BNN
F 1 "DNI" H 3960 7780 50  0000 L TNN
F 2 "discrete_smt:RESC1005X55_0402_IPC-B" H 3850 7800 50  0001 C CNN
F 3 "" H 3850 7800 50  0001 C CNN
	1    3850 7800
	0    -1   -1   0   
$EndComp
Wire Notes Line
	3300 7150 3300 8600
Wire Notes Line
	3300 8600 4000 8600
Wire Notes Line
	4000 8600 4000 7150
Wire Notes Line
	4000 7150 3300 7150
Connection ~ 3450 8400
Connection ~ 3450 8300
Connection ~ 3650 8200
Connection ~ 3850 8100
Wire Wire Line
	3450 8500 3500 8500
Text Notes 3300 7150 0    50   ~ 0
A4988/DRV8825/TMC2208
Wire Wire Line
	2600 7900 1850 7900
Text Label 1950 7900 0    50   ~ 0
SPI_DRV_MOSI
Text Label 1950 8100 0    50   ~ 0
SPI_DRV_CLK
Wire Wire Line
	2600 8300 1850 8300
Text Label 1950 8300 0    50   ~ 0
SPI_DRV_CS#_C
Wire Wire Line
	2600 8500 1850 8500
Text Label 1950 8500 0    50   ~ 0
SPI_DRV_MISO
Wire Wire Line
	2600 8100 1850 8100
Wire Notes Line
	3200 7800 3200 8600
Wire Notes Line
	3200 8600 2550 8600
Wire Notes Line
	2550 8600 2550 7800
Wire Notes Line
	2550 7800 3200 7800
Text Notes 2550 7800 0    50   ~ 0
TMC2130
Text GLabel 1850 7900 0    50   Input ~ 0
SPI_DRV_MOSI
Text GLabel 1850 8100 0    50   Input ~ 0
SPI_DRV_CLK
Text GLabel 1850 8300 0    50   Input ~ 0
SPI_DRV_CS#_C
Text GLabel 1850 8500 0    50   Input ~ 0
SPI_DRV_MISO
Text GLabel 3950 8700 0    50   Input ~ 0
DRV_C_EN#
Text GLabel 3950 8800 0    50   Input ~ 0
DRV_C_DIR
Text GLabel 3950 8900 0    50   Input ~ 0
DRV_C_STEP
Wire Wire Line
	3950 8800 4750 8800
Wire Wire Line
	3950 8900 4750 8900
Text Label 4050 8700 0    50   ~ 0
DRV_C_EN#
Text Label 4050 8800 0    50   ~ 0
DRV_C_DIR
Text Label 4050 8900 0    50   ~ 0
DRV_C_STEP
Wire Wire Line
	4750 8700 3950 8700
$Comp
L module:POLOLU_DRIVERBOARD MOD4
U 1 1 5C50EF32
P 12400 4450
F 0 "MOD4" H 13150 4600 50  0000 C CNN
F 1 "POLOLU_DRIVERBOARD" H 12700 3200 50  0000 L CNN
F 2 "misc:MODULE_POLOLU_DRIVER" H 12000 4100 50  0001 C CNN
F 3 "" H 12000 4100 50  0001 C CNN
	1    12400 4450
	1    0    0    -1  
$EndComp
$Comp
L connector:J_GEN_4PIN-1COLX4ROW J8
U 1 1 5C50EF39
P 14550 4650
F 0 "J8" H 14800 4800 50  0000 C CNN
F 1 "J_GEN_4PIN-1COLX4ROW" H 14700 4200 50  0000 L CNN
F 2 "connector_tht:PINHEADER_2.54MM_1x4" H 14550 4650 50  0001 C CNN
F 3 "" H 14550 4650 50  0001 C CNN
	1    14550 4650
	1    0    0    -1  
$EndComp
Wire Wire Line
	13900 4650 14550 4650
Wire Wire Line
	13900 4750 14550 4750
Wire Wire Line
	13900 4850 14550 4850
Wire Wire Line
	13900 4950 14550 4950
Text Label 14000 4650 0    50   ~ 0
MOT_D_1B
Text Label 14000 4750 0    50   ~ 0
MOT_D_1A
Text Label 14000 4850 0    50   ~ 0
MOT_D_2A
Text Label 14000 4950 0    50   ~ 0
MOT_D_2B
$Comp
L sch_power:GND #PWR0136
U 1 1 5C50EF48
P 14000 5650
F 0 "#PWR0136" H 14000 5550 50  0001 C CNN
F 1 "GND" H 14000 5550 50  0000 C CNN
F 2 "" H 14000 5650 50  0001 C CNN
F 3 "" H 14000 5650 50  0001 C CNN
	1    14000 5650
	1    0    0    -1  
$EndComp
Wire Wire Line
	13900 5550 14000 5550
Wire Wire Line
	14000 5550 14000 5650
Wire Wire Line
	13900 5450 14000 5450
Wire Wire Line
	14000 5450 14000 5550
Connection ~ 14000 5550
$Comp
L sch_power:V_3V3 #PWR0137
U 1 1 5C50EF53
P 12150 3850
F 0 "#PWR0137" H 12150 3850 50  0001 C CNN
F 1 "V_3V3" H 12150 4000 50  0000 C CNN
F 2 "" H 12150 3850 50  0001 C CNN
F 3 "" H 12150 3850 50  0001 C CNN
	1    12150 3850
	1    0    0    -1  
$EndComp
Wire Wire Line
	12150 3850 12150 3950
Wire Wire Line
	12300 3950 12300 4450
Wire Wire Line
	12300 4450 12400 4450
$Comp
L passive:C_NP C20
U 1 1 5C50EF5C
P 12150 4250
F 0 "C20" H 12210 4270 50  0000 L BNN
F 1 "1uF" H 12210 4230 50  0000 L TNN
F 2 "discrete_smt:CAPC1005X55_0402_IPC-B" H 12150 4250 50  0001 C CNN
F 3 "" H 12150 4250 50  0001 C CNN
	1    12150 4250
	0    -1   -1   0   
$EndComp
$Comp
L sch_power:GND #PWR0138
U 1 1 5C50EF63
P 12150 4400
F 0 "#PWR0138" H 12150 4300 50  0001 C CNN
F 1 "GND" H 12150 4300 50  0000 C CNN
F 2 "" H 12150 4400 50  0001 C CNN
F 3 "" H 12150 4400 50  0001 C CNN
	1    12150 4400
	1    0    0    -1  
$EndComp
Wire Wire Line
	12150 4350 12150 4400
Wire Wire Line
	12150 4150 12150 3950
Connection ~ 12150 3950
Wire Wire Line
	12150 3950 12300 3950
$Comp
L sch_power:V_MOT #PWR0139
U 1 1 5C50EF6D
P 14400 3850
F 0 "#PWR0139" H 14400 3850 50  0001 C CNN
F 1 "V_MOT" H 14400 4000 50  0000 C CNN
F 2 "" H 14400 3850 50  0001 C CNN
F 3 "" H 14400 3850 50  0001 C CNN
	1    14400 3850
	1    0    0    -1  
$EndComp
$Comp
L passive:C_NP C22
U 1 1 5C50EF73
P 14200 4250
F 0 "C22" H 14260 4270 50  0000 L BNN
F 1 "1uF" H 14260 4230 50  0000 L TNN
F 2 "discrete_smt:CAPC1005X55_0402_IPC-B" H 14200 4250 50  0001 C CNN
F 3 "" H 14200 4250 50  0001 C CNN
	1    14200 4250
	0    -1   -1   0   
$EndComp
$Comp
L sch_power:GND #PWR0140
U 1 1 5C50EF7A
P 14200 4400
F 0 "#PWR0140" H 14200 4300 50  0001 C CNN
F 1 "GND" H 14200 4300 50  0000 C CNN
F 2 "" H 14200 4400 50  0001 C CNN
F 3 "" H 14200 4400 50  0001 C CNN
	1    14200 4400
	1    0    0    -1  
$EndComp
Wire Wire Line
	14200 4350 14200 4400
Wire Wire Line
	14200 4150 14200 3950
$Comp
L sch_power:GND #PWR0141
U 1 1 5C50EF82
P 14400 4400
F 0 "#PWR0141" H 14400 4300 50  0001 C CNN
F 1 "GND" H 14400 4300 50  0000 C CNN
F 2 "" H 14400 4400 50  0001 C CNN
F 3 "" H 14400 4400 50  0001 C CNN
	1    14400 4400
	1    0    0    -1  
$EndComp
Wire Wire Line
	14400 4350 14400 4400
Wire Wire Line
	14400 4150 14400 3950
Wire Wire Line
	13900 4450 14000 4450
Wire Wire Line
	14000 4450 14000 3950
Wire Wire Line
	14000 3950 14200 3950
Wire Wire Line
	14200 3950 14400 3950
Connection ~ 14200 3950
$Comp
L passive:C_POL C24
U 1 1 5C50EF8F
P 14400 4250
F 0 "C24" H 14470 4270 50  0000 L BNN
F 1 "100uF" H 14470 4230 50  0000 L TNN
F 2 "discrete_smt:CAPAE660X770_WE-865080545012" H 14400 4250 50  0001 C CNN
F 3 "" H 14400 4250 50  0001 C CNN
	1    14400 4250
	0    -1   -1   0   
$EndComp
Wire Wire Line
	14400 3950 14400 3850
Connection ~ 14400 3950
$Comp
L passive:R R37
U 1 1 5C50EF98
P 11350 5150
F 0 "R37" H 11460 5170 50  0000 L BNN
F 1 "DNI" H 11460 5130 50  0000 L TNN
F 2 "discrete_smt:RESC1005X55_0402_IPC-B" H 11350 5150 50  0001 C CNN
F 3 "" H 11350 5150 50  0001 C CNN
	1    11350 5150
	1    0    0    -1  
$EndComp
$Comp
L sch_power:V_3V3 #PWR0142
U 1 1 5C50EF9F
P 11300 4050
F 0 "#PWR0142" H 11300 4050 50  0001 C CNN
F 1 "V_3V3" H 11300 4200 50  0000 C CNN
F 2 "" H 11300 4050 50  0001 C CNN
F 3 "" H 11300 4050 50  0001 C CNN
	1    11300 4050
	1    0    0    -1  
$EndComp
Wire Wire Line
	11500 4650 11500 4750
Wire Wire Line
	11500 4750 12400 4750
Wire Wire Line
	11300 4650 11300 4850
Wire Wire Line
	11300 4850 12400 4850
Wire Wire Line
	11100 4950 11100 4650
Wire Wire Line
	11100 4950 12400 4950
Wire Wire Line
	10750 4850 11300 4850
Wire Wire Line
	11500 4750 10800 4750
Wire Wire Line
	11100 4250 11100 4150
Wire Wire Line
	11100 4150 11300 4150
Wire Wire Line
	11300 4150 11300 4050
Wire Wire Line
	11300 4150 11300 4250
Connection ~ 11300 4150
Wire Wire Line
	11300 4150 11500 4150
Wire Wire Line
	11500 4150 11500 4250
Wire Wire Line
	10750 5050 11100 5050
Wire Wire Line
	11100 5050 11100 5150
Wire Wire Line
	11100 5050 12400 5050
Wire Wire Line
	11550 5150 12400 5150
Text Label 11700 4750 0    50   ~ 0
DRV_D_MOSI_MS1
Text Label 11700 4850 0    50   ~ 0
DRV_D_CLK_MS2
Text Label 11700 4950 0    50   ~ 0
DRV_D_CS#_MS3
Text Label 11700 5050 0    50   ~ 0
DRV_D_MISO_RST#
Text Label 11700 5150 0    50   ~ 0
DRV_D_SLP#
Wire Wire Line
	10650 4550 10800 4550
Wire Wire Line
	10800 4550 10800 4750
Wire Wire Line
	10650 5150 10750 5150
Wire Wire Line
	10750 5150 10750 5050
Wire Wire Line
	10650 4750 10750 4750
Wire Wire Line
	10750 4750 10750 4850
$Comp
L passive:R R26
U 1 1 5C50EFC3
P 10450 4550
F 0 "R26" H 10560 4570 50  0000 L BNN
F 1 "0R" H 10560 4530 50  0000 L TNN
F 2 "discrete_smt:RESC1005X55_0402_IPC-B" H 10450 4550 50  0001 C CNN
F 3 "" H 10450 4550 50  0001 C CNN
	1    10450 4550
	1    0    0    -1  
$EndComp
$Comp
L passive:R R27
U 1 1 5C50EFCA
P 10450 4750
F 0 "R27" H 10560 4770 50  0000 L BNN
F 1 "0R" H 10560 4730 50  0000 L TNN
F 2 "discrete_smt:RESC1005X55_0402_IPC-B" H 10450 4750 50  0001 C CNN
F 3 "" H 10450 4750 50  0001 C CNN
	1    10450 4750
	1    0    0    -1  
$EndComp
$Comp
L passive:R R28
U 1 1 5C50EFD1
P 10450 4950
F 0 "R28" H 10560 4970 50  0000 L BNN
F 1 "0R" H 10560 4930 50  0000 L TNN
F 2 "discrete_smt:RESC1005X55_0402_IPC-B" H 10450 4950 50  0001 C CNN
F 3 "" H 10450 4950 50  0001 C CNN
	1    10450 4950
	1    0    0    -1  
$EndComp
$Comp
L passive:R R29
U 1 1 5C50EFD8
P 10450 5150
F 0 "R29" H 10560 5170 50  0000 L BNN
F 1 "0R" H 10560 5130 50  0000 L TNN
F 2 "discrete_smt:RESC1005X55_0402_IPC-B" H 10450 5150 50  0001 C CNN
F 3 "" H 10450 5150 50  0001 C CNN
	1    10450 5150
	1    0    0    -1  
$EndComp
Wire Wire Line
	10650 4950 11100 4950
$Comp
L passive:R R34
U 1 1 5C50EFE0
P 11100 4450
F 0 "R34" H 11210 4470 50  0000 L BNN
F 1 "DNI" H 11210 4430 50  0000 L TNN
F 2 "discrete_smt:RESC1005X55_0402_IPC-B" H 11100 4450 50  0001 C CNN
F 3 "" H 11100 4450 50  0001 C CNN
	1    11100 4450
	0    -1   -1   0   
$EndComp
$Comp
L passive:R R36
U 1 1 5C50EFE7
P 11300 4450
F 0 "R36" H 11410 4470 50  0000 L BNN
F 1 "DNI" H 11410 4430 50  0000 L TNN
F 2 "discrete_smt:RESC1005X55_0402_IPC-B" H 11300 4450 50  0001 C CNN
F 3 "" H 11300 4450 50  0001 C CNN
	1    11300 4450
	0    -1   -1   0   
$EndComp
$Comp
L passive:R R40
U 1 1 5C50EFEE
P 11500 4450
F 0 "R40" H 11610 4470 50  0000 L BNN
F 1 "DNI" H 11610 4430 50  0000 L TNN
F 2 "discrete_smt:RESC1005X55_0402_IPC-B" H 11500 4450 50  0001 C CNN
F 3 "" H 11500 4450 50  0001 C CNN
	1    11500 4450
	0    -1   -1   0   
$EndComp
Wire Notes Line
	10950 3800 10950 5250
Wire Notes Line
	10950 5250 11650 5250
Wire Notes Line
	11650 5250 11650 3800
Wire Notes Line
	11650 3800 10950 3800
Connection ~ 11100 5050
Connection ~ 11100 4950
Connection ~ 11300 4850
Connection ~ 11500 4750
Wire Wire Line
	11100 5150 11150 5150
Text Notes 10950 3800 0    50   ~ 0
A4988/DRV8825/TMC2208
Wire Wire Line
	10250 4550 9500 4550
Text Label 9600 4550 0    50   ~ 0
SPI_DRV_MOSI
Text Label 9600 4750 0    50   ~ 0
SPI_DRV_CLK
Wire Wire Line
	10250 4950 9500 4950
Text Label 9600 4950 0    50   ~ 0
SPI_DRV_CS#_D
Wire Wire Line
	10250 5150 9500 5150
Text Label 9600 5150 0    50   ~ 0
SPI_DRV_MISO
Wire Wire Line
	10250 4750 9500 4750
Wire Notes Line
	10850 4450 10850 5250
Wire Notes Line
	10850 5250 10200 5250
Wire Notes Line
	10200 5250 10200 4450
Wire Notes Line
	10200 4450 10850 4450
Text Notes 10200 4450 0    50   ~ 0
TMC2130
Text GLabel 9500 4550 0    50   Input ~ 0
SPI_DRV_MOSI
Text GLabel 9500 4750 0    50   Input ~ 0
SPI_DRV_CLK
Text GLabel 9500 4950 0    50   Input ~ 0
SPI_DRV_CS#_D
Text GLabel 9500 5150 0    50   Input ~ 0
SPI_DRV_MISO
Text GLabel 11600 5350 0    50   Input ~ 0
DRV_D_EN#
Text GLabel 11600 5450 0    50   Input ~ 0
DRV_D_DIR
Text GLabel 11600 5550 0    50   Input ~ 0
DRV_D_STEP
Wire Wire Line
	11600 5450 12400 5450
Wire Wire Line
	11600 5550 12400 5550
Text Label 11700 5350 0    50   ~ 0
DRV_D_EN#
Text Label 11700 5450 0    50   ~ 0
DRV_D_DIR
Text Label 11700 5550 0    50   ~ 0
DRV_D_STEP
Wire Wire Line
	12400 5350 11600 5350
$Comp
L module:POLOLU_DRIVERBOARD MOD5
U 1 1 5C51F249
P 12450 6800
F 0 "MOD5" H 13200 6950 50  0000 C CNN
F 1 "POLOLU_DRIVERBOARD" H 12750 5550 50  0000 L CNN
F 2 "misc:MODULE_POLOLU_DRIVER" H 12050 6450 50  0001 C CNN
F 3 "" H 12050 6450 50  0001 C CNN
	1    12450 6800
	1    0    0    -1  
$EndComp
$Comp
L connector:J_GEN_4PIN-1COLX4ROW J9
U 1 1 5C51F250
P 14600 7000
F 0 "J9" H 14850 7150 50  0000 C CNN
F 1 "J_GEN_4PIN-1COLX4ROW" H 14750 6550 50  0000 L CNN
F 2 "connector_tht:PINHEADER_2.54MM_1x4" H 14600 7000 50  0001 C CNN
F 3 "" H 14600 7000 50  0001 C CNN
	1    14600 7000
	1    0    0    -1  
$EndComp
Wire Wire Line
	13950 7000 14600 7000
Wire Wire Line
	13950 7100 14600 7100
Wire Wire Line
	13950 7200 14600 7200
Wire Wire Line
	13950 7300 14600 7300
Text Label 14050 7000 0    50   ~ 0
MOT_E_1B
Text Label 14050 7100 0    50   ~ 0
MOT_E_1A
Text Label 14050 7200 0    50   ~ 0
MOT_E_2A
Text Label 14050 7300 0    50   ~ 0
MOT_E_2B
$Comp
L sch_power:GND #PWR0143
U 1 1 5C51F25F
P 14050 8000
F 0 "#PWR0143" H 14050 7900 50  0001 C CNN
F 1 "GND" H 14050 7900 50  0000 C CNN
F 2 "" H 14050 8000 50  0001 C CNN
F 3 "" H 14050 8000 50  0001 C CNN
	1    14050 8000
	1    0    0    -1  
$EndComp
Wire Wire Line
	13950 7900 14050 7900
Wire Wire Line
	14050 7900 14050 8000
Wire Wire Line
	13950 7800 14050 7800
Wire Wire Line
	14050 7800 14050 7900
Connection ~ 14050 7900
$Comp
L sch_power:V_3V3 #PWR0144
U 1 1 5C51F26A
P 12200 6200
F 0 "#PWR0144" H 12200 6200 50  0001 C CNN
F 1 "V_3V3" H 12200 6350 50  0000 C CNN
F 2 "" H 12200 6200 50  0001 C CNN
F 3 "" H 12200 6200 50  0001 C CNN
	1    12200 6200
	1    0    0    -1  
$EndComp
Wire Wire Line
	12200 6200 12200 6300
Wire Wire Line
	12350 6300 12350 6800
Wire Wire Line
	12350 6800 12450 6800
$Comp
L passive:C_NP C21
U 1 1 5C51F273
P 12200 6600
F 0 "C21" H 12260 6620 50  0000 L BNN
F 1 "1uF" H 12260 6580 50  0000 L TNN
F 2 "discrete_smt:CAPC1005X55_0402_IPC-B" H 12200 6600 50  0001 C CNN
F 3 "" H 12200 6600 50  0001 C CNN
	1    12200 6600
	0    -1   -1   0   
$EndComp
$Comp
L sch_power:GND #PWR0145
U 1 1 5C51F27A
P 12200 6750
F 0 "#PWR0145" H 12200 6650 50  0001 C CNN
F 1 "GND" H 12200 6650 50  0000 C CNN
F 2 "" H 12200 6750 50  0001 C CNN
F 3 "" H 12200 6750 50  0001 C CNN
	1    12200 6750
	1    0    0    -1  
$EndComp
Wire Wire Line
	12200 6700 12200 6750
Wire Wire Line
	12200 6500 12200 6300
Connection ~ 12200 6300
Wire Wire Line
	12200 6300 12350 6300
$Comp
L sch_power:V_MOT #PWR0146
U 1 1 5C51F284
P 14450 6200
F 0 "#PWR0146" H 14450 6200 50  0001 C CNN
F 1 "V_MOT" H 14450 6350 50  0000 C CNN
F 2 "" H 14450 6200 50  0001 C CNN
F 3 "" H 14450 6200 50  0001 C CNN
	1    14450 6200
	1    0    0    -1  
$EndComp
$Comp
L passive:C_NP C23
U 1 1 5C51F28A
P 14250 6600
F 0 "C23" H 14310 6620 50  0000 L BNN
F 1 "1uF" H 14310 6580 50  0000 L TNN
F 2 "discrete_smt:CAPC1005X55_0402_IPC-B" H 14250 6600 50  0001 C CNN
F 3 "" H 14250 6600 50  0001 C CNN
	1    14250 6600
	0    -1   -1   0   
$EndComp
$Comp
L sch_power:GND #PWR0147
U 1 1 5C51F291
P 14250 6750
F 0 "#PWR0147" H 14250 6650 50  0001 C CNN
F 1 "GND" H 14250 6650 50  0000 C CNN
F 2 "" H 14250 6750 50  0001 C CNN
F 3 "" H 14250 6750 50  0001 C CNN
	1    14250 6750
	1    0    0    -1  
$EndComp
Wire Wire Line
	14250 6700 14250 6750
Wire Wire Line
	14250 6500 14250 6300
$Comp
L sch_power:GND #PWR0148
U 1 1 5C51F299
P 14450 6750
F 0 "#PWR0148" H 14450 6650 50  0001 C CNN
F 1 "GND" H 14450 6650 50  0000 C CNN
F 2 "" H 14450 6750 50  0001 C CNN
F 3 "" H 14450 6750 50  0001 C CNN
	1    14450 6750
	1    0    0    -1  
$EndComp
Wire Wire Line
	14450 6700 14450 6750
Wire Wire Line
	14450 6500 14450 6300
Wire Wire Line
	13950 6800 14050 6800
Wire Wire Line
	14050 6800 14050 6300
Wire Wire Line
	14050 6300 14250 6300
Wire Wire Line
	14250 6300 14450 6300
Connection ~ 14250 6300
$Comp
L passive:C_POL C25
U 1 1 5C51F2A6
P 14450 6600
F 0 "C25" H 14520 6620 50  0000 L BNN
F 1 "100uF" H 14520 6580 50  0000 L TNN
F 2 "discrete_smt:CAPAE660X770_WE-865080545012" H 14450 6600 50  0001 C CNN
F 3 "" H 14450 6600 50  0001 C CNN
	1    14450 6600
	0    -1   -1   0   
$EndComp
Wire Wire Line
	14450 6300 14450 6200
Connection ~ 14450 6300
$Comp
L passive:R R39
U 1 1 5C51F2AF
P 11400 7500
F 0 "R39" H 11510 7520 50  0000 L BNN
F 1 "DNI" H 11510 7480 50  0000 L TNN
F 2 "discrete_smt:RESC1005X55_0402_IPC-B" H 11400 7500 50  0001 C CNN
F 3 "" H 11400 7500 50  0001 C CNN
	1    11400 7500
	1    0    0    -1  
$EndComp
$Comp
L sch_power:V_3V3 #PWR0149
U 1 1 5C51F2B6
P 11350 6400
F 0 "#PWR0149" H 11350 6400 50  0001 C CNN
F 1 "V_3V3" H 11350 6550 50  0000 C CNN
F 2 "" H 11350 6400 50  0001 C CNN
F 3 "" H 11350 6400 50  0001 C CNN
	1    11350 6400
	1    0    0    -1  
$EndComp
Wire Wire Line
	11550 7000 11550 7100
Wire Wire Line
	11550 7100 12450 7100
Wire Wire Line
	11350 7000 11350 7200
Wire Wire Line
	11350 7200 12450 7200
Wire Wire Line
	11150 7300 11150 7000
Wire Wire Line
	11150 7300 12450 7300
Wire Wire Line
	10800 7200 11350 7200
Wire Wire Line
	11550 7100 10850 7100
Wire Wire Line
	11150 6600 11150 6500
Wire Wire Line
	11150 6500 11350 6500
Wire Wire Line
	11350 6500 11350 6400
Wire Wire Line
	11350 6500 11350 6600
Connection ~ 11350 6500
Wire Wire Line
	11350 6500 11550 6500
Wire Wire Line
	11550 6500 11550 6600
Wire Wire Line
	10800 7400 11150 7400
Wire Wire Line
	11150 7400 11150 7500
Wire Wire Line
	11150 7400 12450 7400
Wire Wire Line
	11600 7500 12450 7500
Text Label 11750 7100 0    50   ~ 0
DRV_E_MOSI_MS1
Text Label 11750 7200 0    50   ~ 0
DRV_E_CLK_MS2
Text Label 11750 7300 0    50   ~ 0
DRV_E_CS#_MS3
Text Label 11750 7400 0    50   ~ 0
DRV_E_MISO_RST#
Text Label 11750 7500 0    50   ~ 0
DRV_E_SLP#
Wire Wire Line
	10700 6900 10850 6900
Wire Wire Line
	10850 6900 10850 7100
Wire Wire Line
	10700 7500 10800 7500
Wire Wire Line
	10800 7500 10800 7400
Wire Wire Line
	10700 7100 10800 7100
Wire Wire Line
	10800 7100 10800 7200
$Comp
L passive:R R30
U 1 1 5C51F2DA
P 10500 6900
F 0 "R30" H 10610 6920 50  0000 L BNN
F 1 "0R" H 10610 6880 50  0000 L TNN
F 2 "discrete_smt:RESC1005X55_0402_IPC-B" H 10500 6900 50  0001 C CNN
F 3 "" H 10500 6900 50  0001 C CNN
	1    10500 6900
	1    0    0    -1  
$EndComp
$Comp
L passive:R R31
U 1 1 5C51F2E1
P 10500 7100
F 0 "R31" H 10610 7120 50  0000 L BNN
F 1 "0R" H 10610 7080 50  0000 L TNN
F 2 "discrete_smt:RESC1005X55_0402_IPC-B" H 10500 7100 50  0001 C CNN
F 3 "" H 10500 7100 50  0001 C CNN
	1    10500 7100
	1    0    0    -1  
$EndComp
$Comp
L passive:R R32
U 1 1 5C51F2E8
P 10500 7300
F 0 "R32" H 10610 7320 50  0000 L BNN
F 1 "0R" H 10610 7280 50  0000 L TNN
F 2 "discrete_smt:RESC1005X55_0402_IPC-B" H 10500 7300 50  0001 C CNN
F 3 "" H 10500 7300 50  0001 C CNN
	1    10500 7300
	1    0    0    -1  
$EndComp
$Comp
L passive:R R33
U 1 1 5C51F2EF
P 10500 7500
F 0 "R33" H 10610 7520 50  0000 L BNN
F 1 "0R" H 10610 7480 50  0000 L TNN
F 2 "discrete_smt:RESC1005X55_0402_IPC-B" H 10500 7500 50  0001 C CNN
F 3 "" H 10500 7500 50  0001 C CNN
	1    10500 7500
	1    0    0    -1  
$EndComp
Wire Wire Line
	10700 7300 11150 7300
$Comp
L passive:R R35
U 1 1 5C51F2F7
P 11150 6800
F 0 "R35" H 11260 6820 50  0000 L BNN
F 1 "DNI" H 11260 6780 50  0000 L TNN
F 2 "discrete_smt:RESC1005X55_0402_IPC-B" H 11150 6800 50  0001 C CNN
F 3 "" H 11150 6800 50  0001 C CNN
	1    11150 6800
	0    -1   -1   0   
$EndComp
$Comp
L passive:R R38
U 1 1 5C51F2FE
P 11350 6800
F 0 "R38" H 11460 6820 50  0000 L BNN
F 1 "DNI" H 11460 6780 50  0000 L TNN
F 2 "discrete_smt:RESC1005X55_0402_IPC-B" H 11350 6800 50  0001 C CNN
F 3 "" H 11350 6800 50  0001 C CNN
	1    11350 6800
	0    -1   -1   0   
$EndComp
$Comp
L passive:R R41
U 1 1 5C51F305
P 11550 6800
F 0 "R41" H 11660 6820 50  0000 L BNN
F 1 "DNI" H 11660 6780 50  0000 L TNN
F 2 "discrete_smt:RESC1005X55_0402_IPC-B" H 11550 6800 50  0001 C CNN
F 3 "" H 11550 6800 50  0001 C CNN
	1    11550 6800
	0    -1   -1   0   
$EndComp
Wire Notes Line
	11000 6150 11000 7600
Wire Notes Line
	11000 7600 11700 7600
Wire Notes Line
	11700 7600 11700 6150
Wire Notes Line
	11700 6150 11000 6150
Connection ~ 11150 7400
Connection ~ 11150 7300
Connection ~ 11350 7200
Connection ~ 11550 7100
Wire Wire Line
	11150 7500 11200 7500
Text Notes 11000 6150 0    50   ~ 0
A4988/DRV8825/TMC2208
Wire Wire Line
	10300 6900 9550 6900
Text Label 9650 6900 0    50   ~ 0
SPI_DRV_MOSI
Text Label 9650 7100 0    50   ~ 0
SPI_DRV_CLK
Wire Wire Line
	10300 7300 9550 7300
Text Label 9650 7300 0    50   ~ 0
SPI_DRV_CS#_E
Wire Wire Line
	10300 7500 9550 7500
Text Label 9650 7500 0    50   ~ 0
SPI_DRV_MISO
Wire Wire Line
	10300 7100 9550 7100
Wire Notes Line
	10900 6800 10900 7600
Wire Notes Line
	10900 7600 10250 7600
Wire Notes Line
	10250 7600 10250 6800
Wire Notes Line
	10250 6800 10900 6800
Text Notes 10250 6800 0    50   ~ 0
TMC2130
Text GLabel 9550 6900 0    50   Input ~ 0
SPI_DRV_MOSI
Text GLabel 9550 7100 0    50   Input ~ 0
SPI_DRV_CLK
Text GLabel 9550 7300 0    50   Input ~ 0
SPI_DRV_CS#_E
Text GLabel 9550 7500 0    50   Input ~ 0
SPI_DRV_MISO
Text GLabel 11650 7700 0    50   Input ~ 0
DRV_E_EN#
Text GLabel 11650 7800 0    50   Input ~ 0
DRV_E_DIR
Text GLabel 11650 7900 0    50   Input ~ 0
DRV_E_STEP
Wire Wire Line
	11650 7800 12450 7800
Wire Wire Line
	11650 7900 12450 7900
Text Label 11750 7700 0    50   ~ 0
DRV_E_EN#
Text Label 11750 7800 0    50   ~ 0
DRV_E_DIR
Text Label 11750 7900 0    50   ~ 0
DRV_E_STEP
Wire Wire Line
	12450 7700 11650 7700
Text Label 4000 6400 0    50   ~ 0
DRV_B_EN#
Wire Wire Line
	4700 6400 3900 6400
Text Notes 550  800  0    200  ~ 0
Page 02 - Motor driver sockets
$EndSCHEMATC
