EESchema Schematic File Version 4
LIBS:PrinterBoard-cache
EELAYER 26 0
EELAYER END
$Descr A3 16535 11693
encoding utf-8
Sheet 2 5
Title ""
Date ""
Rev ""
Comp ""
Comment1 ""
Comment2 ""
Comment3 ""
Comment4 ""
$EndDescr
$Comp
L ic:U_MCU_NXP_LPC1768FBD100 U1
U 1 1 5C46B6D5
P 3700 1800
F 0 "U1" H 5000 1950 50  0000 C CNN
F 1 "U_MCU_NXP_LPC1768FBD100" H 5000 -5650 50  0000 C TNN
F 2 "ic_smt:QFP100P50_1600X1600X160HD" H 5400 1400 50  0001 C CNN
F 3 "" H 5400 1400 50  0001 C CNN
F 4 "https://cz.farnell.com/nxp/lpc1768fbd100-551/mcu-32bit-cortex-m3-100mhz-lqfp/dp/1718549" H 5050 -5800 50  0001 C CNN "SOURCE"
	1    3700 1800
	1    0    0    -1  
$EndComp
$Comp
L sch_power:GND #PWR0101
U 1 1 5C46B6DC
P 3600 9200
F 0 "#PWR0101" H 3600 9100 50  0001 C CNN
F 1 "GND" H 3600 9100 50  0000 C CNN
F 2 "" H 3600 9200 50  0001 C CNN
F 3 "" H 3600 9200 50  0001 C CNN
	1    3600 9200
	1    0    0    -1  
$EndComp
Wire Wire Line
	3700 9100 3600 9100
Wire Wire Line
	3600 9100 3600 9200
Wire Wire Line
	3700 8900 3600 8900
Wire Wire Line
	3600 8900 3600 9100
Connection ~ 3600 9100
Wire Wire Line
	3700 8800 3600 8800
Wire Wire Line
	3600 8800 3600 8900
Connection ~ 3600 8900
Wire Wire Line
	3700 8700 3600 8700
Wire Wire Line
	3600 8700 3600 8800
Connection ~ 3600 8800
Wire Wire Line
	3700 8600 3600 8600
Wire Wire Line
	3600 8600 3600 8700
Connection ~ 3600 8700
Text Notes 3650 7400 2    50   ~ 0
Unused\n
Text Notes 3650 8200 2    50   ~ 0
Unused\n
Text Notes 3650 7800 2    50   ~ 0
Unused\n
$Comp
L sch_power:GND #PWR0102
U 1 1 5C46B6FB
P 2000 7150
F 0 "#PWR0102" H 2000 7050 50  0001 C CNN
F 1 "GND" H 2000 7050 50  0000 C CNN
F 2 "" H 2000 7150 50  0001 C CNN
F 3 "" H 2000 7150 50  0001 C CNN
	1    2000 7150
	1    0    0    -1  
$EndComp
$Comp
L passive:C_NP C2
U 1 1 5C46B701
P 2000 7000
F 0 "C2" H 2060 7020 50  0000 L BNN
F 1 "18pF" H 2060 6980 50  0000 L TNN
F 2 "discrete_smt:CAPC1005X55_0402_IPC-B" H 2000 7000 50  0001 C CNN
F 3 "" H 2000 7000 50  0001 C CNN
	1    2000 7000
	0    -1   -1   0   
$EndComp
Wire Wire Line
	2000 7100 2000 7150
$Comp
L passive:C_NP C5
U 1 1 5C46B709
P 3100 7000
F 0 "C5" H 3160 7020 50  0000 L BNN
F 1 "18pF" H 3160 6980 50  0000 L TNN
F 2 "discrete_smt:CAPC1005X55_0402_IPC-B" H 3100 7000 50  0001 C CNN
F 3 "" H 3100 7000 50  0001 C CNN
	1    3100 7000
	0    -1   -1   0   
$EndComp
$Comp
L sch_power:GND #PWR0103
U 1 1 5C46B710
P 3100 7150
F 0 "#PWR0103" H 3100 7050 50  0001 C CNN
F 1 "GND" H 3100 7050 50  0000 C CNN
F 2 "" H 3100 7150 50  0001 C CNN
F 3 "" H 3100 7150 50  0001 C CNN
	1    3100 7150
	1    0    0    -1  
$EndComp
Wire Wire Line
	3100 7100 3100 7150
$Comp
L sch_power:V_3V3 #PWR0104
U 1 1 5C46B721
P 2350 2550
F 0 "#PWR0104" H 2350 2550 50  0001 C CNN
F 1 "V_3V3" H 2350 2700 50  0000 C CNN
F 2 "" H 2350 2550 50  0001 C CNN
F 3 "" H 2350 2550 50  0001 C CNN
	1    2350 2550
	1    0    0    -1  
$EndComp
Wire Wire Line
	3600 2900 3700 2900
Wire Wire Line
	3600 3200 3700 3200
Connection ~ 3600 3200
Wire Wire Line
	3600 3300 3700 3300
Connection ~ 3600 3300
Wire Wire Line
	3600 3300 3600 3200
Wire Wire Line
	3600 3400 3700 3400
Wire Wire Line
	3600 3400 3600 3300
$Comp
L sch_power:GND #PWR0105
U 1 1 5C46B72F
P 2350 3150
F 0 "#PWR0105" H 2350 3050 50  0001 C CNN
F 1 "GND" H 2350 3050 50  0000 C CNN
F 2 "" H 2350 3150 50  0001 C CNN
F 3 "" H 2350 3150 50  0001 C CNN
	1    2350 3150
	1    0    0    -1  
$EndComp
Wire Wire Line
	2600 3000 2600 3100
$Comp
L passive:C_NP_STK C3
U 1 1 5C46B736
P 2600 2900
F 0 "C3" H 2660 2920 40  0000 L BNN
F 1 "100nF" H 2660 2880 40  0000 L TNN
F 2 "discrete_smt:CAPC1005X55_0402_IPC-B" H 2600 2900 50  0001 C CNN
F 3 "" H 2600 2900 50  0001 C CNN
	1    2600 2900
	0    -1   -1   0   
$EndComp
Wire Wire Line
	2600 3100 2750 3100
Wire Wire Line
	2750 3100 2750 3000
Connection ~ 2600 3100
Wire Wire Line
	2750 3100 2900 3100
Wire Wire Line
	3350 3100 3350 3000
Connection ~ 2750 3100
Wire Wire Line
	2900 3000 2900 3100
Connection ~ 2900 3100
Wire Wire Line
	2900 3100 3050 3100
Wire Wire Line
	3050 3000 3050 3100
Connection ~ 3050 3100
Wire Wire Line
	3050 3100 3200 3100
Wire Wire Line
	3200 3000 3200 3100
Connection ~ 3200 3100
Wire Wire Line
	3200 3100 3350 3100
Wire Wire Line
	2600 2600 2750 2600
Connection ~ 2600 2600
Wire Wire Line
	2600 2600 2600 2800
Wire Wire Line
	3350 2800 3350 2600
Wire Wire Line
	3200 2800 3200 2600
Connection ~ 3200 2600
Wire Wire Line
	3200 2600 3350 2600
Wire Wire Line
	3050 2800 3050 2600
Connection ~ 3050 2600
Wire Wire Line
	3050 2600 3200 2600
Wire Wire Line
	2900 2800 2900 2600
Connection ~ 2900 2600
Wire Wire Line
	2900 2600 3050 2600
Wire Wire Line
	2750 2800 2750 2600
Connection ~ 2750 2600
Wire Wire Line
	2750 2600 2900 2600
$Comp
L passive:C_NP_STK C4
U 1 1 5C46B75C
P 2750 2900
F 0 "C4" H 2810 2920 40  0000 L BNN
F 1 "100nF" H 2810 2880 40  0000 L TNN
F 2 "discrete_smt:CAPC1005X55_0402_IPC-B" H 2750 2900 50  0001 C CNN
F 3 "" H 2750 2900 50  0001 C CNN
	1    2750 2900
	0    -1   -1   0   
$EndComp
$Comp
L passive:C_NP_STK C6
U 1 1 5C46B763
P 2900 2900
F 0 "C6" H 2960 2920 40  0000 L BNN
F 1 "100nF" H 2960 2880 40  0000 L TNN
F 2 "discrete_smt:CAPC1005X55_0402_IPC-B" H 2900 2900 50  0001 C CNN
F 3 "" H 2900 2900 50  0001 C CNN
	1    2900 2900
	0    -1   -1   0   
$EndComp
$Comp
L passive:C_NP_STK C7
U 1 1 5C46B76A
P 3050 2900
F 0 "C7" H 3110 2920 40  0000 L BNN
F 1 "100nF" H 3110 2880 40  0000 L TNN
F 2 "discrete_smt:CAPC1005X55_0402_IPC-B" H 3050 2900 50  0001 C CNN
F 3 "" H 3050 2900 50  0001 C CNN
	1    3050 2900
	0    -1   -1   0   
$EndComp
$Comp
L passive:C_NP_STK C9
U 1 1 5C46B771
P 3200 2900
F 0 "C9" H 3260 2920 40  0000 L BNN
F 1 "100nF" H 3260 2880 40  0000 L TNN
F 2 "discrete_smt:CAPC1005X55_0402_IPC-B" H 3200 2900 50  0001 C CNN
F 3 "" H 3200 2900 50  0001 C CNN
	1    3200 2900
	0    -1   -1   0   
$EndComp
$Comp
L passive:C_NP_STK C10
U 1 1 5C46B778
P 3350 2900
F 0 "C10" H 3410 2920 40  0000 L BNN
F 1 "100nF" H 3410 2880 40  0000 L TNN
F 2 "discrete_smt:CAPC1005X55_0402_IPC-B" H 3350 2900 50  0001 C CNN
F 3 "" H 3350 2900 50  0001 C CNN
	1    3350 2900
	0    -1   -1   0   
$EndComp
Connection ~ 3350 2600
$Comp
L passive:C_NP_STK C1
U 1 1 5C46B780
P 2350 2900
F 0 "C1" H 2410 2920 40  0000 L BNN
F 1 "10uF" H 2410 2880 40  0000 L TNN
F 2 "discrete_smt:CAPC1005X55_0402_IPC-B" H 2350 2900 50  0001 C CNN
F 3 "" H 2350 2900 50  0001 C CNN
	1    2350 2900
	0    -1   -1   0   
$EndComp
Wire Wire Line
	2600 2600 2350 2600
Wire Wire Line
	2350 2600 2350 2800
Wire Wire Line
	2350 3000 2350 3100
Wire Wire Line
	2350 3100 2600 3100
Wire Wire Line
	2350 3100 2350 3150
Connection ~ 2350 3100
Wire Wire Line
	2350 2600 2350 2550
Connection ~ 2350 2600
Wire Wire Line
	3600 2900 3600 3100
Wire Wire Line
	3700 3100 3600 3100
Connection ~ 3600 3100
Wire Wire Line
	3600 3100 3600 3200
Wire Wire Line
	3700 2800 3600 2800
Wire Wire Line
	3600 2800 3600 2900
Connection ~ 3600 2900
Wire Wire Line
	3700 2600 3600 2600
Wire Wire Line
	3600 2600 3600 2800
Connection ~ 3600 2800
Wire Wire Line
	3350 2600 3600 2600
Connection ~ 3600 2600
$Comp
L sch_power:V_3V3 #PWR0106
U 1 1 5C46B79B
P 2350 3800
F 0 "#PWR0106" H 2350 3800 50  0001 C CNN
F 1 "V_3V3" H 2350 3950 50  0000 C CNN
F 2 "" H 2350 3800 50  0001 C CNN
F 3 "" H 2350 3800 50  0001 C CNN
	1    2350 3800
	1    0    0    -1  
$EndComp
$Comp
L sch_power:GND #PWR0107
U 1 1 5C46B7A1
P 3050 4350
F 0 "#PWR0107" H 3050 4250 50  0001 C CNN
F 1 "GND" H 3050 4250 50  0000 C CNN
F 2 "" H 3050 4350 50  0001 C CNN
F 3 "" H 3050 4350 50  0001 C CNN
	1    3050 4350
	1    0    0    -1  
$EndComp
Wire Wire Line
	3050 4050 3050 3850
$Comp
L passive:C_NP_STK C8
U 1 1 5C46B7A8
P 3050 4150
F 0 "C8" H 3110 4170 40  0000 L BNN
F 1 "100nF" H 3110 4130 40  0000 L TNN
F 2 "discrete_smt:CAPC1005X55_0402_IPC-B" H 3050 4150 50  0001 C CNN
F 3 "" H 3050 4150 50  0001 C CNN
	1    3050 4150
	0    -1   -1   0   
$EndComp
Connection ~ 3050 3850
Wire Wire Line
	2350 3850 2350 3800
Wire Wire Line
	2350 3850 2450 3850
$Comp
L passive:FB FB1
U 1 1 5C46B7B2
P 2650 3850
F 0 "FB1" H 2760 3870 40  0000 L BNN
F 1 "600R" H 2760 3830 40  0000 L TNN
F 2 "discrete_smt:INDC1005X55_0402_IPC-B" H 2650 3850 50  0001 C CNN
F 3 "" H 2650 3850 50  0001 C CNN
	1    2650 3850
	1    0    0    -1  
$EndComp
Wire Wire Line
	2850 3850 3050 3850
Wire Wire Line
	3050 4250 3050 4300
Wire Wire Line
	3050 4300 3250 4300
Wire Wire Line
	3250 4300 3250 4050
Wire Wire Line
	3250 4050 3500 4050
Connection ~ 3050 4300
Wire Wire Line
	3050 4300 3050 4350
Wire Wire Line
	3050 3850 3600 3850
Wire Wire Line
	3600 3850 3600 4600
Wire Wire Line
	3600 4600 3700 4600
Connection ~ 3600 3850
Wire Wire Line
	3600 3850 3700 3850
Wire Wire Line
	3500 4050 3500 4700
Wire Wire Line
	3500 4700 3700 4700
Connection ~ 3500 4050
Wire Wire Line
	3500 4050 3700 4050
$Comp
L sch_power:V_3V3 #PWR0108
U 1 1 5C46B7C9
P 2750 1200
F 0 "#PWR0108" H 2750 1200 50  0001 C CNN
F 1 "V_3V3" H 2750 1350 50  0000 C CNN
F 2 "" H 2750 1200 50  0001 C CNN
F 3 "" H 2750 1200 50  0001 C CNN
	1    2750 1200
	1    0    0    -1  
$EndComp
$Comp
L sch_power:GND #PWR0109
U 1 1 5C46B7CF
P 2750 2000
F 0 "#PWR0109" H 2750 1900 50  0001 C CNN
F 1 "GND" H 2750 1900 50  0000 C CNN
F 2 "" H 2750 2000 50  0001 C CNN
F 3 "" H 2750 2000 50  0001 C CNN
	1    2750 2000
	1    0    0    -1  
$EndComp
$Comp
L passive:R R1
U 1 1 5C46B7D5
P 2750 1500
F 0 "R1" H 2860 1520 50  0000 L BNN
F 1 "10k" H 2860 1480 50  0000 L TNN
F 2 "discrete_smt:RESC1005X55_0402_IPC-B" H 2750 1500 50  0001 C CNN
F 3 "" H 2750 1500 50  0001 C CNN
	1    2750 1500
	0    -1   -1   0   
$EndComp
Wire Wire Line
	2750 1200 2750 1300
Wire Wire Line
	2750 1700 2750 1800
Wire Wire Line
	2750 1800 3650 1800
Text Label 3200 1800 0    50   ~ 0
MCU_RST#
$Comp
L connector:J_GEN_2PIN-1COLX2ROW J2
U 1 1 5C46B7E0
P 2550 1800
F 0 "J2" H 2800 1950 50  0000 C CNN
F 1 "PINHEAD-02" H 2700 1550 50  0000 L CNN
F 2 "connector_tht:PINHEADER_2.54MM_2x1" H 2550 1800 50  0001 C CNN
F 3 "" H 2550 1800 50  0001 C CNN
	1    2550 1800
	-1   0    0    -1  
$EndComp
Wire Wire Line
	2750 1800 2550 1800
Connection ~ 2750 1800
Wire Wire Line
	2550 1900 2750 1900
Wire Wire Line
	2750 1900 2750 2000
$Comp
L misc:TESTPOINT TP1
U 1 1 5C46B7EB
P 3150 1900
F 0 "TP1" H 3400 1900 50  0000 C CNN
F 1 "TESTPOINT" H 3700 1900 50  0001 C CNN
F 2 "misc:TESTPOINT_RND_1mm_SingleSide" H 3150 1900 50  0001 C CNN
F 3 "" H 3150 1900 50  0001 C CNN
	1    3150 1900
	-1   0    0    -1  
$EndComp
Wire Wire Line
	3150 1900 3700 1900
Text Label 3200 1900 0    50   ~ 0
MCU_RSTO#
Text Label 3150 3850 0    50   ~ 0
V_3V3_A
Text Label 3150 6200 0    50   ~ 0
MCU_XTAL1
Text Label 3150 6600 0    50   ~ 0
MCU_XTAL2
Text Notes 3650 5200 2    50   ~ 0
Unused\n
Text Notes 3650 5300 2    50   ~ 0
Unused\n
Text Notes 3650 5700 2    50   ~ 0
Unused\n
$Comp
L connector:J_GEN_6PIN-2COLX3ROW_Z J1
U 1 1 5C46B7FA
P 2450 5400
F 0 "J1" H 2750 5550 50  0000 C CNN
F 1 "PINHEAD-03X02" H 2650 5050 50  0000 C CNN
F 2 "connector_tht:PINHEADER_2.54MM_2x3-Z" H 2450 5400 50  0001 C CNN
F 3 "" H 2450 5400 50  0001 C CNN
	1    2450 5400
	-1   0    0    -1  
$EndComp
Text Label 2550 5400 0    50   ~ 0
MCU_JTAG_SWDIO
Text Label 2550 5500 0    50   ~ 0
MCU_JTAG_TRST#
Text Label 2550 5600 0    50   ~ 0
MCU_JTAG_SWDCLK
$Comp
L sch_power:V_3V3 #PWR0110
U 1 1 5C46B804
P 1750 5300
F 0 "#PWR0110" H 1750 5300 50  0001 C CNN
F 1 "V_3V3" H 1750 5450 50  0000 C CNN
F 2 "" H 1750 5300 50  0001 C CNN
F 3 "" H 1750 5300 50  0001 C CNN
	1    1750 5300
	1    0    0    -1  
$EndComp
Wire Wire Line
	1750 5300 1750 5400
Wire Wire Line
	1750 5400 1850 5400
Text Notes 1850 5500 2    50   ~ 0
Unused\n
$Comp
L sch_power:GND #PWR0111
U 1 1 5C46B80D
P 1750 5700
F 0 "#PWR0111" H 1750 5600 50  0001 C CNN
F 1 "GND" H 1750 5600 50  0000 C CNN
F 2 "" H 1750 5700 50  0001 C CNN
F 3 "" H 1750 5700 50  0001 C CNN
	1    1750 5700
	1    0    0    -1  
$EndComp
Wire Wire Line
	1850 5600 1750 5600
Wire Wire Line
	1750 5600 1750 5700
Text Notes 1550 5050 0    50   ~ 0
DEBUG JTAG (Do Not Assemble)
Wire Notes Line
	3300 5050 3300 5900
Wire Notes Line
	3300 5900 1550 5900
Wire Notes Line
	1550 5900 1550 5050
Wire Notes Line
	1550 5050 3300 5050
Wire Wire Line
	2450 5400 3700 5400
Wire Wire Line
	2450 5500 3700 5500
Wire Wire Line
	2450 5600 3700 5600
Text Notes 1550 1550 0    50   ~ 0
RESET BUTTON CONN.
Wire Notes Line
	1550 1550 2600 1550
Wire Notes Line
	2600 1550 2600 2150
Wire Notes Line
	2600 2150 1550 2150
Wire Notes Line
	1550 2150 1550 1550
NoConn ~ 3700 7400
NoConn ~ 3700 7800
NoConn ~ 3700 8200
NoConn ~ 3700 5700
NoConn ~ 3700 5300
NoConn ~ 3700 5200
Wire Wire Line
	9250 4900 8450 4900
Text Label 8550 4900 0    50   ~ 0
SPI_DRV_CS#_A
Text GLabel 9250 4900 2    50   Input ~ 0
SPI_DRV_CS#_A
Text GLabel 9250 5400 2    50   Input ~ 0
DRV_A_EN#
Text GLabel 9250 5500 2    50   Input ~ 0
DRV_A_DIR
Text GLabel 9250 5600 2    50   Input ~ 0
DRV_A_STEP
Wire Wire Line
	8450 5500 9250 5500
Wire Wire Line
	8450 5600 9250 5600
Text Label 8550 5400 0    50   ~ 0
DRV_A_EN#
Text Label 8550 5500 0    50   ~ 0
DRV_A_DIR
Text Label 8550 5600 0    50   ~ 0
DRV_A_STEP
Wire Wire Line
	9250 5400 8450 5400
Text Label 8550 4700 0    50   ~ 0
SPI_DRV_MOSI
Text Label 8550 4800 0    50   ~ 0
SPI_DRV_CLK
Text Label 8550 5000 0    50   ~ 0
SPI_DRV_CS#_B
Text Label 8550 4600 0    50   ~ 0
SPI_DRV_MISO
Text GLabel 9250 4700 2    50   Input ~ 0
SPI_DRV_MOSI
Text GLabel 9250 4800 2    50   Input ~ 0
SPI_DRV_CLK
Text GLabel 9250 5000 2    50   Input ~ 0
SPI_DRV_CS#_B
Text GLabel 9250 4600 2    50   Input ~ 0
SPI_DRV_MISO
Text GLabel 9250 5700 2    50   Input ~ 0
DRV_B_EN#
Text GLabel 9250 5800 2    50   Input ~ 0
DRV_B_DIR
Text GLabel 9250 5900 2    50   Input ~ 0
DRV_B_STEP
Wire Wire Line
	8450 5800 9250 5800
Wire Wire Line
	8450 5900 9250 5900
Text Label 8550 5800 0    50   ~ 0
DRV_B_DIR
Text Label 8550 5900 0    50   ~ 0
DRV_B_STEP
Text Label 8550 5100 0    50   ~ 0
SPI_DRV_CS#_C
Text GLabel 9250 5100 2    50   Input ~ 0
SPI_DRV_CS#_C
Text GLabel 9250 6000 2    50   Input ~ 0
DRV_C_EN#
Text GLabel 9250 6100 2    50   Input ~ 0
DRV_C_DIR
Text GLabel 9250 6200 2    50   Input ~ 0
DRV_C_STEP
Wire Wire Line
	8450 6100 9250 6100
Wire Wire Line
	8450 6200 9250 6200
Text Label 8550 6000 0    50   ~ 0
DRV_C_EN#
Text Label 8550 6100 0    50   ~ 0
DRV_C_DIR
Text Label 8550 6200 0    50   ~ 0
DRV_C_STEP
Wire Wire Line
	9250 6000 8450 6000
Text Label 8550 5200 0    50   ~ 0
SPI_DRV_CS#_D
Text GLabel 9250 5200 2    50   Input ~ 0
SPI_DRV_CS#_D
Text GLabel 9250 6300 2    50   Input ~ 0
DRV_D_EN#
Text GLabel 9250 6400 2    50   Input ~ 0
DRV_D_DIR
Text GLabel 9250 6500 2    50   Input ~ 0
DRV_D_STEP
Wire Wire Line
	8450 6400 9250 6400
Wire Wire Line
	8450 6500 9250 6500
Text Label 8550 6300 0    50   ~ 0
DRV_D_EN#
Text Label 8550 6400 0    50   ~ 0
DRV_D_DIR
Text Label 8550 6500 0    50   ~ 0
DRV_D_STEP
Wire Wire Line
	9250 6300 8450 6300
Text Label 8550 5300 0    50   ~ 0
SPI_DRV_CS#_E
Text GLabel 9250 5300 2    50   Input ~ 0
SPI_DRV_CS#_E
Text GLabel 9250 6600 2    50   Input ~ 0
DRV_E_EN#
Text GLabel 9250 6700 2    50   Input ~ 0
DRV_E_DIR
Text GLabel 9250 6800 2    50   Input ~ 0
DRV_E_STEP
Wire Wire Line
	8450 6700 9250 6700
Wire Wire Line
	8450 6800 9250 6800
Text Label 8550 6600 0    50   ~ 0
DRV_E_EN#
Text Label 8550 6700 0    50   ~ 0
DRV_E_DIR
Text Label 8550 6800 0    50   ~ 0
DRV_E_STEP
Wire Wire Line
	9250 6600 8450 6600
Text Label 8550 5700 0    50   ~ 0
DRV_B_EN#
Wire Wire Line
	9250 5700 8450 5700
Wire Wire Line
	8450 4700 9250 4700
Wire Wire Line
	8450 4800 9250 4800
Wire Wire Line
	8450 5000 9250 5000
Wire Wire Line
	8450 4600 9250 4600
Wire Wire Line
	8450 5200 9250 5200
Wire Wire Line
	8450 5300 9250 5300
Wire Wire Line
	8450 5100 9250 5100
Wire Wire Line
	6350 4400 6900 4400
Wire Wire Line
	6350 4500 6900 4500
Text Label 6450 4400 0    50   ~ 0
USB_D+
Text Label 6450 4500 0    50   ~ 0
USB_D-
$Comp
L connector:J_GEN_4PIN-1COLX4ROW J3
U 1 1 5C7866A7
P 15450 4550
F 0 "J3" H 15700 4700 50  0000 C CNN
F 1 "B4B-XH-A" H 15600 4100 50  0000 L CNN
F 2 "connector_tht:JST_B4B-XH-A" H 15450 4550 50  0001 C CNN
F 3 "" H 15450 4550 50  0001 C CNN
	1    15450 4550
	1    0    0    -1  
$EndComp
Text Label 13900 4750 0    50   ~ 0
USB_D_CON+
Text Label 13900 4650 0    50   ~ 0
USB_D_CON-
Wire Wire Line
	15350 4000 15350 4550
Wire Wire Line
	15350 4550 15450 4550
$Comp
L sch_power:GND #PWR0113
U 1 1 5C79A342
P 15350 4950
F 0 "#PWR0113" H 15350 4850 50  0001 C CNN
F 1 "GND" H 15350 4850 50  0000 C CNN
F 2 "" H 15350 4950 50  0001 C CNN
F 3 "" H 15350 4950 50  0001 C CNN
	1    15350 4950
	1    0    0    -1  
$EndComp
Wire Wire Line
	15450 4850 15350 4850
Wire Wire Line
	15350 4850 15350 4950
Wire Wire Line
	6350 8200 7250 8200
Text Label 6450 8200 0    50   ~ 0
MCU_ISP_TRIGGER#
$Comp
L connector:J_GEN_2PIN-1COLX2ROW J4
U 1 1 5C7A76F3
P 15000 6550
F 0 "J4" H 15250 6700 50  0000 C CNN
F 1 "PINHEAD-02" H 15150 6300 50  0000 L CNN
F 2 "connector_tht:PINHEADER_2.54MM_2x1" H 15000 6550 50  0001 C CNN
F 3 "" H 15000 6550 50  0001 C CNN
	1    15000 6550
	1    0    0    -1  
$EndComp
$Comp
L sch_power:GND #PWR0114
U 1 1 5C7ABADF
P 14900 6750
F 0 "#PWR0114" H 14900 6650 50  0001 C CNN
F 1 "GND" H 14900 6650 50  0000 C CNN
F 2 "" H 14900 6750 50  0001 C CNN
F 3 "" H 14900 6750 50  0001 C CNN
	1    14900 6750
	1    0    0    -1  
$EndComp
Wire Wire Line
	15000 6650 14900 6650
Wire Wire Line
	14900 6650 14900 6750
Text Label 13800 6550 0    50   ~ 0
MCU_ISP_TRIGGER#
Wire Wire Line
	6900 3900 6350 3900
Text Label 6450 3900 0    50   ~ 0
THRM1
Wire Wire Line
	6900 4000 6350 4000
Text Label 6450 4000 0    50   ~ 0
THRM2
Wire Wire Line
	6900 4100 6350 4100
Text Label 6450 4100 0    50   ~ 0
THRM3
Wire Wire Line
	6900 3800 6350 3800
Text Label 6450 3800 0    50   ~ 0
THRM0
Wire Wire Line
	6350 2400 7050 2400
Wire Wire Line
	6350 2500 7050 2500
Wire Wire Line
	6350 2600 7050 2600
Wire Wire Line
	6350 2700 7050 2700
Text Label 6450 2400 0    50   ~ 0
SPI_SD_CS#
Text Label 6450 2500 0    50   ~ 0
SPI_SD_CLK
Text Label 6450 2600 0    50   ~ 0
SPI_SD_MISO
Text Label 6450 2700 0    50   ~ 0
SPI_SD_MOSI
Text GLabel 7050 2400 2    50   Input ~ 0
SPI_SD_CS#
Text GLabel 7050 2700 2    50   Input ~ 0
SPI_SD_MOSI
Text GLabel 7050 2600 2    50   Input ~ 0
SPI_SD_MISO
Text GLabel 7050 2500 2    50   Input ~ 0
SPI_SD_CLK
Text GLabel 3600 1650 0    50   Input ~ 0
MCU_RST#
Wire Wire Line
	3600 1650 3650 1650
Wire Wire Line
	3650 1650 3650 1800
Connection ~ 3650 1800
Wire Wire Line
	3650 1800 3700 1800
Wire Wire Line
	8450 3800 9250 3800
Text Label 8550 3800 0    50   ~ 0
EXP_BEEPER
Wire Wire Line
	9250 3900 8450 3900
Text Label 8550 3900 0    50   ~ 0
EXP_BTN_ENC
Wire Wire Line
	9250 4000 8450 4000
Text Label 8550 4000 0    50   ~ 0
EXP_BTN_EN1
Wire Wire Line
	9250 4100 8450 4100
Text Label 8550 4100 0    50   ~ 0
EXP_BTN_EN2
Wire Wire Line
	9250 4200 8450 4200
Text Label 8550 4200 0    50   ~ 0
EXP_SD_DETECT
Text Label 8550 4300 0    50   ~ 0
LCD_EN
Text Label 8550 4400 0    50   ~ 0
LCD_D4
Wire Wire Line
	8450 4500 9250 4500
Text Label 8550 4500 0    50   ~ 0
LCD_RS
Wire Wire Line
	9250 4300 8450 4300
Wire Wire Line
	9250 4400 8450 4400
Text GLabel 9250 4000 2    50   Input ~ 0
EXP_BTN_EN1
Text GLabel 9250 4100 2    50   Input ~ 0
EXP_BTN_EN2
Text GLabel 9250 4200 2    50   Input ~ 0
EXP_SD_DETECT
Text GLabel 9250 3800 2    50   Input ~ 0
EXP_BEEPER
Text GLabel 9250 3900 2    50   Input ~ 0
EXP_BTN_ENC
Text GLabel 9250 4300 2    50   Input ~ 0
LCD_EN
Text GLabel 9250 4400 2    50   Input ~ 0
LCD_D4
Text GLabel 9250 4500 2    50   Input ~ 0
LCD_RS
NoConn ~ 1850 5500
Wire Wire Line
	6350 1800 7050 1800
Wire Wire Line
	6350 1900 7050 1900
Wire Wire Line
	6350 2000 7050 2000
Wire Wire Line
	6350 2100 7050 2100
Text GLabel 7050 1800 2    50   Input ~ 0
I2C_SDA
Text GLabel 7050 1900 2    50   Input ~ 0
I2C_SCL
Text GLabel 7050 2000 2    50   Input ~ 0
UART_TXD
Text GLabel 7050 2100 2    50   Input ~ 0
UART_RXD
Text Label 6450 1800 0    50   ~ 0
I2C_SDA
Text Label 6450 1900 0    50   ~ 0
I2C_SCL
Text Label 6450 2000 0    50   ~ 0
UART_TXD
Text Label 6450 2100 0    50   ~ 0
UART_RXD
Text Notes 6550 2200 0    50   ~ 0
FREE GENERIC IO
Text Notes 6550 2300 0    50   ~ 0
FREE GENERIC IO
Text Notes 6550 2900 0    50   ~ 0
FREE GENERIC IO
Text Notes 6550 3000 0    50   ~ 0
FREE GENERIC IO
Text Notes 6550 3100 0    50   ~ 0
FREE GENERIC IO
Text Notes 6550 3200 0    50   ~ 0
FREE GENERIC IO
Text Notes 6550 3300 0    50   ~ 0
FREE GENERIC IO
Text Notes 6550 3400 0    50   ~ 0
FREE GENERIC IO
Text Notes 6550 3500 0    50   ~ 0
FREE GENERIC IO
Text Notes 6550 3600 0    50   ~ 0
FREE GENERIC IO
Text Notes 6550 3700 0    50   ~ 0
FREE GENERIC IO
Text Notes 6550 4200 0    50   ~ 0
FREE GENERIC IO
Text Notes 6550 4300 0    50   ~ 0
FREE GENERIC IO
Text Notes 6550 4700 0    50   ~ 0
FREE GENERIC IO
Text Notes 6550 4800 0    50   ~ 0
FREE GENERIC IO
Text Notes 6550 4900 0    50   ~ 0
FREE GENERIC IO
Text Notes 6550 5000 0    50   ~ 0
FREE GENERIC IO
Text Notes 6550 5100 0    50   ~ 0
FREE GENERIC IO
Text Notes 6550 5200 0    50   ~ 0
FREE GENERIC IO
Text Notes 6550 5300 0    50   ~ 0
FREE GENERIC IO
Text Notes 6550 5400 0    50   ~ 0
FREE GENERIC IO
Text Notes 6550 5500 0    50   ~ 0
FREE GENERIC IO
Text Notes 6550 5600 0    50   ~ 0
FREE GENERIC IO
Text Notes 6550 5700 0    50   ~ 0
FREE GENERIC IO
Text Notes 6550 5800 0    50   ~ 0
FREE GENERIC IO
Text Notes 6550 5900 0    50   ~ 0
FREE GENERIC IO
Text Notes 6550 6000 0    50   ~ 0
FREE GENERIC IO
Text Notes 6550 6100 0    50   ~ 0
FREE GENERIC IO
Text Notes 6550 6200 0    50   ~ 0
FREE GENERIC IO
Text Notes 6550 6900 0    50   ~ 0
FREE GENERIC IO
Text Notes 6550 7000 0    50   ~ 0
FREE GENERIC IO
Text Notes 6550 6300 0    50   ~ 0
FREE GENERIC IO
Text Notes 6550 6400 0    50   ~ 0
FREE GENERIC IO
Text Notes 6550 6500 0    50   ~ 0
FREE GENERIC IO
Text Notes 6550 7900 0    50   ~ 0
FREE GENERIC IO
Text Notes 6550 8000 0    50   ~ 0
FREE GENERIC IO
Text Notes 6550 8300 0    50   ~ 0
FREE GENERIC IO
Text Notes 6550 8400 0    50   ~ 0
FREE GENERIC IO
Text Notes 6550 8500 0    50   ~ 0
FREE GENERIC IO
Text Notes 6550 8700 0    50   ~ 0
FREE GENERIC IO
Text Notes 6550 8800 0    50   ~ 0
FREE GENERIC IO
Text Notes 6550 9000 0    50   ~ 0
FREE GENERIC IO
Text Notes 6550 9100 0    50   ~ 0
FREE GENERIC IO
$Comp
L active:D_TVS_ESD5V5U5ULC D1
U 1 1 5C39741A
P 15050 4950
F 0 "D1" V 15354 5038 50  0000 L CNN
F 1 "D_TVS_ESD5V5U5ULC" V 15445 5038 50  0000 L CNN
F 2 "ic_smt:SOIC95P290X250X110-6MD-INFINEON-SC74" V 15400 4680 50  0001 C CNN
F 3 "" V 15400 4680 50  0001 C CNN
	1    15050 4950
	0    1    1    0   
$EndComp
$Comp
L sch_power:GND #PWR0171
U 1 1 5C3A42B1
P 14650 5700
F 0 "#PWR0171" H 14650 5600 50  0001 C CNN
F 1 "GND" H 14650 5600 50  0000 C CNN
F 2 "" H 14650 5700 50  0001 C CNN
F 3 "" H 14650 5700 50  0001 C CNN
	1    14650 5700
	1    0    0    -1  
$EndComp
Wire Wire Line
	14650 5650 14650 5700
Wire Wire Line
	13750 4650 15050 4650
Wire Wire Line
	15050 4950 15050 4650
Connection ~ 15050 4650
Wire Wire Line
	15050 4650 15450 4650
Wire Wire Line
	14950 4950 14950 4750
Connection ~ 14950 4750
Wire Wire Line
	14950 4750 15450 4750
NoConn ~ 14850 4950
NoConn ~ 14750 4950
NoConn ~ 14650 4950
$Comp
L sch_power:GND #PWR01
U 1 1 5C41790C
P 2200 7150
F 0 "#PWR01" H 2200 7050 50  0001 C CNN
F 1 "GND" H 2200 7050 50  0000 C CNN
F 2 "" H 2200 7150 50  0001 C CNN
F 3 "" H 2200 7150 50  0001 C CNN
	1    2200 7150
	1    0    0    -1  
$EndComp
$Comp
L sch_power:GND #PWR02
U 1 1 5C41793F
P 2900 7150
F 0 "#PWR02" H 2900 7050 50  0001 C CNN
F 1 "GND" H 2900 7050 50  0000 C CNN
F 2 "" H 2900 7150 50  0001 C CNN
F 3 "" H 2900 7150 50  0001 C CNN
	1    2900 7150
	1    0    0    -1  
$EndComp
Wire Wire Line
	2850 6700 2900 6700
Wire Wire Line
	2900 6700 2900 7150
Wire Wire Line
	3700 6600 3100 6600
$Comp
L passive:XTAL_4PIN Q1
U 1 1 5C3F5ECB
P 2550 6650
F 0 "Q1" H 2550 6965 50  0000 C CNN
F 1 "12M_3.2X2.5" H 2550 6874 50  0000 C CNN
F 2 "misc:OSCC320X250X100-HD-EXT30" H 2550 6650 50  0001 C CNN
F 3 "" H 2550 6650 50  0001 C CNN
F 4 "https://cz.farnell.com/abracon/abm8g-106-12-000mhz-t/crystal-12mhz-10pf-3-2mm-x-2-5mm/dp/2889293" H 2550 6650 50  0001 C CNN "Source"
	1    2550 6650
	1    0    0    -1  
$EndComp
Wire Wire Line
	2250 6600 2200 6600
Wire Wire Line
	2200 6600 2200 7150
Wire Wire Line
	2000 6200 3700 6200
Wire Wire Line
	2000 6200 2000 6700
Wire Wire Line
	2250 6700 2000 6700
Connection ~ 2000 6700
Wire Wire Line
	2000 6700 2000 6900
Wire Wire Line
	2850 6600 3100 6600
Connection ~ 3100 6600
Wire Wire Line
	3100 6600 3100 6900
$Comp
L sch_power:V_3V3 #PWR03
U 1 1 5C3D89E8
P 14250 6300
F 0 "#PWR03" H 14250 6300 50  0001 C CNN
F 1 "V_3V3" H 14250 6450 50  0000 C CNN
F 2 "" H 14250 6300 50  0001 C CNN
F 3 "" H 14250 6300 50  0001 C CNN
	1    14250 6300
	1    0    0    -1  
$EndComp
Wire Wire Line
	13700 6550 14900 6550
$Comp
L passive:R R45
U 1 1 5C3F60B0
P 14550 6350
F 0 "R45" H 14660 6370 50  0000 L BNN
F 1 "10k" H 14660 6330 50  0000 L TNN
F 2 "discrete_smt:RESC1005X55_0402_IPC-B" H 14550 6350 50  0001 C CNN
F 3 "" H 14550 6350 50  0001 C CNN
	1    14550 6350
	1    0    0    -1  
$EndComp
Wire Wire Line
	14250 6300 14250 6350
Wire Wire Line
	14250 6350 14350 6350
Wire Wire Line
	14750 6350 14900 6350
Wire Wire Line
	14900 6350 14900 6550
Connection ~ 14900 6550
Wire Wire Line
	14900 6550 15000 6550
$Comp
L passive:R R43
U 1 1 5C40CE7A
P 13550 4650
F 0 "R43" H 13660 4670 50  0000 L BNN
F 1 "33R" H 13660 4630 50  0000 L TNN
F 2 "discrete_smt:RESC1005X55_0402_IPC-B" H 13550 4650 50  0001 C CNN
F 3 "" H 13550 4650 50  0001 C CNN
	1    13550 4650
	1    0    0    -1  
$EndComp
$Comp
L passive:R R44
U 1 1 5C40CEE4
P 13550 4850
F 0 "R44" H 13660 4870 50  0000 L BNN
F 1 "33R" H 13660 4830 50  0000 L TNN
F 2 "discrete_smt:RESC1005X55_0402_IPC-B" H 13550 4850 50  0001 C CNN
F 3 "" H 13550 4850 50  0001 C CNN
	1    13550 4850
	1    0    0    -1  
$EndComp
Wire Wire Line
	13850 4750 13850 4850
Wire Wire Line
	13850 4850 13750 4850
Text Label 12550 4850 0    50   ~ 0
USB_D+
Text Label 12550 4650 0    50   ~ 0
USB_D-
Wire Wire Line
	12500 4650 13250 4650
Wire Wire Line
	12500 4850 13100 4850
Text Label 6450 6600 0    50   ~ 0
LED_R
Wire Wire Line
	7150 6700 6350 6700
Text Label 6450 6700 0    50   ~ 0
LED_G
Wire Wire Line
	6350 6600 7150 6600
Text GLabel 7150 6600 2    50   Input ~ 0
LED_R
Text GLabel 7150 6700 2    50   Input ~ 0
LED_G
Wire Wire Line
	6350 6800 7150 6800
Text GLabel 7150 6800 2    50   Input ~ 0
LED_B
Text GLabel 7150 2800 2    50   Input ~ 0
PS_ON
Wire Wire Line
	6350 2800 7150 2800
Text Label 6450 2800 0    50   ~ 0
PS_ON_MCU
$Comp
L passive:C_NP_STK C50
U 1 1 5CAF34FA
P 13250 5150
F 0 "C50" H 13310 5170 40  0000 L BNN
F 1 "18pF" H 13310 5130 40  0000 L TNN
F 2 "discrete_smt:CAPC1005X55_0402_IPC-B" H 13250 5150 50  0001 C CNN
F 3 "" H 13250 5150 50  0001 C CNN
	1    13250 5150
	0    -1   -1   0   
$EndComp
$Comp
L passive:C_NP_STK C49
U 1 1 5CAF35BF
P 13100 5150
F 0 "C49" H 13160 5170 40  0000 L BNN
F 1 "18pF" H 13160 5130 40  0000 L TNN
F 2 "discrete_smt:CAPC1005X55_0402_IPC-B" H 13100 5150 50  0001 C CNN
F 3 "" H 13100 5150 50  0001 C CNN
	1    13100 5150
	0    -1   -1   0   
$EndComp
Wire Wire Line
	13250 4650 13250 5050
Connection ~ 13250 4650
Wire Wire Line
	13250 4650 13350 4650
Wire Wire Line
	13100 4850 13100 5050
Connection ~ 13100 4850
Wire Wire Line
	13100 4850 13350 4850
$Comp
L sch_power:GND #PWR060
U 1 1 5CB25325
P 13250 5300
F 0 "#PWR060" H 13250 5200 50  0001 C CNN
F 1 "GND" H 13250 5200 50  0000 C CNN
F 2 "" H 13250 5300 50  0001 C CNN
F 3 "" H 13250 5300 50  0001 C CNN
	1    13250 5300
	1    0    0    -1  
$EndComp
$Comp
L sch_power:GND #PWR059
U 1 1 5CB25362
P 13100 5300
F 0 "#PWR059" H 13100 5200 50  0001 C CNN
F 1 "GND" H 13100 5200 50  0000 C CNN
F 2 "" H 13100 5300 50  0001 C CNN
F 3 "" H 13100 5300 50  0001 C CNN
	1    13100 5300
	1    0    0    -1  
$EndComp
Wire Wire Line
	13100 5250 13100 5300
Wire Wire Line
	13250 5250 13250 5300
$Comp
L active:PFET Q10
U 1 1 5CB3712A
P 13300 4250
F 0 "Q10" H 13330 4300 50  0000 L CNN
F 1 "BSS84P" H 13330 4200 50  0000 L CNN
F 2 "ic_smt:SOT-23_ONSEMI_2N7002" H 13300 4250 50  0001 C CNN
F 3 "" H 13300 4250 50  0001 C CNN
	1    13300 4250
	1    0    0    1   
$EndComp
$Comp
L sch_power:V_3V3 #PWR061
U 1 1 5CB37307
P 13300 4050
F 0 "#PWR061" H 13300 4050 50  0001 C CNN
F 1 "V_3V3" H 13300 4200 50  0000 C CNN
F 2 "" H 13300 4050 50  0001 C CNN
F 3 "" H 13300 4050 50  0001 C CNN
	1    13300 4050
	1    0    0    -1  
$EndComp
Wire Wire Line
	13300 4050 13300 4100
Wire Wire Line
	13850 4750 14550 4750
$Comp
L passive:R R89
U 1 1 5CB99159
P 13550 4450
F 0 "R89" H 13660 4470 50  0000 L BNN
F 1 "1k5/0402" H 13660 4430 50  0000 L TNN
F 2 "discrete_smt:RESC1005X55_0402_IPC-B" H 13550 4450 50  0001 C CNN
F 3 "" H 13550 4450 50  0001 C CNN
	1    13550 4450
	1    0    0    -1  
$EndComp
Connection ~ 14550 4750
Wire Wire Line
	14550 4750 14950 4750
Wire Wire Line
	14550 4450 14550 4750
Wire Wire Line
	13750 4450 14550 4450
Wire Wire Line
	13300 4400 13300 4450
Wire Wire Line
	13300 4450 13350 4450
Wire Wire Line
	13150 4200 12500 4200
Text Label 12550 4200 0    50   ~ 0
USB_CONNECT
$Comp
L sch_power:V_5V0_USB #PWR0112
U 1 1 5CC57F23
P 15050 3950
F 0 "#PWR0112" H 15050 3950 50  0001 C CNN
F 1 "V_5V0_USB" H 15050 4100 50  0000 C CNN
F 2 "" H 15050 3950 50  0001 C CNN
F 3 "" H 15050 3950 50  0001 C CNN
	1    15050 3950
	1    0    0    -1  
$EndComp
Wire Wire Line
	15350 4000 15200 4000
Wire Wire Line
	15050 4000 15050 3950
$Comp
L passive:C_NP_STK C51
U 1 1 5CC907C5
P 15050 4300
F 0 "C51" H 15110 4320 40  0000 L BNN
F 1 "100nF" H 15110 4280 40  0000 L TNN
F 2 "discrete_smt:CAPC1005X55_0402_IPC-B" H 15050 4300 50  0001 C CNN
F 3 "" H 15050 4300 50  0001 C CNN
	1    15050 4300
	0    -1   -1   0   
$EndComp
$Comp
L passive:C_NP_STK C52
U 1 1 5CC908F5
P 15200 4300
F 0 "C52" H 15260 4320 40  0000 L BNN
F 1 "1uF" H 15260 4280 40  0000 L TNN
F 2 "discrete_smt:CAPC1005X55_0402_IPC-B" H 15200 4300 50  0001 C CNN
F 3 "" H 15200 4300 50  0001 C CNN
	1    15200 4300
	0    -1   -1   0   
$EndComp
Wire Wire Line
	15200 4200 15200 4000
Connection ~ 15200 4000
Wire Wire Line
	15200 4000 15050 4000
Wire Wire Line
	15050 4200 15050 4000
Connection ~ 15050 4000
$Comp
L sch_power:GND #PWR0195
U 1 1 5CCA3B39
P 15050 4450
F 0 "#PWR0195" H 15050 4350 50  0001 C CNN
F 1 "GND" H 15050 4350 50  0000 C CNN
F 2 "" H 15050 4450 50  0001 C CNN
F 3 "" H 15050 4450 50  0001 C CNN
	1    15050 4450
	1    0    0    -1  
$EndComp
Wire Wire Line
	15050 4400 15050 4450
$Comp
L sch_power:GND #PWR0196
U 1 1 5CCAD627
P 15200 4450
F 0 "#PWR0196" H 15200 4350 50  0001 C CNN
F 1 "GND" H 15200 4350 50  0000 C CNN
F 2 "" H 15200 4450 50  0001 C CNN
F 3 "" H 15200 4450 50  0001 C CNN
	1    15200 4450
	1    0    0    -1  
$EndComp
Wire Wire Line
	15200 4400 15200 4450
Text Label 6450 8100 0    50   ~ 0
USB_CONNECT
Wire Wire Line
	6350 8100 7250 8100
Text Label 6450 6800 0    50   ~ 0
LED_B
$Comp
L connector:J_GEN_2PIN-1COLX2ROW J30
U 1 1 5CE0F36B
P 15250 1150
F 0 "J30" H 15500 1300 50  0000 C CNN
F 1 "PINHEAD-02" H 15400 900 50  0000 L CNN
F 2 "connector_tht:PINHEADER_2.54MM_2x1" H 15250 1150 50  0001 C CNN
F 3 "" H 15250 1150 50  0001 C CNN
	1    15250 1150
	1    0    0    -1  
$EndComp
$Comp
L passive:R R92
U 1 1 5CE0F828
P 14000 1600
F 0 "R92" H 14110 1620 50  0000 L BNN
F 1 "4k7" H 14110 1580 50  0000 L TNN
F 2 "discrete_smt:RESC1005X55_0402_IPC-B" H 14000 1600 50  0001 C CNN
F 3 "" H 14000 1600 50  0001 C CNN
	1    14000 1600
	0    -1   -1   0   
$EndComp
$Comp
L passive:C_NP_STK C56
U 1 1 5CE0F930
P 14000 2700
F 0 "C56" H 14060 2720 40  0000 L BNN
F 1 "10uF" H 14060 2680 40  0000 L TNN
F 2 "discrete_smt:CAPC1005X55_0402_IPC-B" H 14000 2700 50  0001 C CNN
F 3 "" H 14000 2700 50  0001 C CNN
	1    14000 2700
	0    -1   -1   0   
$EndComp
$Comp
L sch_power:V_3V3 #PWR0197
U 1 1 5CE0FE31
P 12750 1100
F 0 "#PWR0197" H 12750 1100 50  0001 C CNN
F 1 "V_3V3" H 12750 1250 50  0000 C CNN
F 2 "" H 12750 1100 50  0001 C CNN
F 3 "" H 12750 1100 50  0001 C CNN
	1    12750 1100
	1    0    0    -1  
$EndComp
Wire Wire Line
	14000 1800 14000 1950
$Comp
L passive:FB FB2
U 1 1 5CE23ACC
P 13100 1150
F 0 "FB2" H 13210 1170 40  0000 L BNN
F 1 "600R/0603" H 13210 1130 40  0000 L TNN
F 2 "discrete_smt:RESC1608X50N_0603_WAVEPAD" H 13100 1150 50  0001 C CNN
F 3 "" H 13100 1150 50  0001 C CNN
	1    13100 1150
	1    0    0    -1  
$EndComp
Wire Wire Line
	13300 1150 13700 1150
Wire Wire Line
	14000 1150 14000 1400
$Comp
L sch_power:GND #PWR0198
U 1 1 5CE3865E
P 14000 2850
F 0 "#PWR0198" H 14000 2750 50  0001 C CNN
F 1 "GND" H 14000 2750 50  0000 C CNN
F 2 "" H 14000 2850 50  0001 C CNN
F 3 "" H 14000 2850 50  0001 C CNN
	1    14000 2850
	1    0    0    -1  
$EndComp
Wire Wire Line
	14000 2800 14000 2850
$Comp
L passive:C_NP_STK C54
U 1 1 5CE42C2F
P 12750 1500
F 0 "C54" H 12810 1520 40  0000 L BNN
F 1 "100nF" H 12810 1480 40  0000 L TNN
F 2 "discrete_smt:CAPC1005X55_0402_IPC-B" H 12750 1500 50  0001 C CNN
F 3 "" H 12750 1500 50  0001 C CNN
	1    12750 1500
	0    -1   -1   0   
$EndComp
$Comp
L sch_power:GND #PWR0199
U 1 1 5CE4D25B
P 12750 1650
F 0 "#PWR0199" H 12750 1550 50  0001 C CNN
F 1 "GND" H 12750 1550 50  0000 C CNN
F 2 "" H 12750 1650 50  0001 C CNN
F 3 "" H 12750 1650 50  0001 C CNN
	1    12750 1650
	1    0    0    -1  
$EndComp
Wire Wire Line
	12750 1600 12750 1650
$Comp
L passive:C_NP_STK C55
U 1 1 5CE57874
P 13700 1500
F 0 "C55" H 13760 1520 40  0000 L BNN
F 1 "100nF" H 13760 1480 40  0000 L TNN
F 2 "discrete_smt:CAPC1005X55_0402_IPC-B" H 13700 1500 50  0001 C CNN
F 3 "" H 13700 1500 50  0001 C CNN
	1    13700 1500
	0    -1   -1   0   
$EndComp
Wire Wire Line
	13700 1150 13700 1400
$Comp
L sch_power:GND #PWR0200
U 1 1 5CE5787C
P 13700 1650
F 0 "#PWR0200" H 13700 1550 50  0001 C CNN
F 1 "GND" H 13700 1550 50  0000 C CNN
F 2 "" H 13700 1650 50  0001 C CNN
F 3 "" H 13700 1650 50  0001 C CNN
	1    13700 1650
	1    0    0    -1  
$EndComp
Wire Wire Line
	13700 1600 13700 1650
$Comp
L passive:R R93
U 1 1 5CE6208E
P 14200 1600
F 0 "R93" H 14310 1620 50  0000 L BNN
F 1 "4k7" H 14310 1580 50  0000 L TNN
F 2 "discrete_smt:RESC1005X55_0402_IPC-B" H 14200 1600 50  0001 C CNN
F 3 "" H 14200 1600 50  0001 C CNN
	1    14200 1600
	0    -1   -1   0   
$EndComp
$Comp
L passive:C_NP_STK C57
U 1 1 5CE62095
P 14200 2700
F 0 "C57" H 14260 2720 40  0000 L BNN
F 1 "10uF" H 14260 2680 40  0000 L TNN
F 2 "discrete_smt:CAPC1005X55_0402_IPC-B" H 14200 2700 50  0001 C CNN
F 3 "" H 14200 2700 50  0001 C CNN
	1    14200 2700
	0    -1   -1   0   
$EndComp
Wire Wire Line
	14200 1800 14200 2050
Wire Wire Line
	14200 1150 14200 1400
$Comp
L sch_power:GND #PWR0201
U 1 1 5CE6209E
P 14200 2850
F 0 "#PWR0201" H 14200 2750 50  0001 C CNN
F 1 "GND" H 14200 2750 50  0000 C CNN
F 2 "" H 14200 2850 50  0001 C CNN
F 3 "" H 14200 2850 50  0001 C CNN
	1    14200 2850
	1    0    0    -1  
$EndComp
Wire Wire Line
	14200 2800 14200 2850
$Comp
L passive:R R94
U 1 1 5CE6CBA3
P 14400 1600
F 0 "R94" H 14510 1620 50  0000 L BNN
F 1 "4k7" H 14510 1580 50  0000 L TNN
F 2 "discrete_smt:RESC1005X55_0402_IPC-B" H 14400 1600 50  0001 C CNN
F 3 "" H 14400 1600 50  0001 C CNN
	1    14400 1600
	0    -1   -1   0   
$EndComp
$Comp
L passive:C_NP_STK C58
U 1 1 5CE6CBAA
P 14400 2700
F 0 "C58" H 14460 2720 40  0000 L BNN
F 1 "10uF" H 14460 2680 40  0000 L TNN
F 2 "discrete_smt:CAPC1005X55_0402_IPC-B" H 14400 2700 50  0001 C CNN
F 3 "" H 14400 2700 50  0001 C CNN
	1    14400 2700
	0    -1   -1   0   
$EndComp
Wire Wire Line
	14400 1800 14400 2150
Wire Wire Line
	14400 1150 14400 1400
$Comp
L sch_power:GND #PWR0202
U 1 1 5CE6CBB3
P 14400 2850
F 0 "#PWR0202" H 14400 2750 50  0001 C CNN
F 1 "GND" H 14400 2750 50  0000 C CNN
F 2 "" H 14400 2850 50  0001 C CNN
F 3 "" H 14400 2850 50  0001 C CNN
	1    14400 2850
	1    0    0    -1  
$EndComp
Wire Wire Line
	14400 2800 14400 2850
$Comp
L passive:R R95
U 1 1 5CE77ACA
P 14600 1600
F 0 "R95" H 14710 1620 50  0000 L BNN
F 1 "4k7" H 14710 1580 50  0000 L TNN
F 2 "discrete_smt:RESC1005X55_0402_IPC-B" H 14600 1600 50  0001 C CNN
F 3 "" H 14600 1600 50  0001 C CNN
	1    14600 1600
	0    -1   -1   0   
$EndComp
$Comp
L passive:C_NP_STK C59
U 1 1 5CE77AD1
P 14600 2700
F 0 "C59" H 14660 2720 40  0000 L BNN
F 1 "10uF" H 14660 2680 40  0000 L TNN
F 2 "discrete_smt:CAPC1005X55_0402_IPC-B" H 14600 2700 50  0001 C CNN
F 3 "" H 14600 2700 50  0001 C CNN
	1    14600 2700
	0    -1   -1   0   
$EndComp
Wire Wire Line
	14600 1800 14600 2250
Wire Wire Line
	14600 1150 14600 1400
$Comp
L sch_power:GND #PWR0203
U 1 1 5CE77ADA
P 14600 2850
F 0 "#PWR0203" H 14600 2750 50  0001 C CNN
F 1 "GND" H 14600 2750 50  0000 C CNN
F 2 "" H 14600 2850 50  0001 C CNN
F 3 "" H 14600 2850 50  0001 C CNN
	1    14600 2850
	1    0    0    -1  
$EndComp
Wire Wire Line
	14600 2800 14600 2850
Wire Wire Line
	14000 1150 14200 1150
Connection ~ 14000 1150
Wire Wire Line
	14200 1150 14400 1150
Connection ~ 14200 1150
Wire Wire Line
	14400 1150 14600 1150
Connection ~ 14400 1150
$Comp
L connector:J_GEN_2PIN-1COLX2ROW J31
U 1 1 5CEB07BB
P 15250 1650
F 0 "J31" H 15500 1800 50  0000 C CNN
F 1 "PINHEAD-02" H 15400 1400 50  0000 L CNN
F 2 "connector_tht:PINHEADER_2.54MM_2x1" H 15250 1650 50  0001 C CNN
F 3 "" H 15250 1650 50  0001 C CNN
	1    15250 1650
	1    0    0    -1  
$EndComp
$Comp
L connector:J_GEN_2PIN-1COLX2ROW J32
U 1 1 5CEB0837
P 15250 2150
F 0 "J32" H 15500 2300 50  0000 C CNN
F 1 "PINHEAD-02" H 15400 1900 50  0000 L CNN
F 2 "connector_tht:PINHEADER_2.54MM_2x1" H 15250 2150 50  0001 C CNN
F 3 "" H 15250 2150 50  0001 C CNN
	1    15250 2150
	1    0    0    -1  
$EndComp
$Comp
L connector:J_GEN_2PIN-1COLX2ROW J33
U 1 1 5CEB08A9
P 15250 2650
F 0 "J33" H 15500 2800 50  0000 C CNN
F 1 "PINHEAD-02" H 15400 2400 50  0000 L CNN
F 2 "connector_tht:PINHEADER_2.54MM_2x1" H 15250 2650 50  0001 C CNN
F 3 "" H 15250 2650 50  0001 C CNN
	1    15250 2650
	1    0    0    -1  
$EndComp
$Comp
L sch_power:GND #PWR0204
U 1 1 5CEBC41B
P 15150 2850
F 0 "#PWR0204" H 15150 2750 50  0001 C CNN
F 1 "GND" H 15150 2750 50  0000 C CNN
F 2 "" H 15150 2850 50  0001 C CNN
F 3 "" H 15150 2850 50  0001 C CNN
	1    15150 2850
	1    0    0    -1  
$EndComp
Wire Wire Line
	15250 2750 15150 2750
Wire Wire Line
	15150 2750 15150 2850
Wire Wire Line
	15250 2250 15150 2250
Wire Wire Line
	15150 2250 15150 2750
Connection ~ 15150 2750
Wire Wire Line
	15250 1750 15150 1750
Wire Wire Line
	15150 1750 15150 2250
Connection ~ 15150 2250
Wire Wire Line
	15250 1250 15150 1250
Wire Wire Line
	15150 1250 15150 1750
Connection ~ 15150 1750
Connection ~ 13700 1150
Wire Wire Line
	13700 1150 14000 1150
Wire Wire Line
	15250 2650 15050 2650
Wire Wire Line
	15050 2650 15050 2250
Wire Wire Line
	15050 2250 14600 2250
Connection ~ 14600 2250
Wire Wire Line
	14600 2250 14600 2600
Wire Wire Line
	15250 2150 14400 2150
Connection ~ 14400 2150
Wire Wire Line
	14400 2150 14400 2600
Wire Wire Line
	15250 1650 15050 1650
Wire Wire Line
	15050 1650 15050 2050
Wire Wire Line
	15050 2050 14200 2050
Connection ~ 14200 2050
Wire Wire Line
	14200 2050 14200 2600
Wire Wire Line
	15250 1150 14950 1150
Wire Wire Line
	14950 1150 14950 1950
Wire Wire Line
	14950 1950 14000 1950
Connection ~ 14000 1950
Wire Wire Line
	14000 1950 14000 2600
Text Label 13850 1150 0    50   ~ 0
V_3V3_THRM
Wire Wire Line
	12750 1100 12750 1150
Wire Wire Line
	12750 1150 12900 1150
Wire Wire Line
	12750 1150 12750 1400
Connection ~ 12750 1150
Text Label 13450 2050 0    50   ~ 0
THRM1
Text Label 13450 2150 0    50   ~ 0
THRM2
Text Label 13450 2250 0    50   ~ 0
THRM3
Text Label 13450 1950 0    50   ~ 0
THRM0
Wire Wire Line
	13350 2250 14600 2250
Wire Wire Line
	13350 2150 14400 2150
Wire Wire Line
	13350 2050 14200 2050
Wire Wire Line
	13350 1950 14000 1950
Text Notes 12700 800  0    100  ~ 0
Thermistor interfaces
Text Notes 12700 3700 0    100  ~ 0
USB Interface
Text Notes 13050 6250 0    100  ~ 0
ISP Trigger
$Comp
L sch_power:GND #PWR0205
U 1 1 5D0B2959
P 15250 9700
F 0 "#PWR0205" H 15250 9600 50  0001 C CNN
F 1 "GND" H 15250 9600 50  0000 C CNN
F 2 "" H 15250 9700 50  0001 C CNN
F 3 "" H 15250 9700 50  0001 C CNN
	1    15250 9700
	-1   0    0    -1  
$EndComp
Wire Wire Line
	15150 9600 15250 9600
Wire Wire Line
	15250 9600 15250 9700
NoConn ~ 15150 9300
NoConn ~ 13200 9600
NoConn ~ 13200 9400
NoConn ~ 13200 9300
NoConn ~ 13200 9200
NoConn ~ 13200 9000
NoConn ~ 13200 9100
$Comp
L sch_power:V_3V3 #PWR0206
U 1 1 5D15F4C3
P 15400 7950
F 0 "#PWR0206" H 15400 7950 50  0001 C CNN
F 1 "V_3V3" H 15400 8100 50  0000 C CNN
F 2 "" H 15400 7950 50  0001 C CNN
F 3 "" H 15400 7950 50  0001 C CNN
	1    15400 7950
	1    0    0    -1  
$EndComp
$Comp
L passive:C_NP C60
U 1 1 5D15F599
P 15400 8250
F 0 "C60" H 15460 8270 50  0000 L BNN
F 1 "1uF" H 15460 8230 50  0000 L TNN
F 2 "discrete_smt:CAPC1005X55_0402_IPC-B" H 15400 8250 50  0001 C CNN
F 3 "" H 15400 8250 50  0001 C CNN
	1    15400 8250
	0    -1   -1   0   
$EndComp
Wire Wire Line
	15400 7950 15400 8000
Wire Wire Line
	15150 8500 15250 8500
Wire Wire Line
	15250 8500 15250 8000
Wire Wire Line
	15250 8000 15400 8000
Connection ~ 15400 8000
Wire Wire Line
	15400 8000 15400 8150
$Comp
L sch_power:GND #PWR0207
U 1 1 5D1A82A9
P 15400 8400
F 0 "#PWR0207" H 15400 8300 50  0001 C CNN
F 1 "GND" H 15400 8300 50  0000 C CNN
F 2 "" H 15400 8400 50  0001 C CNN
F 3 "" H 15400 8400 50  0001 C CNN
	1    15400 8400
	1    0    0    -1  
$EndComp
Wire Wire Line
	15400 8350 15400 8400
Wire Wire Line
	15150 8700 15650 8700
Wire Wire Line
	15150 8900 15850 8900
$Comp
L passive:R R96
U 1 1 5D220148
P 15650 8300
F 0 "R96" H 15760 8320 50  0000 L BNN
F 1 "10k" H 15760 8280 50  0000 L TNN
F 2 "discrete_smt:RESC1005X55_0402_IPC-B" H 15650 8300 50  0001 C CNN
F 3 "" H 15650 8300 50  0001 C CNN
	1    15650 8300
	0    -1   -1   0   
$EndComp
$Comp
L passive:R R97
U 1 1 5D22024E
P 15850 8300
F 0 "R97" H 15960 8320 50  0000 L BNN
F 1 "10k" H 15960 8280 50  0000 L TNN
F 2 "discrete_smt:RESC1005X55_0402_IPC-B" H 15850 8300 50  0001 C CNN
F 3 "" H 15850 8300 50  0001 C CNN
	1    15850 8300
	0    -1   -1   0   
$EndComp
Wire Wire Line
	15400 8000 15650 8000
Wire Wire Line
	15650 8000 15650 8100
Wire Wire Line
	15650 8000 15850 8000
Wire Wire Line
	15850 8000 15850 8100
Connection ~ 15650 8000
Wire Wire Line
	15650 8500 15650 8700
Wire Wire Line
	15850 8500 15850 8900
Text Label 15200 8700 0    50   ~ 0
ESP_RST#
Text Label 15200 8900 0    50   ~ 0
ESP_EN
Text Label 12350 8500 0    50   ~ 0
UART_RXD
Text Label 12350 8600 0    50   ~ 0
UART_TXD
Wire Wire Line
	13200 8500 12950 8500
Wire Wire Line
	13200 8600 13050 8600
Wire Wire Line
	13200 7800 12950 7800
Wire Wire Line
	12950 7800 12950 8500
Connection ~ 12950 8500
Wire Wire Line
	12950 8500 12300 8500
Wire Wire Line
	13200 7900 13050 7900
Wire Wire Line
	13050 7900 13050 8600
Connection ~ 13050 8600
Wire Wire Line
	13050 8600 12300 8600
$Comp
L connector:J_GEN_3PIN-1COLX3ROW J29
U 1 1 5D3103DD
P 13200 7800
F 0 "J29" H 13450 7950 50  0000 C CNN
F 1 "J_GEN_3PIN-1COLX3ROW" H 13350 7450 50  0000 L CNN
F 2 "connector_tht:PINHEADER_2.54MM_1x3" H 13200 7800 50  0001 C CNN
F 3 "" H 13200 7800 50  0001 C CNN
	1    13200 7800
	1    0    0    -1  
$EndComp
$Comp
L sch_power:GND #PWR0208
U 1 1 5D353050
P 13150 8100
F 0 "#PWR0208" H 13150 8000 50  0001 C CNN
F 1 "GND" H 13150 8000 50  0000 C CNN
F 2 "" H 13150 8100 50  0001 C CNN
F 3 "" H 13150 8100 50  0001 C CNN
	1    13150 8100
	1    0    0    -1  
$EndComp
Wire Wire Line
	13200 8000 13150 8000
Wire Wire Line
	13150 8000 13150 8100
Text Notes 13650 7550 0    100  ~ 0
ESP8266 ESP-07
$Comp
L sch_power:GND #PWR0209
U 1 1 5D3CDE67
P 10900 10950
F 0 "#PWR0209" H 10900 10850 50  0001 C CNN
F 1 "GND" H 10900 10850 50  0000 C CNN
F 2 "" H 10900 10950 50  0001 C CNN
F 3 "" H 10900 10950 50  0001 C CNN
	1    10900 10950
	1    0    0    -1  
$EndComp
Wire Wire Line
	11000 10850 10900 10850
Wire Wire Line
	10900 10850 10900 10950
Text Label 9700 10650 0    50   ~ 0
I2C_SDA
Text Label 9700 10750 0    50   ~ 0
I2C_SCL
$Comp
L connector:J_GEN_4PIN-1COLX4ROW J28
U 1 1 5D40251E
P 11000 10550
F 0 "J28" H 11250 10700 50  0000 C CNN
F 1 "PINHEAD_X4" H 11150 10100 50  0000 L CNN
F 2 "connector_tht:PINHEADER_2.54MM_1x4" H 11000 10550 50  0001 C CNN
F 3 "" H 11000 10550 50  0001 C CNN
	1    11000 10550
	1    0    0    -1  
$EndComp
Wire Wire Line
	11000 10650 10200 10650
$Comp
L sch_power:V_3V3 #PWR0210
U 1 1 5D438580
P 10650 9950
F 0 "#PWR0210" H 10650 9950 50  0001 C CNN
F 1 "V_3V3" H 10650 10100 50  0000 C CNN
F 2 "" H 10650 9950 50  0001 C CNN
F 3 "" H 10650 9950 50  0001 C CNN
	1    10650 9950
	1    0    0    -1  
$EndComp
Wire Wire Line
	10650 9950 10650 10050
Wire Wire Line
	10650 10050 10900 10050
$Comp
L passive:R R91
U 1 1 5D44A7CF
P 10400 10350
F 0 "R91" H 10510 10370 50  0000 L BNN
F 1 "3k3" H 10510 10330 50  0000 L TNN
F 2 "discrete_smt:RESC1005X55_0402_IPC-B" H 10400 10350 50  0001 C CNN
F 3 "" H 10400 10350 50  0001 C CNN
	1    10400 10350
	0    -1   -1   0   
$EndComp
$Comp
L passive:R R90
U 1 1 5D44A8F7
P 10200 10350
F 0 "R90" H 10310 10370 50  0000 L BNN
F 1 "3k3" H 10310 10330 50  0000 L TNN
F 2 "discrete_smt:RESC1005X55_0402_IPC-B" H 10200 10350 50  0001 C CNN
F 3 "" H 10200 10350 50  0001 C CNN
	1    10200 10350
	0    -1   -1   0   
$EndComp
Wire Wire Line
	9600 10750 10400 10750
Wire Wire Line
	10200 10550 10200 10650
Connection ~ 10200 10650
Wire Wire Line
	10200 10650 9600 10650
Wire Wire Line
	10400 10550 10400 10750
Connection ~ 10400 10750
Wire Wire Line
	10400 10750 11000 10750
$Comp
L sch_power:V_3V3 #PWR0211
U 1 1 5D492AE8
P 10300 9950
F 0 "#PWR0211" H 10300 9950 50  0001 C CNN
F 1 "V_3V3" H 10300 10100 50  0000 C CNN
F 2 "" H 10300 9950 50  0001 C CNN
F 3 "" H 10300 9950 50  0001 C CNN
	1    10300 9950
	1    0    0    -1  
$EndComp
Wire Wire Line
	10300 9950 10300 10000
Wire Wire Line
	10300 10000 10200 10000
Wire Wire Line
	10200 10000 10200 10150
Wire Wire Line
	10300 10000 10400 10000
Wire Wire Line
	10400 10000 10400 10150
Connection ~ 10300 10000
Wire Wire Line
	10900 10050 10900 10550
Wire Wire Line
	10900 10550 11000 10550
$Comp
L passive:C_NP_STK C53
U 1 1 5D540986
P 10650 10300
F 0 "C53" H 10710 10320 40  0000 L BNN
F 1 "1uF" H 10710 10280 40  0000 L TNN
F 2 "discrete_smt:CAPC1005X55_0402_IPC-B" H 10650 10300 50  0001 C CNN
F 3 "" H 10650 10300 50  0001 C CNN
	1    10650 10300
	0    -1   -1   0   
$EndComp
Wire Wire Line
	10650 10200 10650 10050
$Comp
L sch_power:GND #PWR0212
U 1 1 5D54098E
P 10650 10450
F 0 "#PWR0212" H 10650 10350 50  0001 C CNN
F 1 "GND" H 10650 10350 50  0000 C CNN
F 2 "" H 10650 10450 50  0001 C CNN
F 3 "" H 10650 10450 50  0001 C CNN
	1    10650 10450
	1    0    0    -1  
$EndComp
Wire Wire Line
	10650 10400 10650 10450
Connection ~ 10650 10050
Text Notes 10100 9650 0    100  ~ 0
I2C Header
$Comp
L passive:R R98
U 1 1 5C406FEC
P 12150 8800
F 0 "R98" H 12260 8820 50  0000 L BNN
F 1 "10k" H 12260 8780 50  0000 L TNN
F 2 "discrete_smt:RESC1005X55_0402_IPC-B" H 12150 8800 50  0001 C CNN
F 3 "" H 12150 8800 50  0001 C CNN
	1    12150 8800
	1    0    0    -1  
$EndComp
$Comp
L passive:R R99
U 1 1 5C40724C
P 12150 9300
F 0 "R99" H 12260 9320 50  0000 L BNN
F 1 "10k" H 12260 9280 50  0000 L TNN
F 2 "discrete_smt:RESC1005X55_0402_IPC-B" H 12150 9300 50  0001 C CNN
F 3 "" H 12150 9300 50  0001 C CNN
	1    12150 9300
	1    0    0    -1  
$EndComp
$Comp
L passive:R R100
U 1 1 5C4072F8
P 12150 9500
F 0 "R100" H 12260 9520 50  0000 L BNN
F 1 "10k" H 12260 9480 50  0000 L TNN
F 2 "discrete_smt:RESC1005X55_0402_IPC-B" H 12150 9500 50  0001 C CNN
F 3 "" H 12150 9500 50  0001 C CNN
	1    12150 9500
	1    0    0    -1  
$EndComp
$Comp
L sch_power:GND #PWR064
U 1 1 5C407D39
P 11850 9600
F 0 "#PWR064" H 11850 9500 50  0001 C CNN
F 1 "GND" H 11850 9500 50  0000 C CNN
F 2 "" H 11850 9600 50  0001 C CNN
F 3 "" H 11850 9600 50  0001 C CNN
	1    11850 9600
	1    0    0    -1  
$EndComp
Wire Wire Line
	11950 9500 11850 9500
Wire Wire Line
	11850 9500 11850 9600
$Comp
L module:ESP8266_ESP-07 MOD6
U 1 1 5D0B257B
P 15150 8500
F 0 "MOD6" H 16100 8650 50  0000 C CNN
F 1 "ESP8266_ESP-07" H 16100 7250 50  0000 C CNN
F 2 "misc:MODULE_ESP-07" H 15150 8500 50  0001 C CNN
F 3 "" H 15150 8500 50  0001 C CNN
	1    15150 8500
	-1   0    0    -1  
$EndComp
Wire Wire Line
	12350 8800 12850 8800
Wire Wire Line
	13200 8900 13000 8900
Wire Wire Line
	13000 8900 13000 9300
Wire Wire Line
	13000 9300 12350 9300
$Comp
L sch_power:V_3V3 #PWR063
U 1 1 5C482912
P 11850 9250
F 0 "#PWR063" H 11850 9250 50  0001 C CNN
F 1 "V_3V3" H 11850 9400 50  0000 C CNN
F 2 "" H 11850 9250 50  0001 C CNN
F 3 "" H 11850 9250 50  0001 C CNN
	1    11850 9250
	1    0    0    -1  
$EndComp
Wire Wire Line
	11850 8750 11850 8800
Wire Wire Line
	11850 8800 11950 8800
Wire Wire Line
	11950 9300 11850 9300
Wire Wire Line
	11850 9250 11850 9300
$Comp
L sch_power:V_3V3 #PWR062
U 1 1 5C5188BC
P 11850 8750
F 0 "#PWR062" H 11850 8750 50  0001 C CNN
F 1 "V_3V3" H 11850 8900 50  0000 C CNN
F 2 "" H 11850 8750 50  0001 C CNN
F 3 "" H 11850 8750 50  0001 C CNN
	1    11850 8750
	1    0    0    -1  
$EndComp
$Comp
L sch_power:GND #PWR065
U 1 1 5C583998
P 12850 9100
F 0 "#PWR065" H 12850 9000 50  0001 C CNN
F 1 "GND" H 12850 9000 50  0000 C CNN
F 2 "" H 12850 9100 50  0001 C CNN
F 3 "" H 12850 9100 50  0001 C CNN
	1    12850 9100
	1    0    0    -1  
$EndComp
Wire Wire Line
	12800 9050 12850 9050
Wire Wire Line
	12850 9050 12850 9100
Wire Wire Line
	12800 8950 12850 8950
Wire Wire Line
	12850 8950 12850 8800
Connection ~ 12850 8800
Wire Wire Line
	12850 8800 13200 8800
$Comp
L misc:TESTPOINT TP2
U 1 1 5C6095E2
P 12800 8950
F 0 "TP2" H 13050 8950 50  0000 C CNN
F 1 "TESTPOINT" H 13350 8950 50  0001 C CNN
F 2 "misc:TESTPOINT_RND_1mm_SingleSide" H 12800 8950 50  0001 C CNN
F 3 "" H 12800 8950 50  0001 C CNN
	1    12800 8950
	-1   0    0    -1  
$EndComp
$Comp
L misc:TESTPOINT TP3
U 1 1 5C609BF0
P 12800 9050
F 0 "TP3" H 13050 9050 50  0000 C CNN
F 1 "TESTPOINT" H 13350 9050 50  0001 C CNN
F 2 "misc:TESTPOINT_RND_1mm_SingleSide" H 12800 9050 50  0001 C CNN
F 3 "" H 12800 9050 50  0001 C CNN
	1    12800 9050
	-1   0    0    -1  
$EndComp
Text Notes 12450 9050 2    50   ~ 0
BOOTLOADER
Wire Wire Line
	12350 9500 13200 9500
Text GLabel 9250 2500 2    50   Output ~ 0
ENDSTOP_X
Text GLabel 9250 2600 2    50   Output ~ 0
ENDSTOP_Y
Text GLabel 9250 2700 2    50   Output ~ 0
ENDSTOP_Z
Text GLabel 9250 3200 2    50   Input ~ 0
BLTOUCH_CTRL
Text GLabel 9250 3300 2    50   Output ~ 0
BLTOUCH_ZMIN
Text GLabel 9250 3100 2    50   Output ~ 0
INDUCTIVE_ZMIN
Text GLabel 9250 2800 2    50   Output ~ 0
ENDSTOP_EXTRA
Text GLabel 9250 2900 2    50   Output ~ 0
ENDSTOP_EXTRA
Text GLabel 7300 7500 2    50   Output ~ 0
PWM_HEATBED
Text GLabel 7300 7200 2    50   Output ~ 0
PWM_FAN0
Text GLabel 7300 7300 2    50   Output ~ 0
PWM_FAN1
Text GLabel 7300 7400 2    50   Output ~ 0
PWM_FAN2
Text GLabel 7300 7800 2    50   Output ~ 0
PWM_ATXFAN_HARD
Text GLabel 7300 7700 2    50   Output ~ 0
PWM_ATXFAN_SOFT
Text GLabel 9250 2400 2    50   Output ~ 0
TACH_ATXFAN
Text GLabel 7300 7600 2    50   Output ~ 0
PWM_HOTEND
Wire Wire Line
	6350 7200 7300 7200
Wire Wire Line
	6350 7300 7300 7300
Wire Wire Line
	6350 7400 7300 7400
Wire Wire Line
	6350 7500 7300 7500
Wire Wire Line
	6350 7600 7300 7600
Wire Wire Line
	6350 7700 7300 7700
Wire Wire Line
	6350 7800 7300 7800
Text Label 6450 7200 0    50   ~ 0
PWM_FAN0
Text Label 6450 7300 0    50   ~ 0
PWM_FAN1
Text Label 6450 7400 0    50   ~ 0
PWM_FAN2
Text Label 6450 7500 0    50   ~ 0
PWM_HEATBED
Text Label 6450 7600 0    50   ~ 0
PWM_HOTEND
Text Label 6450 7800 0    50   ~ 0
PWM_ATXFAN_HARD
Text Label 6450 7700 0    50   ~ 0
PWM_ATXFAN_SOFT
$EndSCHEMATC
