EESchema Schematic File Version 4
LIBS:PrinterBoard-cache
EELAYER 26 0
EELAYER END
$Descr A3 16535 11693
encoding utf-8
Sheet 4 5
Title ""
Date ""
Rev ""
Comp ""
Comment1 ""
Comment2 ""
Comment3 ""
Comment4 ""
$EndDescr
$Comp
L connector:J_GEN_10PIN-2COLX5ROW_Z J11
U 1 1 5C84E80C
P 7100 3600
F 0 "J11" H 7400 3750 50  0000 C CNN
F 1 "J_GEN_10PIN-2COLX5ROW_Z" H 7750 3050 50  0000 C CNN
F 2 "connector_tht:PINHEADER_2.54MM_2x5-Z_CABLEMATING" H 7100 3600 50  0001 C CNN
F 3 "" H 7100 3600 50  0001 C CNN
	1    7100 3600
	1    0    0    -1  
$EndComp
Wire Wire Line
	7100 2300 6200 2300
Text Label 6250 2300 0    50   ~ 0
EXP_BEEPER
Text Notes 11200 3000 0    50   ~ 0
Through 1k to BC817 (3V3 OK)\nPassive encoder (3V3 OK)\nLCD Input - need 5V\nLCD Input - need 5V\nLCD Input - need 5V\nNC on RRD SMART\nNC on RRD SMART\nNC on RRD SMART\nGround\n5V
Text Notes 10550 3000 0    50   ~ 0
EXP_BEEPER\nBTN_ENC\nLCD_EN\nLCD_RS\nLCD_D4\nLCD_D5\nLCD_D6\nLCD_D7\nGND\n5V0
Text Notes 10350 3000 0    50   ~ 0
1\n2\n3\n4\n5\n6\n7\n8\n9\n10\n
Wire Notes Line
	10250 2150 10250 3050
Wire Notes Line
	10250 3050 12900 3050
Wire Notes Line
	12900 3050 12900 2150
Wire Notes Line
	12900 2150 10250 2150
Wire Wire Line
	8600 2300 7700 2300
Text Label 7750 2300 0    50   ~ 0
EXP_BTN_ENC
Wire Wire Line
	7100 2400 6200 2400
Text Label 6250 2400 0    50   ~ 0
LCD_EN_5V0
Wire Wire Line
	8600 2400 7700 2400
Text Label 7750 2400 0    50   ~ 0
LCD_RS_5V0
Wire Wire Line
	7100 2500 6200 2500
Text Label 6250 2500 0    50   ~ 0
LCD_D4_5V0
NoConn ~ 7700 2500
NoConn ~ 7100 2600
NoConn ~ 7700 2600
$Comp
L sch_power:GND #PWR0150
U 1 1 5C84EE14
P 7000 2800
F 0 "#PWR0150" H 7000 2700 50  0001 C CNN
F 1 "GND" H 7000 2700 50  0000 C CNN
F 2 "" H 7000 2800 50  0001 C CNN
F 3 "" H 7000 2800 50  0001 C CNN
	1    7000 2800
	1    0    0    -1  
$EndComp
Wire Wire Line
	7100 2700 7000 2700
Wire Wire Line
	7000 2700 7000 2800
$Comp
L sch_power:V_5V0 #PWR0151
U 1 1 5C84EF23
P 7900 2650
F 0 "#PWR0151" H 7900 2650 50  0001 C CNN
F 1 "V_5V0" H 7900 2800 50  0000 C CNN
F 2 "" H 7900 2650 50  0001 C CNN
F 3 "" H 7900 2650 50  0001 C CNN
	1    7900 2650
	1    0    0    -1  
$EndComp
$Comp
L connector:J_GEN_10PIN-2COLX5ROW_Z J10
U 1 1 5C84E805
P 7100 2300
F 0 "J10" H 7400 2450 50  0000 C CNN
F 1 "J_GEN_10PIN-2COLX5ROW_Z" H 7750 1750 50  0000 C CNN
F 2 "connector_tht:PINHEADER_2.54MM_2x5-Z_CABLEMATING" H 7100 2300 50  0001 C CNN
F 3 "" H 7100 2300 50  0001 C CNN
	1    7100 2300
	1    0    0    -1  
$EndComp
Wire Wire Line
	7700 2700 7900 2700
Wire Wire Line
	7900 2700 7900 2650
Text Notes 11200 4200 0    50   ~ 0
SD Output - LPC1768 5V tolerant - OK\nSD Input - need 5V\nInput from Encoder - OK\nSD Input - need 5V\nInput from Encoder - OK\nSD Input - need 5V\nOK\nButton to ground - OK\nGround\nNC on RRD SMART
Text Notes 10550 4200 0    50   ~ 0
SPI_SD_MISO\nSPI_SD_SCK\nBTN_EN1\nSPI_SD_CS#\nBTN_EN2\nSPI_SD_MOSI\nSD_DETECT\nRESET\nGROUND\nKILL
Text Notes 10350 4200 0    50   ~ 0
1\n2\n3\n4\n5\n6\n7\n8\n9\n10\n
Wire Notes Line
	10250 3350 10250 4250
Wire Notes Line
	10250 4250 12900 4250
Wire Notes Line
	12900 4250 12900 3350
Wire Notes Line
	12900 3350 10250 3350
NoConn ~ 7700 4000
$Comp
L sch_power:GND #PWR0152
U 1 1 5C84FA2C
P 7000 4100
F 0 "#PWR0152" H 7000 4000 50  0001 C CNN
F 1 "GND" H 7000 4000 50  0000 C CNN
F 2 "" H 7000 4100 50  0001 C CNN
F 3 "" H 7000 4100 50  0001 C CNN
	1    7000 4100
	1    0    0    -1  
$EndComp
Wire Wire Line
	7100 4000 7000 4000
Wire Wire Line
	7000 4000 7000 4100
Text GLabel 9600 3900 2    50   Input ~ 0
MCU_RST#
Wire Wire Line
	7700 3900 8450 3900
Text Notes 10250 2150 0    50   ~ 0
EXP1\n
Text Notes 10250 3350 0    50   ~ 0
EXP2
Text Label 7800 3900 0    50   ~ 0
EXP_MCU_RST#
$Comp
L passive:R R42
U 1 1 5C85FD4C
P 8650 3900
F 0 "R42" H 8760 3920 50  0000 L BNN
F 1 "0R" H 8760 3880 50  0000 L TNN
F 2 "discrete_smt:RESC1005X55_0402_IPC-B" H 8650 3900 50  0001 C CNN
F 3 "" H 8650 3900 50  0001 C CNN
	1    8650 3900
	1    0    0    -1  
$EndComp
Wire Wire Line
	8850 3900 9600 3900
Text Label 9050 3900 0    50   ~ 0
MCU_RST#
Wire Wire Line
	7700 3700 8600 3700
Text Label 7800 3700 0    50   ~ 0
SPI_SD_CS#_5V0
Wire Wire Line
	7700 3600 8600 3600
Text Label 7800 3600 0    50   ~ 0
SPI_SD_CLK_5V0
Wire Wire Line
	7700 3800 8600 3800
Text Label 7800 3800 0    50   ~ 0
SPI_SD_MOSI_5V0
Wire Wire Line
	6200 3600 7100 3600
Text Label 6300 3600 0    50   ~ 0
SPI_SD_MISO
Wire Wire Line
	6200 3700 7100 3700
Text Label 6300 3700 0    50   ~ 0
EXP_BTN_EN1
Wire Wire Line
	6200 3800 7100 3800
Text Label 6300 3800 0    50   ~ 0
EXP_BTN_EN2
Wire Wire Line
	6200 3900 7100 3900
Text Label 6300 3900 0    50   ~ 0
EXP_SD_DETECT
$Comp
L ic:U_TRCVR_SN74LVC2T45 U2
U 1 1 5C862542
P 3950 2000
F 0 "U2" H 4450 2150 50  0000 C CNN
F 1 "U_TRCVR_SN74LVC2T45" H 4100 1550 50  0000 L CNN
F 2 "ic_smt:SOIC65P300X400X130-8MD-TI-DCT" H 3950 2000 50  0001 C CNN
F 3 "" H 3950 2000 50  0001 C CNN
	1    3950 2000
	-1   0    0    -1  
$EndComp
$Comp
L sch_power:V_5V0 #PWR0153
U 1 1 5C862685
P 4400 1400
F 0 "#PWR0153" H 4400 1400 50  0001 C CNN
F 1 "V_5V0" H 4400 1550 50  0000 C CNN
F 2 "" H 4400 1400 50  0001 C CNN
F 3 "" H 4400 1400 50  0001 C CNN
	1    4400 1400
	-1   0    0    -1  
$EndComp
Wire Wire Line
	2950 2000 2600 2000
$Comp
L sch_power:V_3V3 #PWR0154
U 1 1 5C864C8E
P 2450 1400
F 0 "#PWR0154" H 2450 1400 50  0001 C CNN
F 1 "V_3V3" H 2450 1550 50  0000 C CNN
F 2 "" H 2450 1400 50  0001 C CNN
F 3 "" H 2450 1400 50  0001 C CNN
	1    2450 1400
	1    0    0    -1  
$EndComp
Wire Wire Line
	4400 1450 4400 1400
$Comp
L sch_power:GND #PWR0155
U 1 1 5C8650E0
P 4050 2400
F 0 "#PWR0155" H 4050 2300 50  0001 C CNN
F 1 "GND" H 4050 2300 50  0000 C CNN
F 2 "" H 4050 2400 50  0001 C CNN
F 3 "" H 4050 2400 50  0001 C CNN
	1    4050 2400
	1    0    0    -1  
$EndComp
$Comp
L sch_power:GND #PWR0156
U 1 1 5C865126
P 2850 2400
F 0 "#PWR0156" H 2850 2300 50  0001 C CNN
F 1 "GND" H 2850 2300 50  0000 C CNN
F 2 "" H 2850 2400 50  0001 C CNN
F 3 "" H 2850 2400 50  0001 C CNN
	1    2850 2400
	1    0    0    -1  
$EndComp
Wire Wire Line
	2950 2300 2850 2300
Wire Wire Line
	2850 2300 2850 2400
Wire Wire Line
	3950 2300 4050 2300
Wire Wire Line
	4050 2300 4050 2400
$Comp
L passive:C_NP C26
U 1 1 5C865B0B
P 2450 1750
F 0 "C26" H 2510 1770 50  0000 L BNN
F 1 "100nF" H 2510 1730 50  0000 L TNN
F 2 "discrete_smt:CAPC1005X55_0402_IPC-B" H 2450 1750 50  0001 C CNN
F 3 "" H 2450 1750 50  0001 C CNN
	1    2450 1750
	0    -1   -1   0   
$EndComp
$Comp
L sch_power:GND #PWR0157
U 1 1 5C865FED
P 2450 1900
F 0 "#PWR0157" H 2450 1800 50  0001 C CNN
F 1 "GND" H 2450 1800 50  0000 C CNN
F 2 "" H 2450 1900 50  0001 C CNN
F 3 "" H 2450 1900 50  0001 C CNN
	1    2450 1900
	1    0    0    -1  
$EndComp
Wire Wire Line
	2450 1400 2450 1450
Wire Wire Line
	2450 1450 2600 1450
Wire Wire Line
	2600 1450 2600 2000
Connection ~ 2450 1450
Wire Wire Line
	2450 1450 2450 1650
Wire Wire Line
	2450 1850 2450 1900
$Comp
L passive:C_NP C29
U 1 1 5C8690F8
P 4400 1750
F 0 "C29" H 4460 1770 50  0000 L BNN
F 1 "100nF" H 4460 1730 50  0000 L TNN
F 2 "discrete_smt:CAPC1005X55_0402_IPC-B" H 4400 1750 50  0001 C CNN
F 3 "" H 4400 1750 50  0001 C CNN
	1    4400 1750
	0    -1   -1   0   
$EndComp
$Comp
L sch_power:GND #PWR0158
U 1 1 5C8690FF
P 4400 1900
F 0 "#PWR0158" H 4400 1800 50  0001 C CNN
F 1 "GND" H 4400 1800 50  0000 C CNN
F 2 "" H 4400 1900 50  0001 C CNN
F 3 "" H 4400 1900 50  0001 C CNN
	1    4400 1900
	1    0    0    -1  
$EndComp
Wire Wire Line
	4400 1450 4400 1650
Wire Wire Line
	4400 1850 4400 1900
Wire Wire Line
	3950 2000 4250 2000
Wire Wire Line
	4250 2000 4250 1450
Wire Wire Line
	4250 1450 4400 1450
Connection ~ 4400 1450
Text Label 4550 2100 0    50   ~ 0
LCD_EN_5V0
Text Label 4550 3300 0    50   ~ 0
LCD_D4_5V0
Wire Wire Line
	5100 2200 3950 2200
Text Label 4550 2200 0    50   ~ 0
LCD_RS_5V0
Wire Wire Line
	3950 4400 5100 4400
Text Label 4550 4400 0    50   ~ 0
SPI_SD_CS#_5V0
Wire Wire Line
	3950 3200 5100 3200
Text Label 4550 3200 0    50   ~ 0
SPI_SD_CLK_5V0
Wire Wire Line
	3950 4300 5100 4300
Text Label 4550 4300 0    50   ~ 0
SPI_SD_MOSI_5V0
$Comp
L ic:U_TRCVR_SN74LVC2T45 U3
U 1 1 5C86F744
P 3950 3100
F 0 "U3" H 4450 3250 50  0000 C CNN
F 1 "U_TRCVR_SN74LVC2T45" H 4100 2650 50  0000 L CNN
F 2 "ic_smt:SOIC65P300X400X130-8MD-TI-DCT" H 3950 3100 50  0001 C CNN
F 3 "" H 3950 3100 50  0001 C CNN
	1    3950 3100
	-1   0    0    -1  
$EndComp
$Comp
L sch_power:V_5V0 #PWR0159
U 1 1 5C86F74B
P 4400 2500
F 0 "#PWR0159" H 4400 2500 50  0001 C CNN
F 1 "V_5V0" H 4400 2650 50  0000 C CNN
F 2 "" H 4400 2500 50  0001 C CNN
F 3 "" H 4400 2500 50  0001 C CNN
	1    4400 2500
	-1   0    0    -1  
$EndComp
Wire Wire Line
	2950 3100 2650 3100
$Comp
L sch_power:V_3V3 #PWR0160
U 1 1 5C86F752
P 2450 2500
F 0 "#PWR0160" H 2450 2500 50  0001 C CNN
F 1 "V_3V3" H 2450 2650 50  0000 C CNN
F 2 "" H 2450 2500 50  0001 C CNN
F 3 "" H 2450 2500 50  0001 C CNN
	1    2450 2500
	1    0    0    -1  
$EndComp
Wire Wire Line
	4400 2550 4400 2500
$Comp
L sch_power:GND #PWR0161
U 1 1 5C86F759
P 4050 3500
F 0 "#PWR0161" H 4050 3400 50  0001 C CNN
F 1 "GND" H 4050 3400 50  0000 C CNN
F 2 "" H 4050 3500 50  0001 C CNN
F 3 "" H 4050 3500 50  0001 C CNN
	1    4050 3500
	1    0    0    -1  
$EndComp
$Comp
L sch_power:GND #PWR0162
U 1 1 5C86F75F
P 2850 3500
F 0 "#PWR0162" H 2850 3400 50  0001 C CNN
F 1 "GND" H 2850 3400 50  0000 C CNN
F 2 "" H 2850 3500 50  0001 C CNN
F 3 "" H 2850 3500 50  0001 C CNN
	1    2850 3500
	1    0    0    -1  
$EndComp
Wire Wire Line
	2950 3400 2850 3400
Wire Wire Line
	2850 3400 2850 3500
Wire Wire Line
	3950 3400 4050 3400
Wire Wire Line
	4050 3400 4050 3500
$Comp
L passive:C_NP C27
U 1 1 5C86F769
P 2450 2850
F 0 "C27" H 2510 2870 50  0000 L BNN
F 1 "100nF" H 2510 2830 50  0000 L TNN
F 2 "discrete_smt:CAPC1005X55_0402_IPC-B" H 2450 2850 50  0001 C CNN
F 3 "" H 2450 2850 50  0001 C CNN
	1    2450 2850
	0    -1   -1   0   
$EndComp
$Comp
L sch_power:GND #PWR0163
U 1 1 5C86F770
P 2450 3000
F 0 "#PWR0163" H 2450 2900 50  0001 C CNN
F 1 "GND" H 2450 2900 50  0000 C CNN
F 2 "" H 2450 3000 50  0001 C CNN
F 3 "" H 2450 3000 50  0001 C CNN
	1    2450 3000
	1    0    0    -1  
$EndComp
Wire Wire Line
	2450 2500 2450 2550
Wire Wire Line
	2450 2550 2650 2550
Wire Wire Line
	2650 2550 2650 3100
Connection ~ 2450 2550
Wire Wire Line
	2450 2550 2450 2750
Wire Wire Line
	2450 2950 2450 3000
$Comp
L passive:C_NP C30
U 1 1 5C86F77C
P 4400 2850
F 0 "C30" H 4460 2870 50  0000 L BNN
F 1 "100nF" H 4460 2830 50  0000 L TNN
F 2 "discrete_smt:CAPC1005X55_0402_IPC-B" H 4400 2850 50  0001 C CNN
F 3 "" H 4400 2850 50  0001 C CNN
	1    4400 2850
	0    -1   -1   0   
$EndComp
$Comp
L sch_power:GND #PWR0164
U 1 1 5C86F783
P 4400 3000
F 0 "#PWR0164" H 4400 2900 50  0001 C CNN
F 1 "GND" H 4400 2900 50  0000 C CNN
F 2 "" H 4400 3000 50  0001 C CNN
F 3 "" H 4400 3000 50  0001 C CNN
	1    4400 3000
	1    0    0    -1  
$EndComp
Wire Wire Line
	4400 2550 4400 2750
Wire Wire Line
	4400 2950 4400 3000
Wire Wire Line
	3950 3100 4250 3100
Wire Wire Line
	4250 3100 4250 2550
Wire Wire Line
	4250 2550 4400 2550
Connection ~ 4400 2550
$Comp
L ic:U_TRCVR_SN74LVC2T45 U4
U 1 1 5C8771C2
P 3950 4200
F 0 "U4" H 4450 4350 50  0000 C CNN
F 1 "U_TRCVR_SN74LVC2T45" H 4100 3750 50  0000 L CNN
F 2 "ic_smt:SOIC65P300X400X130-8MD-TI-DCT" H 3950 4200 50  0001 C CNN
F 3 "" H 3950 4200 50  0001 C CNN
	1    3950 4200
	-1   0    0    -1  
$EndComp
$Comp
L sch_power:V_5V0 #PWR0165
U 1 1 5C8771C9
P 4400 3600
F 0 "#PWR0165" H 4400 3600 50  0001 C CNN
F 1 "V_5V0" H 4400 3750 50  0000 C CNN
F 2 "" H 4400 3600 50  0001 C CNN
F 3 "" H 4400 3600 50  0001 C CNN
	1    4400 3600
	-1   0    0    -1  
$EndComp
Wire Wire Line
	2950 4200 2650 4200
$Comp
L sch_power:V_3V3 #PWR0166
U 1 1 5C8771D0
P 2450 3600
F 0 "#PWR0166" H 2450 3600 50  0001 C CNN
F 1 "V_3V3" H 2450 3750 50  0000 C CNN
F 2 "" H 2450 3600 50  0001 C CNN
F 3 "" H 2450 3600 50  0001 C CNN
	1    2450 3600
	1    0    0    -1  
$EndComp
Wire Wire Line
	4400 3650 4400 3600
$Comp
L sch_power:GND #PWR0167
U 1 1 5C8771D7
P 4050 4600
F 0 "#PWR0167" H 4050 4500 50  0001 C CNN
F 1 "GND" H 4050 4500 50  0000 C CNN
F 2 "" H 4050 4600 50  0001 C CNN
F 3 "" H 4050 4600 50  0001 C CNN
	1    4050 4600
	1    0    0    -1  
$EndComp
$Comp
L sch_power:GND #PWR0168
U 1 1 5C8771DD
P 2850 4600
F 0 "#PWR0168" H 2850 4500 50  0001 C CNN
F 1 "GND" H 2850 4500 50  0000 C CNN
F 2 "" H 2850 4600 50  0001 C CNN
F 3 "" H 2850 4600 50  0001 C CNN
	1    2850 4600
	1    0    0    -1  
$EndComp
Wire Wire Line
	2950 4500 2850 4500
Wire Wire Line
	2850 4500 2850 4600
Wire Wire Line
	3950 4500 4050 4500
Wire Wire Line
	4050 4500 4050 4600
$Comp
L passive:C_NP C28
U 1 1 5C8771E7
P 2450 3950
F 0 "C28" H 2510 3970 50  0000 L BNN
F 1 "100nF" H 2510 3930 50  0000 L TNN
F 2 "discrete_smt:CAPC1005X55_0402_IPC-B" H 2450 3950 50  0001 C CNN
F 3 "" H 2450 3950 50  0001 C CNN
	1    2450 3950
	0    -1   -1   0   
$EndComp
$Comp
L sch_power:GND #PWR0169
U 1 1 5C8771EE
P 2450 4100
F 0 "#PWR0169" H 2450 4000 50  0001 C CNN
F 1 "GND" H 2450 4000 50  0000 C CNN
F 2 "" H 2450 4100 50  0001 C CNN
F 3 "" H 2450 4100 50  0001 C CNN
	1    2450 4100
	1    0    0    -1  
$EndComp
Wire Wire Line
	2450 3600 2450 3650
Wire Wire Line
	2450 3650 2650 3650
Wire Wire Line
	2650 3650 2650 4200
Connection ~ 2450 3650
Wire Wire Line
	2450 3650 2450 3850
Wire Wire Line
	2450 4050 2450 4100
$Comp
L passive:C_NP C31
U 1 1 5C8771FA
P 4400 3950
F 0 "C31" H 4460 3970 50  0000 L BNN
F 1 "100nF" H 4460 3930 50  0000 L TNN
F 2 "discrete_smt:CAPC1005X55_0402_IPC-B" H 4400 3950 50  0001 C CNN
F 3 "" H 4400 3950 50  0001 C CNN
	1    4400 3950
	0    -1   -1   0   
$EndComp
$Comp
L sch_power:GND #PWR0170
U 1 1 5C877201
P 4400 4100
F 0 "#PWR0170" H 4400 4000 50  0001 C CNN
F 1 "GND" H 4400 4000 50  0000 C CNN
F 2 "" H 4400 4100 50  0001 C CNN
F 3 "" H 4400 4100 50  0001 C CNN
	1    4400 4100
	1    0    0    -1  
$EndComp
Wire Wire Line
	4400 3650 4400 3850
Wire Wire Line
	4400 4050 4400 4100
Wire Wire Line
	3950 4200 4250 4200
Wire Wire Line
	4250 4200 4250 3650
Wire Wire Line
	4250 3650 4400 3650
Connection ~ 4400 3650
Wire Wire Line
	3950 2100 5100 2100
Wire Wire Line
	3950 3300 5100 3300
Text Label 1850 2100 0    50   ~ 0
LCD_EN
Text Label 1850 3300 0    50   ~ 0
LCD_D4
Wire Wire Line
	2950 2200 1800 2200
Text Label 1850 2200 0    50   ~ 0
LCD_RS
Wire Wire Line
	1800 4400 2950 4400
Text Label 1850 4400 0    50   ~ 0
SPI_SD_CS#
Wire Wire Line
	1800 3200 2950 3200
Text Label 1850 3200 0    50   ~ 0
SPI_SD_CLK
Wire Wire Line
	1800 4300 2950 4300
Text Label 1850 4300 0    50   ~ 0
SPI_SD_MOSI
Wire Wire Line
	1800 2100 2950 2100
Wire Wire Line
	1800 3300 2950 3300
Text GLabel 6200 3700 0    50   Input ~ 0
EXP_BTN_EN1
Text GLabel 6200 3800 0    50   Input ~ 0
EXP_BTN_EN2
Text GLabel 6200 3600 0    50   Input ~ 0
SPI_SD_MISO
Text GLabel 6200 3900 0    50   Input ~ 0
EXP_SD_DETECT
Text GLabel 6200 2300 0    50   Input ~ 0
EXP_BEEPER
Text GLabel 8600 2300 2    50   Input ~ 0
EXP_BTN_ENC
Text GLabel 1800 2100 0    50   Input ~ 0
LCD_EN
Text GLabel 1800 3300 0    50   Input ~ 0
LCD_D4
Text GLabel 1800 2200 0    50   Input ~ 0
LCD_RS
Text GLabel 1800 3200 0    50   Input ~ 0
SPI_SD_CLK
Text GLabel 1800 4400 0    50   Input ~ 0
SPI_SD_CS#
Text GLabel 1800 4300 0    50   Input ~ 0
SPI_SD_MOSI
Text Notes 5850 2050 0    100  ~ 0
EXP1 (RRD Full Graphic Smart Controller)
Text Notes 5800 3350 0    100  ~ 0
EXP2 (RRD Full Graphic Smart Controller)
Text Notes 550  800  0    200  ~ 0
Page 03 - Standard connectors
$Comp
L connector:J_GEN_3PIN-1COLX3ROW J13
U 1 1 5C46B0CA
P 4700 5950
F 0 "J13" H 4950 6100 50  0000 C CNN
F 1 "PINHEAD_X3" H 4850 5600 50  0000 L CNN
F 2 "connector_tht:PINHEADER_2.54MM_1x3" H 4700 5950 50  0001 C CNN
F 3 "" H 4700 5950 50  0001 C CNN
	1    4700 5950
	0    -1   -1   0   
$EndComp
$Comp
L connector:J_GEN_3PIN-1COLX3ROW J14
U 1 1 5C46B29E
P 5350 5950
F 0 "J14" H 5600 6100 50  0000 C CNN
F 1 "PINHEAD_X3" H 5500 5600 50  0000 L CNN
F 2 "connector_tht:PINHEADER_2.54MM_1x3" H 5350 5950 50  0001 C CNN
F 3 "" H 5350 5950 50  0001 C CNN
	1    5350 5950
	0    -1   -1   0   
$EndComp
$Comp
L connector:J_GEN_3PIN-1COLX3ROW J15
U 1 1 5C46B2DA
P 6000 5950
F 0 "J15" H 6250 6100 50  0000 C CNN
F 1 "PINHEAD_X3" H 6150 5600 50  0000 L CNN
F 2 "connector_tht:PINHEADER_2.54MM_1x3" H 6000 5950 50  0001 C CNN
F 3 "" H 6000 5950 50  0001 C CNN
	1    6000 5950
	0    -1   -1   0   
$EndComp
Text Notes 4750 5550 0    100  ~ 0
X
Text Notes 5400 5550 0    100  ~ 0
Y
Text Notes 6050 5550 0    100  ~ 0
Z
Wire Wire Line
	4900 6000 4900 5950
Wire Wire Line
	4900 6000 5550 6000
Wire Wire Line
	5550 6000 5550 5950
Connection ~ 4900 6000
Wire Wire Line
	6200 6000 6200 5950
Wire Wire Line
	5450 6050 5450 5950
Wire Wire Line
	6100 6050 6100 5950
$Comp
L sch_power:GND #PWR015
U 1 1 5C47C08C
P 4800 6050
F 0 "#PWR015" H 4800 5950 50  0001 C CNN
F 1 "GND" H 4800 5950 50  0000 C CNN
F 2 "" H 4800 6050 50  0001 C CNN
F 3 "" H 4800 6050 50  0001 C CNN
	1    4800 6050
	1    0    0    -1  
$EndComp
$Comp
L sch_power:V_3V3 #PWR06
U 1 1 5C481799
P 1550 5350
F 0 "#PWR06" H 1550 5350 50  0001 C CNN
F 1 "V_3V3" H 1550 5500 50  0000 C CNN
F 2 "" H 1550 5350 50  0001 C CNN
F 3 "" H 1550 5350 50  0001 C CNN
	1    1550 5350
	1    0    0    -1  
$EndComp
$Comp
L sch_power:V_5V0 #PWR04
U 1 1 5C48180C
P 1250 5350
F 0 "#PWR04" H 1250 5350 50  0001 C CNN
F 1 "V_5V0" H 1250 5500 50  0000 C CNN
F 2 "" H 1250 5350 50  0001 C CNN
F 3 "" H 1250 5350 50  0001 C CNN
	1    1250 5350
	1    0    0    -1  
$EndComp
$Comp
L passive:R R46
U 1 1 5C484369
P 1250 5700
F 0 "R46" H 1360 5720 50  0000 L BNN
F 1 "0R" H 1360 5680 50  0000 L TNN
F 2 "discrete_smt:RESC1005X55_0402_IPC-B" H 1250 5700 50  0001 C CNN
F 3 "" H 1250 5700 50  0001 C CNN
	1    1250 5700
	0    -1   -1   0   
$EndComp
$Comp
L passive:R R47
U 1 1 5C489A33
P 1550 5700
F 0 "R47" H 1660 5720 50  0000 L BNN
F 1 "0R" H 1660 5680 50  0000 L TNN
F 2 "discrete_smt:RESC1005X55_0402_IPC-B" H 1550 5700 50  0001 C CNN
F 3 "" H 1550 5700 50  0001 C CNN
	1    1550 5700
	0    -1   -1   0   
$EndComp
Wire Wire Line
	1250 5350 1250 5500
Wire Wire Line
	1550 5350 1550 5500
Wire Wire Line
	1550 6000 1550 5900
Connection ~ 1550 6000
Wire Wire Line
	1250 6000 1250 5900
Wire Wire Line
	1250 6000 1550 6000
Wire Wire Line
	4700 6200 3650 6200
Wire Wire Line
	4700 5950 4700 6200
Wire Wire Line
	5350 5950 5350 6400
Wire Wire Line
	5350 6400 3650 6400
Wire Wire Line
	6000 5950 6000 6600
Wire Wire Line
	6000 6600 3650 6600
Text GLabel 2150 6200 0    50   Output ~ 0
ENDSTOP_X
Text GLabel 2150 6400 0    50   Output ~ 0
ENDSTOP_Y
Text GLabel 2150 6600 0    50   Output ~ 0
ENDSTOP_Z
Wire Wire Line
	5550 6000 6200 6000
Connection ~ 5550 6000
Text Label 1650 6000 0    50   ~ 0
V_ENDSTOP
$Comp
L connector:J_GEN_5PIN-1COLX5ROW J12
U 1 1 5C4F17DE
P 2750 9050
F 0 "J12" H 3000 9200 50  0000 C CNN
F 1 "PINHEAD_X5" H 2900 8500 50  0000 L CNN
F 2 "connector_tht:PINHEADER_2.54MM_1x5" H 2750 9050 50  0001 C CNN
F 3 "" H 2750 9050 50  0001 C CNN
	1    2750 9050
	1    0    0    -1  
$EndComp
Text Notes 900  5100 0    100  ~ 0
Endstops
Text Notes 900  8100 0    100  ~ 0
BLTouch sensor (Optional)
$Comp
L sch_power:GND #PWR013
U 1 1 5C4F1F78
P 2650 9550
F 0 "#PWR013" H 2650 9450 50  0001 C CNN
F 1 "GND" H 2650 9450 50  0000 C CNN
F 2 "" H 2650 9550 50  0001 C CNN
F 3 "" H 2650 9550 50  0001 C CNN
	1    2650 9550
	1    0    0    -1  
$EndComp
Wire Wire Line
	2750 9050 2650 9050
Wire Wire Line
	2650 9050 2650 9350
Wire Wire Line
	2750 9350 2650 9350
Connection ~ 2650 9350
Wire Wire Line
	2650 9350 2650 9550
Wire Wire Line
	2750 9150 2550 9150
$Comp
L sch_power:V_5V0 #PWR08
U 1 1 5C504531
P 2400 8450
F 0 "#PWR08" H 2400 8450 50  0001 C CNN
F 1 "V_5V0" H 2400 8600 50  0000 C CNN
F 2 "" H 2400 8450 50  0001 C CNN
F 3 "" H 2400 8450 50  0001 C CNN
	1    2400 8450
	1    0    0    -1  
$EndComp
Wire Wire Line
	2400 8500 2550 8500
$Comp
L passive:C_NP C32
U 1 1 5C510571
P 1250 6350
F 0 "C32" H 1310 6370 50  0000 L BNN
F 1 "100nF" H 1310 6330 50  0000 L TNN
F 2 "discrete_smt:CAPC1005X55_0402_IPC-B" H 1250 6350 50  0001 C CNN
F 3 "" H 1250 6350 50  0001 C CNN
	1    1250 6350
	0    -1   -1   0   
$EndComp
$Comp
L sch_power:GND #PWR05
U 1 1 5C510578
P 1250 6500
F 0 "#PWR05" H 1250 6400 50  0001 C CNN
F 1 "GND" H 1250 6400 50  0000 C CNN
F 2 "" H 1250 6500 50  0001 C CNN
F 3 "" H 1250 6500 50  0001 C CNN
	1    1250 6500
	1    0    0    -1  
$EndComp
Wire Wire Line
	1250 6000 1250 6250
Wire Wire Line
	1250 6450 1250 6500
Connection ~ 1250 6000
$Comp
L passive:C_NP C33
U 1 1 5C529593
P 2400 8850
F 0 "C33" H 2460 8870 50  0000 L BNN
F 1 "100nF" H 2460 8830 50  0000 L TNN
F 2 "discrete_smt:CAPC1005X55_0402_IPC-B" H 2400 8850 50  0001 C CNN
F 3 "" H 2400 8850 50  0001 C CNN
	1    2400 8850
	0    -1   -1   0   
$EndComp
$Comp
L sch_power:GND #PWR09
U 1 1 5C52959A
P 2400 9000
F 0 "#PWR09" H 2400 8900 50  0001 C CNN
F 1 "GND" H 2400 8900 50  0000 C CNN
F 2 "" H 2400 9000 50  0001 C CNN
F 3 "" H 2400 9000 50  0001 C CNN
	1    2400 9000
	1    0    0    -1  
$EndComp
Wire Wire Line
	2400 8500 2400 8750
Wire Wire Line
	2400 8950 2400 9000
Wire Wire Line
	2550 8500 2550 9150
Wire Wire Line
	2400 8450 2400 8500
Connection ~ 2400 8500
Text Label 1850 9250 0    50   ~ 0
BLTOUCH_CTRL
Text Label 1850 9450 0    50   ~ 0
BLTOUCH_ZMIN
Wire Wire Line
	1550 9450 1700 9450
Wire Wire Line
	1550 9250 2750 9250
Text GLabel 1550 9250 0    50   Input ~ 0
BLTOUCH_CTRL
Text GLabel 1550 9450 0    50   Output ~ 0
BLTOUCH_ZMIN
$Comp
L connector:J_GEN_3PIN-1COLX3ROW J16
U 1 1 5C572101
P 7200 9150
F 0 "J16" H 7450 9300 50  0000 C CNN
F 1 "PINHEAD_X3" H 7350 8800 50  0000 L CNN
F 2 "connector_tht:PINHEADER_2.54MM_1x3" H 7200 9150 50  0001 C CNN
F 3 "" H 7200 9150 50  0001 C CNN
	1    7200 9150
	1    0    0    -1  
$EndComp
Text Notes 3850 8100 0    100  ~ 0
Inductive Proximity Sensor (Optional)
$Comp
L sch_power:V_12V0 #PWR022
U 1 1 5C572425
P 6850 8350
F 0 "#PWR022" H 6850 8350 50  0001 C CNN
F 1 "V_12V0" H 6850 8500 50  0000 C CNN
F 2 "" H 6850 8350 50  0001 C CNN
F 3 "" H 6850 8350 50  0001 C CNN
	1    6850 8350
	1    0    0    -1  
$EndComp
$Comp
L passive:C_NP C37
U 1 1 5C572626
P 6850 8750
F 0 "C37" H 6910 8770 50  0000 L BNN
F 1 "100nF" H 6910 8730 50  0000 L TNN
F 2 "discrete_smt:CAPC1005X55_0402_IPC-B" H 6850 8750 50  0001 C CNN
F 3 "" H 6850 8750 50  0001 C CNN
	1    6850 8750
	0    -1   -1   0   
$EndComp
$Comp
L sch_power:GND #PWR023
U 1 1 5C57262D
P 6850 8900
F 0 "#PWR023" H 6850 8800 50  0001 C CNN
F 1 "GND" H 6850 8800 50  0000 C CNN
F 2 "" H 6850 8900 50  0001 C CNN
F 3 "" H 6850 8900 50  0001 C CNN
	1    6850 8900
	1    0    0    -1  
$EndComp
Wire Wire Line
	6850 8350 6850 8400
Wire Wire Line
	7000 8400 7000 9350
Wire Wire Line
	7000 9350 7200 9350
Wire Wire Line
	6850 8400 7000 8400
Connection ~ 6850 8400
Wire Wire Line
	6850 8400 6850 8650
Text GLabel 4500 8900 0    50   Output ~ 0
INDUCTIVE_ZMIN
$Comp
L sch_power:GND #PWR024
U 1 1 5C58E3FB
P 7100 9450
F 0 "#PWR024" H 7100 9350 50  0001 C CNN
F 1 "GND" H 7100 9350 50  0000 C CNN
F 2 "" H 7100 9450 50  0001 C CNN
F 3 "" H 7100 9450 50  0001 C CNN
	1    7100 9450
	1    0    0    -1  
$EndComp
Wire Wire Line
	7200 9250 7100 9250
Wire Wire Line
	7100 9250 7100 9450
Wire Wire Line
	6850 8850 6850 8900
Text Label 4600 8900 0    50   ~ 0
INDUCTIVE_ZMIN#
$Comp
L passive:R R49
U 1 1 5C5DF1FA
P 2300 5700
F 0 "R49" H 2410 5720 50  0000 L BNN
F 1 "10k" H 2410 5680 50  0000 L TNN
F 2 "discrete_smt:RESC1005X55_0402_IPC-B" H 2300 5700 50  0001 C CNN
F 3 "" H 2300 5700 50  0001 C CNN
	1    2300 5700
	0    -1   -1   0   
$EndComp
$Comp
L passive:R R50
U 1 1 5C5DF254
P 2500 5700
F 0 "R50" H 2610 5720 50  0000 L BNN
F 1 "10k" H 2610 5680 50  0000 L TNN
F 2 "discrete_smt:RESC1005X55_0402_IPC-B" H 2500 5700 50  0001 C CNN
F 3 "" H 2500 5700 50  0001 C CNN
	1    2500 5700
	0    -1   -1   0   
$EndComp
$Comp
L passive:R R51
U 1 1 5C5DF298
P 2700 5700
F 0 "R51" H 2810 5720 50  0000 L BNN
F 1 "10k" H 2810 5680 50  0000 L TNN
F 2 "discrete_smt:RESC1005X55_0402_IPC-B" H 2700 5700 50  0001 C CNN
F 3 "" H 2700 5700 50  0001 C CNN
	1    2700 5700
	0    -1   -1   0   
$EndComp
$Comp
L sch_power:V_3V3 #PWR010
U 1 1 5C6042C8
P 2300 5350
F 0 "#PWR010" H 2300 5350 50  0001 C CNN
F 1 "V_3V3" H 2300 5500 50  0000 C CNN
F 2 "" H 2300 5350 50  0001 C CNN
F 3 "" H 2300 5350 50  0001 C CNN
	1    2300 5350
	1    0    0    -1  
$EndComp
Wire Wire Line
	2300 5350 2300 5400
Wire Wire Line
	2300 5400 2500 5400
Wire Wire Line
	2500 5400 2500 5500
Connection ~ 2300 5400
Wire Wire Line
	2300 5400 2300 5500
Wire Wire Line
	2500 5400 2700 5400
Wire Wire Line
	2700 5400 2700 5500
Connection ~ 2500 5400
Wire Notes Line
	850  8100 850  9800
$Comp
L passive:R R48
U 1 1 5C65A501
P 1700 8850
F 0 "R48" H 1810 8870 50  0000 L BNN
F 1 "R" H 1810 8830 50  0000 L TNN
F 2 "discrete_smt:RESC1005X55_0402_IPC-B" H 1700 8850 50  0001 C CNN
F 3 "" H 1700 8850 50  0001 C CNN
	1    1700 8850
	0    -1   -1   0   
$EndComp
Wire Wire Line
	1700 9050 1700 9450
Connection ~ 1700 9450
Wire Wire Line
	1700 9450 2750 9450
Wire Wire Line
	1700 8450 1700 8650
$Comp
L sch_power:V_5V0 #PWR07
U 1 1 5C68AEC6
P 1700 8450
F 0 "#PWR07" H 1700 8450 50  0001 C CNN
F 1 "V_5V0" H 1700 8600 50  0000 C CNN
F 2 "" H 1700 8450 50  0001 C CNN
F 3 "" H 1700 8450 50  0001 C CNN
	1    1700 8450
	1    0    0    -1  
$EndComp
Wire Notes Line
	3800 8100 7850 8100
Wire Notes Line
	850  7800 7850 7800
Wire Notes Line
	7850 7800 7850 5100
Wire Notes Line
	7850 5100 850  5100
Wire Notes Line
	850  5100 850  7800
$Comp
L passive:C_NP C34
U 1 1 5C6DBE5D
P 2300 7450
F 0 "C34" H 2360 7470 50  0000 L BNN
F 1 "100nF" H 2360 7430 50  0000 L TNN
F 2 "discrete_smt:CAPC1005X55_0402_IPC-B" H 2300 7450 50  0001 C CNN
F 3 "" H 2300 7450 50  0001 C CNN
	1    2300 7450
	0    -1   -1   0   
$EndComp
$Comp
L sch_power:GND #PWR011
U 1 1 5C6DBE64
P 2300 7600
F 0 "#PWR011" H 2300 7500 50  0001 C CNN
F 1 "GND" H 2300 7500 50  0000 C CNN
F 2 "" H 2300 7600 50  0001 C CNN
F 3 "" H 2300 7600 50  0001 C CNN
	1    2300 7600
	1    0    0    -1  
$EndComp
Wire Wire Line
	2300 7550 2300 7600
$Comp
L passive:C_NP C35
U 1 1 5C6E214F
P 2500 7450
F 0 "C35" H 2560 7470 50  0000 L BNN
F 1 "100nF" H 2560 7430 50  0000 L TNN
F 2 "discrete_smt:CAPC1005X55_0402_IPC-B" H 2500 7450 50  0001 C CNN
F 3 "" H 2500 7450 50  0001 C CNN
	1    2500 7450
	0    -1   -1   0   
$EndComp
$Comp
L sch_power:GND #PWR012
U 1 1 5C6E2156
P 2500 7600
F 0 "#PWR012" H 2500 7500 50  0001 C CNN
F 1 "GND" H 2500 7500 50  0000 C CNN
F 2 "" H 2500 7600 50  0001 C CNN
F 3 "" H 2500 7600 50  0001 C CNN
	1    2500 7600
	1    0    0    -1  
$EndComp
Wire Wire Line
	2500 7550 2500 7600
$Comp
L passive:C_NP C36
U 1 1 5C6E86C9
P 2700 7450
F 0 "C36" H 2760 7470 50  0000 L BNN
F 1 "100nF" H 2760 7430 50  0000 L TNN
F 2 "discrete_smt:CAPC1005X55_0402_IPC-B" H 2700 7450 50  0001 C CNN
F 3 "" H 2700 7450 50  0001 C CNN
	1    2700 7450
	0    -1   -1   0   
$EndComp
$Comp
L sch_power:GND #PWR014
U 1 1 5C6E86D0
P 2700 7600
F 0 "#PWR014" H 2700 7500 50  0001 C CNN
F 1 "GND" H 2700 7500 50  0000 C CNN
F 2 "" H 2700 7600 50  0001 C CNN
F 3 "" H 2700 7600 50  0001 C CNN
	1    2700 7600
	1    0    0    -1  
$EndComp
Wire Wire Line
	2700 7550 2700 7600
$Comp
L passive:R R52
U 1 1 5C7238B7
P 3450 6200
F 0 "R52" H 3560 6220 50  0000 L BNN
F 1 "1k" H 3560 6180 50  0000 L TNN
F 2 "discrete_smt:RESC1005X55_0402_IPC-B" H 3450 6200 50  0001 C CNN
F 3 "" H 3450 6200 50  0001 C CNN
	1    3450 6200
	1    0    0    -1  
$EndComp
$Comp
L passive:R R53
U 1 1 5C7239DF
P 3450 6400
F 0 "R53" H 3560 6420 50  0000 L BNN
F 1 "1k" H 3560 6380 50  0000 L TNN
F 2 "discrete_smt:RESC1005X55_0402_IPC-B" H 3450 6400 50  0001 C CNN
F 3 "" H 3450 6400 50  0001 C CNN
	1    3450 6400
	1    0    0    -1  
$EndComp
$Comp
L passive:R R54
U 1 1 5C723AB1
P 3450 6600
F 0 "R54" H 3560 6620 50  0000 L BNN
F 1 "1k" H 3560 6580 50  0000 L TNN
F 2 "discrete_smt:RESC1005X55_0402_IPC-B" H 3450 6600 50  0001 C CNN
F 3 "" H 3450 6600 50  0001 C CNN
	1    3450 6600
	1    0    0    -1  
$EndComp
Wire Wire Line
	1550 6000 4900 6000
Wire Wire Line
	2150 6600 2700 6600
Wire Wire Line
	2150 6400 2500 6400
Wire Wire Line
	2150 6200 2300 6200
Wire Wire Line
	2300 5900 2300 6200
Wire Wire Line
	2500 5900 2500 6400
Wire Wire Line
	2700 5900 2700 6600
Connection ~ 2300 6200
Wire Wire Line
	2300 6200 3250 6200
Wire Wire Line
	2300 6200 2300 7350
Connection ~ 2500 6400
Wire Wire Line
	2500 6400 3250 6400
Wire Wire Line
	2500 6400 2500 7350
Connection ~ 2700 6600
Wire Wire Line
	2700 6600 3250 6600
Wire Wire Line
	2700 6600 2700 7350
Text Label 3850 6200 0    50   ~ 0
ENDSTOP_X_UNFILT
Text Label 3850 6400 0    50   ~ 0
ENDSTOP_Y_UNFILT
Text Label 3850 6600 0    50   ~ 0
ENDSTOP_Z_UNFILT
Wire Wire Line
	4800 5950 4800 6050
$Comp
L sch_power:GND #PWR016
U 1 1 5C7DFA16
P 5450 6050
F 0 "#PWR016" H 5450 5950 50  0001 C CNN
F 1 "GND" H 5450 5950 50  0000 C CNN
F 2 "" H 5450 6050 50  0001 C CNN
F 3 "" H 5450 6050 50  0001 C CNN
	1    5450 6050
	1    0    0    -1  
$EndComp
$Comp
L sch_power:GND #PWR019
U 1 1 5C7DFA61
P 6100 6050
F 0 "#PWR019" H 6100 5950 50  0001 C CNN
F 1 "GND" H 6100 5950 50  0000 C CNN
F 2 "" H 6100 6050 50  0001 C CNN
F 3 "" H 6100 6050 50  0001 C CNN
	1    6100 6050
	1    0    0    -1  
$EndComp
Wire Notes Line
	850  4800 13850 4800
Wire Notes Line
	13850 4800 13850 1100
Wire Notes Line
	13850 1100 850  1150
Wire Notes Line
	850  1150 850  4800
Text Notes 900  1150 0    100  ~ 0
LCD / SD Interface (Optional)
$Comp
L active:NFET Q2
U 1 1 5C83197E
P 5450 9100
F 0 "Q2" H 5480 9150 50  0000 L CNN
F 1 "BSS138W" H 5480 9050 50  0000 L CNN
F 2 "ic_smt:SOT65P210X110-3N_BSS138W_SOT323-PINSPEC" H 5450 9100 50  0001 C CNN
F 3 "" H 5450 9100 50  0001 C CNN
	1    5450 9100
	-1   0    0    -1  
$EndComp
Wire Wire Line
	4500 8900 5450 8900
Wire Wire Line
	5450 8900 5450 8950
$Comp
L sch_power:GND #PWR018
U 1 1 5C84BBE5
P 5450 9450
F 0 "#PWR018" H 5450 9350 50  0001 C CNN
F 1 "GND" H 5450 9350 50  0000 C CNN
F 2 "" H 5450 9450 50  0001 C CNN
F 3 "" H 5450 9450 50  0001 C CNN
	1    5450 9450
	1    0    0    -1  
$EndComp
Wire Wire Line
	5450 9250 5450 9450
$Comp
L passive:R R56
U 1 1 5C86D922
P 5750 8600
F 0 "R56" H 5860 8620 50  0000 L BNN
F 1 "33k" H 5860 8580 50  0000 L TNN
F 2 "discrete_smt:RESC1005X55_0402_IPC-B" H 5750 8600 50  0001 C CNN
F 3 "" H 5750 8600 50  0001 C CNN
	1    5750 8600
	0    1    1    0   
$EndComp
$Comp
L sch_power:V_12V0 #PWR020
U 1 1 5C86D9C3
P 5750 8350
F 0 "#PWR020" H 5750 8350 50  0001 C CNN
F 1 "V_12V0" H 5750 8500 50  0000 C CNN
F 2 "" H 5750 8350 50  0001 C CNN
F 3 "" H 5750 8350 50  0001 C CNN
	1    5750 8350
	1    0    0    -1  
$EndComp
Wire Wire Line
	5750 8350 5750 8400
Wire Wire Line
	5750 8800 5750 9150
Wire Wire Line
	5600 9150 5750 9150
$Comp
L sch_power:V_3V3 #PWR017
U 1 1 5C882F37
P 5450 8350
F 0 "#PWR017" H 5450 8350 50  0001 C CNN
F 1 "V_3V3" H 5450 8500 50  0000 C CNN
F 2 "" H 5450 8350 50  0001 C CNN
F 3 "" H 5450 8350 50  0001 C CNN
	1    5450 8350
	1    0    0    -1  
$EndComp
$Comp
L passive:R R55
U 1 1 5C8832FA
P 5450 8600
F 0 "R55" H 5560 8620 50  0000 L BNN
F 1 "10k" H 5560 8580 50  0000 L TNN
F 2 "discrete_smt:RESC1005X55_0402_IPC-B" H 5450 8600 50  0001 C CNN
F 3 "" H 5450 8600 50  0001 C CNN
	1    5450 8600
	0    1    1    0   
$EndComp
Wire Wire Line
	5450 8350 5450 8400
Wire Wire Line
	5450 8800 5450 8900
Connection ~ 5450 8900
Connection ~ 5750 9150
Wire Wire Line
	5750 9150 7200 9150
Text Label 5950 9150 0    50   ~ 0
INDUCTIVE_ZMIN_CONN
$Comp
L passive:R R57
U 1 1 5C8F2F1E
P 6150 9400
F 0 "R57" H 6260 9420 50  0000 L BNN
F 1 "33k" H 6260 9380 50  0000 L TNN
F 2 "discrete_smt:RESC1005X55_0402_IPC-B" H 6150 9400 50  0001 C CNN
F 3 "" H 6150 9400 50  0001 C CNN
	1    6150 9400
	-1   0    0    1   
$EndComp
$Comp
L sch_power:GND #PWR021
U 1 1 5C8F2FC2
P 6500 9500
F 0 "#PWR021" H 6500 9400 50  0001 C CNN
F 1 "GND" H 6500 9400 50  0000 C CNN
F 2 "" H 6500 9500 50  0001 C CNN
F 3 "" H 6500 9500 50  0001 C CNN
	1    6500 9500
	1    0    0    -1  
$EndComp
Wire Wire Line
	6350 9400 6500 9400
Wire Wire Line
	6500 9400 6500 9500
Wire Wire Line
	5950 9400 5750 9400
Wire Wire Line
	5750 9400 5750 9150
Text Notes 5850 9300 0    50   ~ 0
PNP Option
Wire Notes Line
	5700 9300 5700 9650
Wire Notes Line
	5700 9650 6700 9650
Wire Notes Line
	6700 9650 6700 9300
Wire Notes Line
	6700 9300 5700 9300
Wire Notes Line
	850  9800 3500 9800
Wire Notes Line
	3800 9800 7850 9800
Wire Notes Line
	3500 8100 3500 9800
Wire Notes Line
	7850 8100 7850 9800
Wire Notes Line
	3800 9800 3800 8100
Wire Notes Line
	3500 8100 850  8100
Text Notes 8200 5100 0    100  ~ 0
LED Strip (Must use external FETs!)
Wire Notes Line
	8150 5100 13850 5100
Wire Notes Line
	13850 5100 13850 7800
Wire Notes Line
	8150 5100 8150 7800
Wire Notes Line
	8150 8100 8150 9750
Wire Notes Line
	13850 8100 13850 9750
Wire Notes Line
	8150 9750 13850 9750
$Comp
L active:NFET Q6
U 1 1 5C660147
P 11600 9300
F 0 "Q6" H 11630 9350 50  0000 L CNN
F 1 "BSS138W" H 11630 9250 50  0000 L CNN
F 2 "ic_smt:SOT65P210X110-3N_BSS138W_SOT323-PINSPEC" H 11600 9300 50  0001 C CNN
F 3 "" H 11600 9300 50  0001 C CNN
	1    11600 9300
	1    0    0    -1  
$EndComp
$Comp
L connector:J_GEN_2PIN-1COLX2ROW J22
U 1 1 5C660366
P 13150 8800
F 0 "J22" H 13400 8950 50  0000 C CNN
F 1 "PINHEAD_X2" H 13300 8550 50  0000 L CNN
F 2 "connector_tht:PINHEADER_2.54MM_2x1" H 13150 8800 50  0001 C CNN
F 3 "" H 13150 8800 50  0001 C CNN
	1    13150 8800
	1    0    0    -1  
$EndComp
Wire Wire Line
	11600 8800 11600 9150
Wire Wire Line
	13150 8900 13050 8900
Wire Wire Line
	13050 8900 13050 9000
$Comp
L sch_power:GND #PWR043
U 1 1 5C66F804
P 13050 9000
F 0 "#PWR043" H 13050 8900 50  0001 C CNN
F 1 "GND" H 13050 8900 50  0000 C CNN
F 2 "" H 13050 9000 50  0001 C CNN
F 3 "" H 13050 9000 50  0001 C CNN
	1    13050 9000
	1    0    0    -1  
$EndComp
$Comp
L sch_power:GND #PWR036
U 1 1 5C66F96C
P 11600 9500
F 0 "#PWR036" H 11600 9400 50  0001 C CNN
F 1 "GND" H 11600 9400 50  0000 C CNN
F 2 "" H 11600 9500 50  0001 C CNN
F 3 "" H 11600 9500 50  0001 C CNN
	1    11600 9500
	1    0    0    -1  
$EndComp
Wire Wire Line
	11600 9450 11600 9500
Text Label 11700 8800 0    50   ~ 0
PS_ON#_CON
Wire Wire Line
	11450 9350 10400 9350
$Comp
L ic:U_TRCVR_SN74LVC2T45 U7
U 1 1 5C6B651E
P 11850 6050
F 0 "U7" H 12350 6200 50  0000 C CNN
F 1 "U_TRCVR_SN74LVC2T45" H 12000 5600 50  0000 L CNN
F 2 "ic_smt:SOIC65P300X400X130-8MD-TI-DCT" H 11850 6050 50  0001 C CNN
F 3 "" H 11850 6050 50  0001 C CNN
	1    11850 6050
	-1   0    0    -1  
$EndComp
$Comp
L sch_power:V_5V0 #PWR039
U 1 1 5C6B6525
P 12300 5450
F 0 "#PWR039" H 12300 5450 50  0001 C CNN
F 1 "V_5V0" H 12300 5600 50  0000 C CNN
F 2 "" H 12300 5450 50  0001 C CNN
F 3 "" H 12300 5450 50  0001 C CNN
	1    12300 5450
	-1   0    0    -1  
$EndComp
Wire Wire Line
	10850 6050 10500 6050
$Comp
L sch_power:V_3V3 #PWR029
U 1 1 5C6B652C
P 10350 5450
F 0 "#PWR029" H 10350 5450 50  0001 C CNN
F 1 "V_3V3" H 10350 5600 50  0000 C CNN
F 2 "" H 10350 5450 50  0001 C CNN
F 3 "" H 10350 5450 50  0001 C CNN
	1    10350 5450
	1    0    0    -1  
$EndComp
Wire Wire Line
	12300 5500 12300 5450
$Comp
L sch_power:GND #PWR037
U 1 1 5C6B6533
P 11950 6450
F 0 "#PWR037" H 11950 6350 50  0001 C CNN
F 1 "GND" H 11950 6350 50  0000 C CNN
F 2 "" H 11950 6450 50  0001 C CNN
F 3 "" H 11950 6450 50  0001 C CNN
	1    11950 6450
	1    0    0    -1  
$EndComp
$Comp
L sch_power:GND #PWR033
U 1 1 5C6B6539
P 10750 6450
F 0 "#PWR033" H 10750 6350 50  0001 C CNN
F 1 "GND" H 10750 6350 50  0000 C CNN
F 2 "" H 10750 6450 50  0001 C CNN
F 3 "" H 10750 6450 50  0001 C CNN
	1    10750 6450
	1    0    0    -1  
$EndComp
Wire Wire Line
	10850 6350 10750 6350
Wire Wire Line
	10750 6350 10750 6450
Wire Wire Line
	11850 6350 11950 6350
Wire Wire Line
	11950 6350 11950 6450
$Comp
L passive:C_NP C43
U 1 1 5C6B6543
P 10350 5800
F 0 "C43" H 10410 5820 50  0000 L BNN
F 1 "100nF" H 10410 5780 50  0000 L TNN
F 2 "discrete_smt:CAPC1005X55_0402_IPC-B" H 10350 5800 50  0001 C CNN
F 3 "" H 10350 5800 50  0001 C CNN
	1    10350 5800
	0    -1   -1   0   
$EndComp
$Comp
L sch_power:GND #PWR030
U 1 1 5C6B654A
P 10350 5950
F 0 "#PWR030" H 10350 5850 50  0001 C CNN
F 1 "GND" H 10350 5850 50  0000 C CNN
F 2 "" H 10350 5950 50  0001 C CNN
F 3 "" H 10350 5950 50  0001 C CNN
	1    10350 5950
	1    0    0    -1  
$EndComp
Wire Wire Line
	10350 5450 10350 5500
Wire Wire Line
	10350 5500 10500 5500
Wire Wire Line
	10500 5500 10500 6050
Connection ~ 10350 5500
Wire Wire Line
	10350 5500 10350 5700
Wire Wire Line
	10350 5900 10350 5950
$Comp
L passive:C_NP C45
U 1 1 5C6B6556
P 12300 5800
F 0 "C45" H 12360 5820 50  0000 L BNN
F 1 "100nF" H 12360 5780 50  0000 L TNN
F 2 "discrete_smt:CAPC1005X55_0402_IPC-B" H 12300 5800 50  0001 C CNN
F 3 "" H 12300 5800 50  0001 C CNN
	1    12300 5800
	0    -1   -1   0   
$EndComp
$Comp
L sch_power:GND #PWR040
U 1 1 5C6B655D
P 12300 5950
F 0 "#PWR040" H 12300 5850 50  0001 C CNN
F 1 "GND" H 12300 5850 50  0000 C CNN
F 2 "" H 12300 5950 50  0001 C CNN
F 3 "" H 12300 5950 50  0001 C CNN
	1    12300 5950
	1    0    0    -1  
$EndComp
Wire Wire Line
	12300 5500 12300 5700
Wire Wire Line
	12300 5900 12300 5950
Wire Wire Line
	11850 6050 12150 6050
Wire Wire Line
	12150 6050 12150 5500
Wire Wire Line
	12150 5500 12300 5500
Connection ~ 12300 5500
Text Label 12450 6150 0    50   ~ 0
LED_R_5V0
Wire Wire Line
	13000 6250 11850 6250
Text Label 12450 6250 0    50   ~ 0
LED_G_5V0
Text Label 9750 6150 0    50   ~ 0
LED_R
Wire Wire Line
	10850 6250 9700 6250
Text Label 9750 6250 0    50   ~ 0
LED_G
Wire Wire Line
	9700 6150 10850 6150
Text GLabel 9700 6150 0    50   Input ~ 0
LED_R
Text GLabel 9700 6250 0    50   Input ~ 0
LED_G
$Comp
L ic:U_TRCVR_SN74LVC2T45 U8
U 1 1 5C700A8E
P 11850 7100
F 0 "U8" H 12350 7250 50  0000 C CNN
F 1 "U_TRCVR_SN74LVC2T45" H 11950 6650 50  0000 L CNN
F 2 "ic_smt:SOIC65P300X400X130-8MD-TI-DCT" H 11850 7100 50  0001 C CNN
F 3 "" H 11850 7100 50  0001 C CNN
	1    11850 7100
	-1   0    0    -1  
$EndComp
$Comp
L sch_power:V_5V0 #PWR041
U 1 1 5C700A95
P 12300 6500
F 0 "#PWR041" H 12300 6500 50  0001 C CNN
F 1 "V_5V0" H 12300 6650 50  0000 C CNN
F 2 "" H 12300 6500 50  0001 C CNN
F 3 "" H 12300 6500 50  0001 C CNN
	1    12300 6500
	-1   0    0    -1  
$EndComp
Wire Wire Line
	10850 7100 10500 7100
$Comp
L sch_power:V_3V3 #PWR031
U 1 1 5C700A9C
P 10350 6500
F 0 "#PWR031" H 10350 6500 50  0001 C CNN
F 1 "V_3V3" H 10350 6650 50  0000 C CNN
F 2 "" H 10350 6500 50  0001 C CNN
F 3 "" H 10350 6500 50  0001 C CNN
	1    10350 6500
	1    0    0    -1  
$EndComp
Wire Wire Line
	12300 6550 12300 6500
$Comp
L sch_power:GND #PWR038
U 1 1 5C700AA3
P 11950 7500
F 0 "#PWR038" H 11950 7400 50  0001 C CNN
F 1 "GND" H 11950 7400 50  0000 C CNN
F 2 "" H 11950 7500 50  0001 C CNN
F 3 "" H 11950 7500 50  0001 C CNN
	1    11950 7500
	1    0    0    -1  
$EndComp
$Comp
L sch_power:GND #PWR034
U 1 1 5C700AA9
P 10750 7500
F 0 "#PWR034" H 10750 7400 50  0001 C CNN
F 1 "GND" H 10750 7400 50  0000 C CNN
F 2 "" H 10750 7500 50  0001 C CNN
F 3 "" H 10750 7500 50  0001 C CNN
	1    10750 7500
	1    0    0    -1  
$EndComp
Wire Wire Line
	10850 7400 10750 7400
Wire Wire Line
	10750 7400 10750 7500
Wire Wire Line
	11850 7400 11950 7400
Wire Wire Line
	11950 7400 11950 7500
$Comp
L passive:C_NP C44
U 1 1 5C700AB3
P 10350 6850
F 0 "C44" H 10410 6870 50  0000 L BNN
F 1 "100nF" H 10410 6830 50  0000 L TNN
F 2 "discrete_smt:CAPC1005X55_0402_IPC-B" H 10350 6850 50  0001 C CNN
F 3 "" H 10350 6850 50  0001 C CNN
	1    10350 6850
	0    -1   -1   0   
$EndComp
$Comp
L sch_power:GND #PWR032
U 1 1 5C700ABA
P 10350 7000
F 0 "#PWR032" H 10350 6900 50  0001 C CNN
F 1 "GND" H 10350 6900 50  0000 C CNN
F 2 "" H 10350 7000 50  0001 C CNN
F 3 "" H 10350 7000 50  0001 C CNN
	1    10350 7000
	1    0    0    -1  
$EndComp
Wire Wire Line
	10350 6500 10350 6550
Wire Wire Line
	10350 6550 10500 6550
Wire Wire Line
	10500 6550 10500 7100
Connection ~ 10350 6550
Wire Wire Line
	10350 6550 10350 6750
Wire Wire Line
	10350 6950 10350 7000
$Comp
L passive:C_NP C46
U 1 1 5C700AC6
P 12300 6850
F 0 "C46" H 12360 6870 50  0000 L BNN
F 1 "100nF" H 12360 6830 50  0000 L TNN
F 2 "discrete_smt:CAPC1005X55_0402_IPC-B" H 12300 6850 50  0001 C CNN
F 3 "" H 12300 6850 50  0001 C CNN
	1    12300 6850
	0    -1   -1   0   
$EndComp
$Comp
L sch_power:GND #PWR042
U 1 1 5C700ACD
P 12300 7000
F 0 "#PWR042" H 12300 6900 50  0001 C CNN
F 1 "GND" H 12300 6900 50  0000 C CNN
F 2 "" H 12300 7000 50  0001 C CNN
F 3 "" H 12300 7000 50  0001 C CNN
	1    12300 7000
	1    0    0    -1  
$EndComp
Wire Wire Line
	12300 6550 12300 6750
Wire Wire Line
	12300 6950 12300 7000
Wire Wire Line
	11850 7100 12150 7100
Wire Wire Line
	12150 7100 12150 6550
Wire Wire Line
	12150 6550 12300 6550
Connection ~ 12300 6550
Text Label 12450 7200 0    50   ~ 0
LED_B_5V0
Wire Wire Line
	12200 7300 11850 7300
Text Label 12050 7300 0    50   ~ 0
PS_ON_5V
Wire Wire Line
	11850 7200 13000 7200
Text Label 9850 7200 0    50   ~ 0
LED_B
Wire Wire Line
	9700 7200 10850 7200
Text GLabel 9700 7200 0    50   Input ~ 0
LED_B
Text GLabel 9000 9350 0    50   Input ~ 0
PS_ON
Text Label 9850 7300 0    50   ~ 0
PS_ON_MCU_R_LSH
Wire Wire Line
	9000 9350 9750 9350
Wire Wire Line
	9750 9350 9750 9000
Wire Wire Line
	9750 7300 10850 7300
$Comp
L passive:R R64
U 1 1 5C78CB86
P 9750 8800
F 0 "R64" H 9860 8820 50  0000 L BNN
F 1 "0R/0402" H 9860 8780 50  0000 L TNN
F 2 "discrete_smt:RESC1005X55_0402_IPC-B" H 9750 8800 50  0001 C CNN
F 3 "" H 9750 8800 50  0001 C CNN
	1    9750 8800
	0    -1   -1   0   
$EndComp
Wire Wire Line
	9750 8600 9750 8200
$Comp
L passive:R R66
U 1 1 5C78D089
P 10200 9350
F 0 "R66" H 10310 9370 50  0000 L BNN
F 1 "0R/0402" H 10310 9330 50  0000 L TNN
F 2 "discrete_smt:RESC1005X55_0402_IPC-B" H 10200 9350 50  0001 C CNN
F 3 "" H 10200 9350 50  0001 C CNN
	1    10200 9350
	1    0    0    -1  
$EndComp
Wire Wire Line
	9750 9350 10000 9350
Connection ~ 9750 9350
Wire Wire Line
	11600 8800 12350 8800
$Comp
L passive:R R69
U 1 1 5C7DA45C
P 12550 8800
F 0 "R69" H 12660 8820 50  0000 L BNN
F 1 "0R" H 12660 8780 50  0000 L TNN
F 2 "discrete_smt:RESC1005X55_0402_IPC-B" H 12550 8800 50  0001 C CNN
F 3 "" H 12550 8800 50  0001 C CNN
	1    12550 8800
	1    0    0    -1  
$EndComp
Wire Wire Line
	12750 8800 12900 8800
$Comp
L passive:R R68
U 1 1 5C7DA4FA
P 12550 8350
F 0 "R68" H 12660 8370 50  0000 L BNN
F 1 "0R" H 12660 8330 50  0000 L TNN
F 2 "discrete_smt:RESC1005X55_0402_IPC-B" H 12550 8350 50  0001 C CNN
F 3 "" H 12550 8350 50  0001 C CNN
	1    12550 8350
	1    0    0    -1  
$EndComp
Wire Wire Line
	12200 8350 12350 8350
Wire Wire Line
	12750 8350 12900 8350
Wire Wire Line
	12900 8350 12900 8800
Connection ~ 12900 8800
Wire Wire Line
	12900 8800 13150 8800
Wire Notes Line
	8150 8100 13850 8100
Wire Notes Line
	8150 7800 13850 7800
$Comp
L connector:J_GEN_4PIN-1COLX4ROW J21
U 1 1 5C85B442
P 13150 6450
F 0 "J21" H 13400 6600 50  0000 C CNN
F 1 "PINHEAD_X4" H 13300 6000 50  0000 L CNN
F 2 "connector_tht:PINHEADER_2.54MM_1x4" H 13150 6450 50  0001 C CNN
F 3 "" H 13150 6450 50  0001 C CNN
	1    13150 6450
	1    0    0    -1  
$EndComp
Wire Wire Line
	13000 6250 13000 6550
Wire Wire Line
	13000 6550 13150 6550
Wire Wire Line
	13050 6150 13050 6450
Wire Wire Line
	13050 6450 13150 6450
Wire Wire Line
	11850 6150 13050 6150
Wire Wire Line
	13000 7200 13000 6650
Wire Wire Line
	13000 6650 13150 6650
$Comp
L sch_power:GND #PWR044
U 1 1 5C87EE61
P 13100 6800
F 0 "#PWR044" H 13100 6700 50  0001 C CNN
F 1 "GND" H 13100 6700 50  0000 C CNN
F 2 "" H 13100 6800 50  0001 C CNN
F 3 "" H 13100 6800 50  0001 C CNN
	1    13100 6800
	1    0    0    -1  
$EndComp
Wire Wire Line
	13150 6750 13100 6750
Wire Wire Line
	13100 6750 13100 6800
Text Notes 8150 8100 0    100  ~ 0
PS_ON
Text Label 9100 9350 0    50   ~ 0
PS_ON_MCU
$Comp
L passive:R R67
U 1 1 5C8A4D02
P 11050 8800
F 0 "R67" H 11160 8820 50  0000 L BNN
F 1 "10k/0402" H 11160 8780 50  0000 L TNN
F 2 "discrete_smt:RESC1005X55_0402_IPC-B" H 11050 8800 50  0001 C CNN
F 3 "" H 11050 8800 50  0001 C CNN
	1    11050 8800
	1    0    0    -1  
$EndComp
$Comp
L sch_power:V_5V0 #PWR035
U 1 1 5C8A4F8E
P 10800 8700
F 0 "#PWR035" H 10800 8700 50  0001 C CNN
F 1 "V_5V0" H 10800 8850 50  0000 C CNN
F 2 "" H 10800 8700 50  0001 C CNN
F 3 "" H 10800 8700 50  0001 C CNN
	1    10800 8700
	-1   0    0    -1  
$EndComp
Wire Wire Line
	10800 8700 10800 8800
Wire Wire Line
	11250 8800 11600 8800
Connection ~ 11600 8800
Wire Wire Line
	10800 8800 10850 8800
Text Label 10750 9350 0    50   ~ 0
PS_ON_MCU_R_FET
Wire Notes Line style solid rgb(194, 15, 0)
	12800 9700 12800 8650
$Comp
L passive:R R65
U 1 1 5CA125A0
P 10150 8850
F 0 "R65" H 10260 8870 50  0000 L BNN
F 1 "0R/0402" H 10260 8830 50  0000 L TNN
F 2 "discrete_smt:RESC1005X55_0402_IPC-B" H 10150 8850 50  0001 C CNN
F 3 "" H 10150 8850 50  0001 C CNN
	1    10150 8850
	0    -1   -1   0   
$EndComp
$Comp
L sch_power:GND #PWR025
U 1 1 5CA1EEEA
P 10150 9100
F 0 "#PWR025" H 10150 9000 50  0001 C CNN
F 1 "GND" H 10150 9000 50  0000 C CNN
F 2 "" H 10150 9100 50  0001 C CNN
F 3 "" H 10150 9100 50  0001 C CNN
	1    10150 9100
	1    0    0    -1  
$EndComp
Wire Wire Line
	10150 9050 10150 9100
Wire Wire Line
	9750 8200 10150 8200
Wire Wire Line
	10150 8200 10150 8650
Connection ~ 9750 8200
Text Notes 8150 10000 0    50   ~ 0
Select if PS_ON# shall be ATX compatible\n(FET OpenDrain option - RED colored), or active-high\nfor different usage (level shifter option - YELLOW colored).
Wire Notes Line style solid rgb(194, 15, 0)
	9950 9700 9950 8350
Wire Notes Line style solid rgb(194, 15, 0)
	11000 8350 9950 8350
Wire Notes Line style solid rgb(194, 15, 0)
	11000 8650 11000 8350
Wire Notes Line style solid rgb(194, 15, 0)
	12800 8650 11000 8650
Wire Notes Line style solid rgb(194, 15, 0)
	12800 9700 9950 9700
Wire Notes Line style solid rgb(194, 188, 0)
	9900 9450 9900 8300
Wire Notes Line style solid rgb(194, 188, 0)
	9600 9450 9600 8150
Wire Notes Line style solid rgb(194, 188, 0)
	9900 9450 9600 9450
Wire Notes Line style solid rgb(194, 188, 0)
	11100 8300 9900 8300
Wire Notes Line style solid rgb(194, 188, 0)
	13000 8550 11100 8550
Wire Notes Line style solid rgb(194, 188, 0)
	11100 8550 11100 8300
Wire Notes Line style solid rgb(194, 188, 0)
	9600 8150 13000 8150
Wire Notes Line style solid rgb(194, 188, 0)
	13000 8550 13000 8150
Text Notes 5900 8500 0    50   ~ 0
NPN Option
Wire Notes Line
	5600 8900 5900 8900
Wire Notes Line
	5900 8900 5900 8400
Wire Notes Line
	5900 8400 5600 8400
Wire Notes Line
	5600 8400 5600 8900
$Comp
L connector:J_GEN_3PIN-1COLX3ROW J26
U 1 1 5C619906
P 6650 5950
F 0 "J26" H 6900 6100 50  0000 C CNN
F 1 "PINHEAD_X3" H 6800 5600 50  0000 L CNN
F 2 "connector_tht:PINHEADER_2.54MM_1x3" H 6650 5950 50  0001 C CNN
F 3 "" H 6650 5950 50  0001 C CNN
	1    6650 5950
	0    -1   -1   0   
$EndComp
Wire Wire Line
	6200 6000 6850 6000
Wire Wire Line
	6850 6000 6850 5950
Connection ~ 6200 6000
Wire Wire Line
	6750 6050 6750 5950
$Comp
L sch_power:GND #PWR0190
U 1 1 5C62707E
P 6750 6050
F 0 "#PWR0190" H 6750 5950 50  0001 C CNN
F 1 "GND" H 6750 5950 50  0000 C CNN
F 2 "" H 6750 6050 50  0001 C CNN
F 3 "" H 6750 6050 50  0001 C CNN
	1    6750 6050
	1    0    0    -1  
$EndComp
Text GLabel 2150 6800 0    50   Output ~ 0
ENDSTOP_EXTRA
$Comp
L passive:R R86
U 1 1 5C642470
P 3450 6800
F 0 "R86" H 3560 6820 50  0000 L BNN
F 1 "1k" H 3560 6780 50  0000 L TNN
F 2 "discrete_smt:RESC1005X55_0402_IPC-B" H 3450 6800 50  0001 C CNN
F 3 "" H 3450 6800 50  0001 C CNN
	1    3450 6800
	1    0    0    -1  
$EndComp
Wire Wire Line
	2150 6800 2900 6800
$Comp
L passive:R R84
U 1 1 5C66B4CD
P 2900 5700
F 0 "R84" H 3010 5720 50  0000 L BNN
F 1 "10k" H 3010 5680 50  0000 L TNN
F 2 "discrete_smt:RESC1005X55_0402_IPC-B" H 2900 5700 50  0001 C CNN
F 3 "" H 2900 5700 50  0001 C CNN
	1    2900 5700
	0    -1   -1   0   
$EndComp
Wire Wire Line
	2700 5400 2900 5400
Wire Wire Line
	2900 5400 2900 5500
Connection ~ 2700 5400
$Comp
L passive:C_NP C47
U 1 1 5C6793F5
P 2900 7450
F 0 "C47" H 2960 7470 50  0000 L BNN
F 1 "100nF" H 2960 7430 50  0000 L TNN
F 2 "discrete_smt:CAPC1005X55_0402_IPC-B" H 2900 7450 50  0001 C CNN
F 3 "" H 2900 7450 50  0001 C CNN
	1    2900 7450
	0    -1   -1   0   
$EndComp
$Comp
L sch_power:GND #PWR0191
U 1 1 5C6793FC
P 2900 7600
F 0 "#PWR0191" H 2900 7500 50  0001 C CNN
F 1 "GND" H 2900 7500 50  0000 C CNN
F 2 "" H 2900 7600 50  0001 C CNN
F 3 "" H 2900 7600 50  0001 C CNN
	1    2900 7600
	1    0    0    -1  
$EndComp
Wire Wire Line
	2900 7550 2900 7600
Wire Wire Line
	2900 5900 2900 6800
Connection ~ 2900 6800
Wire Wire Line
	2900 6800 3250 6800
Wire Wire Line
	2900 6800 2900 7350
Wire Wire Line
	3650 6800 6650 6800
Wire Wire Line
	6650 6800 6650 5950
Text Label 3850 6800 0    50   ~ 0
ENDSTOP_EXTRA0_UNFILT
$Comp
L connector:J_GEN_3PIN-1COLX3ROW J27
U 1 1 5C6C34F0
P 7300 5950
F 0 "J27" H 7550 6100 50  0000 C CNN
F 1 "PINHEAD_X3" H 7450 5600 50  0000 L CNN
F 2 "connector_tht:PINHEADER_2.54MM_1x3" H 7300 5950 50  0001 C CNN
F 3 "" H 7300 5950 50  0001 C CNN
	1    7300 5950
	0    -1   -1   0   
$EndComp
Wire Wire Line
	6850 6000 7500 6000
Wire Wire Line
	7500 6000 7500 5950
Wire Wire Line
	7400 6050 7400 5950
$Comp
L sch_power:GND #PWR0192
U 1 1 5C6C34FA
P 7400 6050
F 0 "#PWR0192" H 7400 5950 50  0001 C CNN
F 1 "GND" H 7400 5950 50  0000 C CNN
F 2 "" H 7400 6050 50  0001 C CNN
F 3 "" H 7400 6050 50  0001 C CNN
	1    7400 6050
	1    0    0    -1  
$EndComp
Text GLabel 2150 7000 0    50   Output ~ 0
ENDSTOP_EXTRA
$Comp
L passive:R R87
U 1 1 5C6E23F9
P 3450 7000
F 0 "R87" H 3560 7020 50  0000 L BNN
F 1 "1k" H 3560 6980 50  0000 L TNN
F 2 "discrete_smt:RESC1005X55_0402_IPC-B" H 3450 7000 50  0001 C CNN
F 3 "" H 3450 7000 50  0001 C CNN
	1    3450 7000
	1    0    0    -1  
$EndComp
Wire Wire Line
	2150 7000 3100 7000
Wire Wire Line
	3650 7000 7300 7000
Wire Wire Line
	7300 5950 7300 7000
Text Label 3850 7000 0    50   ~ 0
ENDSTOP_EXTRA1_UNFILT
Connection ~ 6850 6000
$Comp
L passive:R R85
U 1 1 5C721264
P 3100 5700
F 0 "R85" H 3210 5720 50  0000 L BNN
F 1 "10k" H 3210 5680 50  0000 L TNN
F 2 "discrete_smt:RESC1005X55_0402_IPC-B" H 3100 5700 50  0001 C CNN
F 3 "" H 3100 5700 50  0001 C CNN
	1    3100 5700
	0    -1   -1   0   
$EndComp
Wire Wire Line
	2900 5400 3100 5400
Wire Wire Line
	3100 5400 3100 5500
Connection ~ 2900 5400
$Comp
L passive:C_NP C48
U 1 1 5C7312EF
P 3100 7450
F 0 "C48" H 3160 7470 50  0000 L BNN
F 1 "100nF" H 3160 7430 50  0000 L TNN
F 2 "discrete_smt:CAPC1005X55_0402_IPC-B" H 3100 7450 50  0001 C CNN
F 3 "" H 3100 7450 50  0001 C CNN
	1    3100 7450
	0    -1   -1   0   
$EndComp
$Comp
L sch_power:GND #PWR0193
U 1 1 5C7312F6
P 3100 7600
F 0 "#PWR0193" H 3100 7500 50  0001 C CNN
F 1 "GND" H 3100 7500 50  0000 C CNN
F 2 "" H 3100 7600 50  0001 C CNN
F 3 "" H 3100 7600 50  0001 C CNN
	1    3100 7600
	1    0    0    -1  
$EndComp
Wire Wire Line
	3100 7550 3100 7600
Wire Wire Line
	3100 7350 3100 7000
Connection ~ 3100 7000
Wire Wire Line
	3100 7000 3250 7000
Wire Wire Line
	3100 5900 3100 7000
Text Notes 6600 5550 0    100  ~ 0
EX0
Text Notes 7250 5550 0    100  ~ 0
EX1
Wire Wire Line
	12200 7300 12200 8350
Wire Wire Line
	9750 7300 9750 8200
$EndSCHEMATC
